%!PS-Adobe-3.0 EPSF-3.0 
%%BoundingBox: 0 0 432 217
%%Pages: 0
%%Creator: LibreOffice 5.1
%%Title: none
%%CreationDate: none
%%LanguageLevel: 2
%%EndComments
%%BeginProlog
%%BeginResource: procset SDRes-Prolog 1.0 0
/b4_inc_state save def
/dict_count countdictstack def
/op_count count 1 sub def
userdict begin
0 setgray 0 setlinecap 1 setlinewidth 0 setlinejoin 10 setmiterlimit[] 0 setdash newpath
/languagelevel where {pop languagelevel 1 ne {false setstrokeadjust false setoverprint} if} if
/bdef {bind def} bind def
/c {setgray} bdef
/l {neg lineto} bdef
/rl {neg rlineto} bdef
/lc {setlinecap} bdef
/lj {setlinejoin} bdef
/lw {setlinewidth} bdef
/ml {setmiterlimit} bdef
/ld {setdash} bdef
/m {neg moveto} bdef
/ct {6 2 roll neg 6 2 roll neg 6 2 roll neg curveto} bdef
/r {rotate} bdef
/t {neg translate} bdef
/s {scale} bdef
/sw {show} bdef
/gs {gsave} bdef
/gr {grestore} bdef
/f {findfont dup length dict begin
{1 index /FID ne {def} {pop pop} ifelse} forall /Encoding ISOLatin1Encoding def
currentdict end /NFont exch definefont pop /NFont findfont} bdef
/p {closepath} bdef
/sf {scalefont setfont} bdef
/ef {eofill}bdef
/pc {closepath stroke}bdef
/ps {stroke}bdef
/pum {matrix currentmatrix}bdef
/pom {setmatrix}bdef
/bs {/aString exch def /nXOfs exch def /nWidth exch def currentpoint nXOfs 0 rmoveto pum nWidth aString stringwidth pop div 1 scale aString show pom moveto} bdef
%%EndResource
%%EndProlog
%%BeginSetup
%%EndSetup
%%Page: 1 1
%%BeginPageSetup
%%EndPageSetup
pum
0.02832 0.02834 s 
0 -7656 t
/tm matrix currentmatrix def
tm setmatrix
-3169 -10138 t 
1 1 s 
0 lw 1 lj 0.363 c 10793 17792 m  3169 17792 l  3169 10139 l  18417 10139 l 
18417 17792 l  10793 17792 l  pc
0.695 c 10794 10640 m  3170 10640 l  3170 10140 l  18418 10140 l  18418 10640 l 
10794 10640 l  p ef
0.363 c 10793 10640 m  3169 10640 l  3169 10140 l  18417 10140 l  18417 10640 l 
10793 10640 l  pc
pum
9717 10562 t
0.000 c 134 -2 m  127 0 120 1 113 2 ct 107 3 99 4 90 4 ct 55 4 38 -16 38 -55 ct 38 -229 l 
7 -229 l  7 -261 l  39 -261 l  52 -320 l  81 -320 l  81 -261 l  129 -261 l 
129 -229 l  81 -229 l  81 -65 l  81 -52 83 -43 87 -38 ct 91 -33 98 -31 109 -31 ct 
113 -31 117 -31 121 -31 ct 125 -32 129 -33 134 -34 ct 134 -2 l  p ef
207 -121 m  207 -107 208 -95 211 -83 ct 214 -72 218 -62 224 -54 ct 230 -45 237 -39 246 -34 ct 
256 -30 267 -28 279 -28 ct 298 -28 313 -31 325 -39 ct 336 -46 344 -56 348 -68 ct 
386 -57 l  383 -49 379 -42 374 -35 ct 369 -28 363 -21 355 -15 ct 346 -9 336 -4 324 -1 ct 
312 3 297 5 279 5 ct 241 5 211 -7 191 -30 ct 171 -53 161 -87 161 -132 ct 161 -157 164 -177 170 -194 ct 
176 -211 185 -225 195 -236 ct 206 -246 218 -254 232 -259 ct 247 -264 262 -266 278 -266 ct 
300 -266 318 -262 333 -255 ct 347 -248 359 -238 368 -226 ct 377 -213 383 -199 387 -182 ct 
391 -165 393 -147 393 -127 ct 393 -121 l  207 -121 l  p
348 -154 m  346 -182 339 -202 327 -215 ct 315 -228 299 -234 277 -234 ct 270 -234 262 -233 254 -230 ct 
246 -228 239 -224 232 -218 ct 225 -212 220 -204 215 -193 ct 210 -183 208 -170 207 -154 ct 
348 -154 l  p ef
644 -72 m  644 -60 642 -49 637 -39 ct 632 -30 625 -22 616 -15 ct 607 -9 596 -4 583 0 ct 
570 3 555 5 538 5 ct 523 5 510 4 497 2 ct 485 -1 475 -5 465 -10 ct 456 -15 449 -22 442 -30 ct 
436 -39 432 -49 429 -61 ct 467 -69 l  471 -55 478 -44 490 -38 ct 502 -31 518 -28 538 -28 ct 
548 -28 556 -29 564 -30 ct 572 -31 578 -34 584 -37 ct 590 -40 594 -44 597 -49 ct 
600 -54 602 -61 602 -69 ct 602 -76 600 -83 596 -88 ct 593 -93 588 -97 581 -101 ct 
574 -104 566 -107 557 -110 ct 548 -112 537 -115 526 -118 ct 516 -121 505 -124 495 -127 ct 
485 -130 475 -135 467 -140 ct 459 -146 452 -153 447 -161 ct 442 -169 439 -180 439 -192 ct 
439 -216 448 -234 465 -246 ct 482 -259 506 -265 539 -265 ct 568 -265 590 -260 607 -250 ct 
624 -240 635 -223 640 -201 ct 600 -196 l  599 -203 596 -209 593 -213 ct 589 -218 584 -222 579 -224 ct 
573 -227 567 -229 560 -230 ct 553 -232 546 -232 539 -232 ct 519 -232 505 -229 495 -223 ct 
486 -217 481 -208 481 -196 ct 481 -189 483 -183 487 -179 ct 490 -174 495 -170 501 -167 ct 
507 -164 515 -161 523 -159 ct 532 -157 542 -154 552 -152 ct 559 -150 566 -148 573 -146 ct 
580 -144 588 -142 594 -139 ct 601 -136 608 -133 614 -129 ct 620 -125 625 -120 629 -115 ct 
634 -110 638 -104 640 -97 ct 643 -90 644 -81 644 -72 ct p ef
799 -2 m  792 0 785 1 778 2 ct 772 3 764 4 755 4 ct 720 4 703 -16 703 -55 ct 703 -229 l 
672 -229 l  672 -261 l  704 -261 l  717 -320 l  746 -320 l  746 -261 l 
794 -261 l  794 -229 l  746 -229 l  746 -65 l  746 -52 748 -43 752 -38 ct 
756 -33 763 -31 774 -31 ct 778 -31 782 -31 786 -31 ct 790 -32 794 -33 799 -34 ct 
799 -2 l  p ef
1058 -132 m  1058 -41 1026 5 962 5 ct 942 5 926 1 913 -6 ct 900 -13 889 -24 881 -40 ct 
880 -40 l  880 -36 880 -32 880 -27 ct 880 -23 879 -18 879 -14 ct 879 -11 879 -7 878 -4 ct 
878 -2 878 0 878 0 ct 836 0 l  836 -2 836 -4 836 -8 ct 836 -11 837 -15 837 -20 ct 
837 -25 837 -30 837 -36 ct 837 -42 837 -48 837 -54 ct 837 -358 l  881 -358 l 
881 -256 l  881 -251 881 -247 881 -242 ct 881 -238 880 -234 880 -231 ct 880 -226 880 -223 880 -219 ct 
881 -219 l  889 -236 899 -248 913 -255 ct 926 -262 942 -266 962 -266 ct 995 -266 1019 -255 1035 -233 ct 
1050 -210 1058 -177 1058 -132 ct p
1012 -130 m  1012 -148 1011 -164 1009 -177 ct 1007 -190 1003 -200 998 -208 ct 
993 -217 987 -223 979 -227 ct 971 -231 962 -232 951 -232 ct 939 -232 929 -231 921 -227 ct 
912 -223 905 -217 899 -209 ct 893 -201 888 -190 885 -177 ct 882 -163 881 -147 881 -128 ct 
881 -109 882 -93 885 -80 ct 888 -68 893 -57 899 -49 ct 905 -41 912 -36 921 -32 ct 
929 -29 939 -27 950 -27 ct 961 -27 970 -29 978 -33 ct 986 -36 992 -42 997 -51 ct 
1002 -59 1006 -69 1009 -83 ct 1011 -96 1012 -112 1012 -130 ct p ef
1147 -121 m  1147 -107 1148 -95 1151 -83 ct 1154 -72 1158 -62 1164 -54 ct 1170 -45 1177 -39 1186 -34 ct 
1196 -30 1207 -28 1219 -28 ct 1238 -28 1253 -31 1265 -39 ct 1276 -46 1284 -56 1288 -68 ct 
1326 -57 l  1323 -49 1319 -42 1314 -35 ct 1309 -28 1303 -21 1295 -15 ct 1286 -9 1276 -4 1264 -1 ct 
1252 3 1237 5 1219 5 ct 1181 5 1151 -7 1131 -30 ct 1111 -53 1101 -87 1101 -132 ct 
1101 -157 1104 -177 1110 -194 ct 1116 -211 1125 -225 1135 -236 ct 1146 -246 1158 -254 1172 -259 ct 
1187 -264 1202 -266 1218 -266 ct 1240 -266 1258 -262 1273 -255 ct 1287 -248 1299 -238 1308 -226 ct 
1317 -213 1323 -199 1327 -182 ct 1331 -165 1333 -147 1333 -127 ct 1333 -121 l 
1147 -121 l  p
1288 -154 m  1286 -182 1279 -202 1267 -215 ct 1255 -228 1239 -234 1217 -234 ct 
1210 -234 1202 -233 1194 -230 ct 1186 -228 1179 -224 1172 -218 ct 1165 -212 1160 -204 1155 -193 ct 
1150 -183 1148 -170 1147 -154 ct 1288 -154 l  p ef
1554 0 m  1554 -166 l  1554 -178 1553 -189 1551 -197 ct 1549 -206 1546 -213 1542 -218 ct 
1538 -223 1532 -227 1526 -229 ct 1519 -231 1510 -232 1500 -232 ct 1490 -232 1481 -231 1472 -227 ct 
1464 -223 1457 -218 1451 -211 ct 1445 -205 1441 -196 1437 -186 ct 1434 -176 1433 -164 1433 -151 ct 
1433 0 l  1389 0 l  1389 -206 l  1389 -211 1389 -217 1389 -223 ct 1389 -229 1389 -235 1389 -240 ct 
1389 -246 1388 -251 1388 -254 ct 1388 -258 1388 -260 1388 -260 ct 1429 -260 l 
1429 -259 1429 -257 1429 -254 ct 1429 -250 1430 -246 1430 -242 ct 1430 -237 1430 -233 1431 -228 ct 
1431 -224 1431 -220 1431 -217 ct 1431 -217 l  1436 -224 1440 -231 1445 -237 ct 
1450 -243 1456 -248 1463 -253 ct 1469 -257 1477 -260 1485 -263 ct 1494 -265 1504 -266 1515 -266 ct 
1529 -266 1542 -264 1552 -261 ct 1563 -257 1571 -252 1578 -244 ct 1585 -237 1590 -227 1593 -216 ct 
1596 -204 1598 -190 1598 -174 ct 1598 0 l  1554 0 l  p ef
1696 -132 m  1696 -117 1697 -103 1700 -90 ct 1702 -78 1705 -67 1711 -58 ct 1716 -49 1723 -42 1731 -37 ct 
1739 -32 1750 -29 1762 -29 ct 1778 -29 1791 -33 1801 -41 ct 1811 -50 1818 -62 1820 -79 ct 
1864 -79 l  1863 -68 1859 -58 1855 -47 ct 1850 -37 1843 -28 1835 -21 ct 1827 -13 1817 -7 1805 -2 ct 
1793 3 1779 5 1763 5 ct 1743 5 1726 2 1711 -5 ct 1697 -12 1685 -22 1676 -34 ct 
1668 -46 1661 -60 1657 -77 ct 1653 -94 1651 -111 1651 -131 ct 1651 -148 1652 -164 1655 -177 ct 
1658 -191 1662 -202 1668 -213 ct 1673 -223 1679 -231 1686 -238 ct 1693 -245 1701 -250 1709 -254 ct 
1717 -258 1726 -261 1735 -263 ct 1744 -265 1754 -266 1763 -266 ct 1778 -266 1791 -264 1802 -260 ct 
1813 -256 1823 -250 1832 -243 ct 1840 -236 1847 -228 1852 -219 ct 1857 -209 1860 -199 1863 -188 ct 
1818 -185 l  1816 -199 1810 -211 1801 -219 ct 1792 -228 1779 -232 1762 -232 ct 
1749 -232 1739 -230 1731 -226 ct 1722 -222 1716 -216 1711 -207 ct 1705 -199 1702 -188 1700 -176 ct 
1697 -163 1696 -149 1696 -132 ct p ef
1956 -217 m  1961 -225 1967 -233 1972 -239 ct 1978 -245 1984 -250 1991 -254 ct 
1997 -258 2005 -261 2013 -263 ct 2021 -265 2030 -266 2040 -266 ct 2057 -266 2070 -264 2081 -259 ct 
2092 -255 2100 -248 2106 -240 ct 2113 -232 2117 -222 2119 -211 ct 2121 -200 2123 -188 2123 -174 ct 
2123 0 l  2079 0 l  2079 -166 l  2079 -177 2078 -186 2077 -195 ct 2076 -203 2073 -210 2069 -216 ct 
2065 -221 2060 -225 2053 -228 ct 2046 -231 2036 -232 2025 -232 ct 2015 -232 2006 -231 1997 -227 ct 
1989 -223 1982 -218 1976 -211 ct 1970 -204 1966 -196 1962 -187 ct 1959 -177 1958 -166 1958 -154 ct 
1958 0 l  1914 0 l  1914 -358 l  1958 -358 l  1958 -265 l  1958 -260 1958 -254 1957 -249 ct 
1957 -244 1957 -239 1957 -234 ct 1957 -230 1956 -226 1956 -223 ct 1956 -220 1956 -218 1956 -217 ct 
1956 -217 l  p ef
pom
0.796 c 10794 11140 m  3170 11140 l  3170 10640 l  18418 10640 l  18418 11140 l 
10794 11140 l  p ef
0.363 c 10793 11140 m  3169 11140 l  3169 10640 l  18417 10640 l  18417 11140 l 
10793 11140 l  pc
pum
10079 11019 t
0.000 c 172 -54 m  172 -44 170 -36 166 -29 ct 163 -22 158 -16 151 -11 ct 144 -6 136 -2 126 0 ct 
116 3 105 4 92 4 ct 81 4 71 3 62 1 ct 53 0 45 -3 38 -7 ct 31 -11 25 -16 21 -22 ct 
16 -29 12 -36 10 -45 ct 39 -51 l  42 -41 48 -33 56 -28 ct 65 -23 77 -21 92 -21 ct 
99 -21 106 -21 112 -22 ct 117 -23 122 -25 127 -27 ct 131 -30 134 -33 136 -37 ct 
139 -40 140 -45 140 -51 ct 140 -57 139 -62 136 -66 ct 133 -69 129 -73 124 -75 ct 
119 -78 113 -80 106 -82 ct 99 -84 92 -86 83 -88 ct 75 -90 68 -92 60 -95 ct 52 -97 45 -101 39 -105 ct 
33 -109 28 -114 24 -120 ct 20 -126 18 -134 18 -143 ct 18 -161 24 -175 37 -184 ct 
50 -193 68 -198 93 -198 ct 114 -198 131 -194 144 -187 ct 157 -179 165 -167 168 -150 ct 
139 -147 l  138 -152 136 -156 133 -159 ct 130 -163 127 -165 122 -168 ct 118 -170 114 -171 109 -172 ct 
104 -173 98 -173 93 -173 ct 78 -173 67 -171 60 -167 ct 53 -162 50 -156 50 -147 ct 
50 -141 51 -137 54 -133 ct 56 -130 60 -127 64 -125 ct 69 -122 75 -120 81 -119 ct 
88 -117 95 -115 103 -113 ct 108 -112 113 -110 119 -109 ct 124 -107 129 -106 134 -104 ct 
139 -101 144 -99 149 -96 ct 153 -93 157 -90 161 -86 ct 164 -82 167 -77 169 -72 ct 
171 -67 172 -61 172 -54 ct p ef
286 -1 m  281 0 276 1 271 2 ct 266 3 260 3 253 3 ct 227 3 214 -12 214 -41 ct 214 -171 l 
192 -171 l  192 -195 l  215 -195 l  225 -239 l  247 -239 l  247 -195 l 
283 -195 l  283 -171 l  247 -171 l  247 -48 l  247 -39 248 -32 251 -29 ct 
254 -25 260 -23 267 -23 ct 270 -23 273 -23 276 -24 ct 279 -24 283 -25 286 -25 ct 
286 -1 l  p ef
314 0 m  314 -150 l  314 -154 314 -158 314 -162 ct 314 -167 313 -171 313 -175 ct 
313 -179 313 -183 313 -186 ct 313 -189 313 -193 313 -195 ct 343 -195 l  343 -193 344 -189 344 -186 ct 
344 -182 344 -179 344 -175 ct 344 -171 345 -168 345 -164 ct 345 -161 345 -158 345 -155 ct 
345 -155 l  348 -163 350 -169 353 -175 ct 355 -180 358 -185 362 -188 ct 365 -192 370 -195 374 -196 ct 
379 -198 385 -199 392 -199 ct 395 -199 397 -199 399 -198 ct 402 -198 404 -198 405 -197 ct 
405 -167 l  403 -168 400 -168 397 -169 ct 395 -169 391 -169 388 -169 ct 380 -169 374 -168 369 -164 ct 
363 -161 359 -156 356 -150 ct 353 -144 350 -137 349 -129 ct 347 -121 346 -112 346 -102 ct 
346 0 l  314 0 l  p ef
468 -195 m  468 -71 l  468 -62 468 -54 470 -47 ct 471 -41 473 -36 477 -32 ct 
480 -28 484 -25 489 -24 ct 494 -22 500 -21 508 -21 ct 516 -21 523 -22 529 -25 ct 
535 -28 540 -32 545 -37 ct 549 -42 553 -48 555 -56 ct 557 -63 559 -72 559 -82 ct 
559 -195 l  591 -195 l  591 -41 l  591 -37 591 -32 591 -28 ct 591 -23 591 -19 591 -15 ct 
592 -11 592 -7 592 -5 ct 592 -2 592 0 592 0 ct 562 0 l  561 -1 561 -2 561 -5 ct 
561 -8 561 -11 561 -14 ct 561 -17 560 -21 560 -24 ct 560 -28 560 -31 560 -33 ct 
560 -33 l  556 -27 553 -22 549 -18 ct 545 -13 541 -9 536 -6 ct 531 -3 526 0 519 1 ct 
513 3 505 4 497 4 ct 486 4 477 3 469 0 ct 461 -3 455 -7 450 -12 ct 445 -18 441 -25 439 -34 ct 
436 -42 435 -53 435 -65 ct 435 -195 l  468 -195 l  p ef
664 -98 m  664 -87 665 -77 666 -67 ct 668 -58 670 -50 674 -43 ct 678 -36 683 -31 690 -27 ct 
696 -24 704 -22 713 -22 ct 725 -22 734 -25 742 -31 ct 750 -37 755 -46 756 -59 ct 
789 -59 l  788 -51 786 -43 782 -35 ct 779 -28 774 -21 767 -15 ct 761 -9 754 -5 745 -1 ct 
736 2 726 4 714 4 ct 699 4 686 1 675 -4 ct 664 -9 655 -16 649 -25 ct 642 -34 637 -45 634 -57 ct 
631 -70 630 -83 630 -97 ct 630 -111 631 -122 633 -132 ct 635 -142 638 -151 642 -158 ct 
646 -166 651 -172 656 -177 ct 661 -183 667 -187 673 -190 ct 679 -193 686 -195 693 -196 ct 
700 -198 707 -198 714 -198 ct 725 -198 734 -197 743 -194 ct 751 -191 759 -187 765 -182 ct 
771 -176 776 -170 780 -163 ct 784 -156 787 -148 788 -140 ct 755 -138 l  753 -148 749 -157 742 -163 ct 
735 -170 725 -173 713 -173 ct 703 -173 696 -171 689 -168 ct 683 -165 678 -161 674 -155 ct 
670 -148 668 -141 666 -131 ct 665 -122 664 -111 664 -98 ct p ef
900 -1 m  895 0 890 1 885 2 ct 880 3 874 3 867 3 ct 841 3 828 -12 828 -41 ct 828 -171 l 
806 -171 l  806 -195 l  829 -195 l  839 -239 l  861 -239 l  861 -195 l 
897 -195 l  897 -171 l  861 -171 l  861 -48 l  861 -39 862 -32 865 -29 ct 
868 -25 874 -23 881 -23 ct 884 -23 887 -23 890 -24 ct 893 -24 897 -25 900 -25 ct 
900 -1 l  p ef
959 -195 m  959 -71 l  959 -62 959 -54 961 -47 ct 962 -41 964 -36 968 -32 ct 
971 -28 975 -25 980 -24 ct 985 -22 991 -21 999 -21 ct 1007 -21 1014 -22 1020 -25 ct 
1026 -28 1031 -32 1036 -37 ct 1040 -42 1044 -48 1046 -56 ct 1048 -63 1050 -72 1050 -82 ct 
1050 -195 l  1082 -195 l  1082 -41 l  1082 -37 1082 -32 1082 -28 ct 1082 -23 1082 -19 1082 -15 ct 
1083 -11 1083 -7 1083 -5 ct 1083 -2 1083 0 1083 0 ct 1053 0 l  1052 -1 1052 -2 1052 -5 ct 
1052 -8 1052 -11 1052 -14 ct 1052 -17 1051 -21 1051 -24 ct 1051 -28 1051 -31 1051 -33 ct 
1051 -33 l  1047 -27 1044 -22 1040 -18 ct 1036 -13 1032 -9 1027 -6 ct 1022 -3 1017 0 1010 1 ct 
1004 3 996 4 988 4 ct 977 4 968 3 960 0 ct 952 -3 946 -7 941 -12 ct 936 -18 932 -25 930 -34 ct 
927 -42 926 -53 926 -65 ct 926 -195 l  959 -195 l  p ef
1131 0 m  1131 -150 l  1131 -154 1131 -158 1131 -162 ct 1131 -167 1130 -171 1130 -175 ct 
1130 -179 1130 -183 1130 -186 ct 1130 -189 1130 -193 1130 -195 ct 1160 -195 l 
1160 -193 1161 -189 1161 -186 ct 1161 -182 1161 -179 1161 -175 ct 1161 -171 1162 -168 1162 -164 ct 
1162 -161 1162 -158 1162 -155 ct 1162 -155 l  1165 -163 1167 -169 1170 -175 ct 
1172 -180 1175 -185 1179 -188 ct 1182 -192 1187 -195 1191 -196 ct 1196 -198 1202 -199 1209 -199 ct 
1212 -199 1214 -199 1216 -198 ct 1219 -198 1221 -198 1222 -197 ct 1222 -167 l 
1220 -168 1217 -168 1214 -169 ct 1212 -169 1208 -169 1205 -169 ct 1197 -169 1191 -168 1186 -164 ct 
1180 -161 1176 -156 1173 -150 ct 1170 -144 1167 -137 1166 -129 ct 1164 -121 1163 -112 1163 -102 ct 
1163 0 l  1131 0 l  p ef
1278 -90 m  1278 -80 1279 -71 1281 -62 ct 1283 -53 1286 -46 1291 -40 ct 1295 -34 1301 -29 1308 -26 ct 
1315 -22 1323 -20 1332 -20 ct 1347 -20 1358 -23 1366 -29 ct 1375 -34 1381 -42 1384 -50 ct 
1412 -42 l  1410 -37 1407 -31 1404 -26 ct 1400 -20 1395 -15 1389 -11 ct 1383 -7 1375 -3 1366 0 ct 
1357 3 1345 4 1332 4 ct 1304 4 1282 -5 1266 -22 ct 1251 -39 1244 -65 1244 -99 ct 
1244 -117 1246 -133 1251 -145 ct 1255 -158 1261 -168 1269 -176 ct 1277 -184 1287 -190 1297 -194 ct 
1308 -197 1319 -199 1331 -199 ct 1348 -199 1361 -196 1372 -191 ct 1383 -186 1392 -178 1399 -169 ct 
1406 -160 1410 -148 1413 -136 ct 1416 -123 1417 -109 1417 -94 ct 1417 -90 l 
1278 -90 l  p
1384 -115 m  1382 -136 1377 -151 1368 -161 ct 1359 -170 1347 -175 1331 -175 ct 
1325 -175 1320 -174 1314 -172 ct 1308 -171 1302 -167 1297 -163 ct 1292 -158 1288 -152 1284 -145 ct 
1281 -137 1279 -127 1278 -115 ct 1384 -115 l  p ef
pom
0.363 c 6124 15543 m  3749 15543 l  3749 11794 l  8498 11794 l  8498 15543 l 
6124 15543 l  pc
0.695 c 6124 12295 m  3750 12295 l  3750 11795 l  8499 11795 l  8499 12295 l 
6124 12295 l  p ef
0.363 c 6124 12294 m  3749 12294 l  3749 11794 l  8498 11794 l  8498 12294 l 
6124 12294 l  pc
pum
5724 12217 t
0.000 c 67 -121 m  67 -107 68 -95 71 -83 ct 74 -72 78 -62 84 -54 ct 90 -45 97 -39 106 -34 ct 
116 -30 127 -28 139 -28 ct 158 -28 173 -31 185 -39 ct 196 -46 204 -56 208 -68 ct 
246 -57 l  243 -49 239 -42 234 -35 ct 229 -28 223 -21 215 -15 ct 206 -9 196 -4 184 -1 ct 
172 3 157 5 139 5 ct 101 5 71 -7 51 -30 ct 31 -53 21 -87 21 -132 ct 21 -157 24 -177 30 -194 ct 
36 -211 45 -225 55 -236 ct 66 -246 78 -254 92 -259 ct 107 -264 122 -266 138 -266 ct 
160 -266 178 -262 193 -255 ct 207 -248 219 -238 228 -226 ct 237 -213 243 -199 247 -182 ct 
251 -165 253 -147 253 -127 ct 253 -121 l  67 -121 l  p
208 -154 m  206 -182 199 -202 187 -215 ct 175 -228 159 -234 137 -234 ct 130 -234 122 -233 114 -230 ct 
106 -228 99 -224 92 -218 ct 85 -212 80 -204 75 -193 ct 70 -183 68 -170 67 -154 ct 
208 -154 l  p ef
474 0 m  474 -166 l  474 -178 473 -189 471 -197 ct 469 -206 466 -213 462 -218 ct 
458 -223 452 -227 446 -229 ct 439 -231 430 -232 420 -232 ct 410 -232 401 -231 392 -227 ct 
384 -223 377 -218 371 -211 ct 365 -205 361 -196 357 -186 ct 354 -176 353 -164 353 -151 ct 
353 0 l  309 0 l  309 -206 l  309 -211 309 -217 309 -223 ct 309 -229 309 -235 309 -240 ct 
309 -246 308 -251 308 -254 ct 308 -258 308 -260 308 -260 ct 349 -260 l  349 -259 349 -257 349 -254 ct 
349 -250 350 -246 350 -242 ct 350 -237 350 -233 351 -228 ct 351 -224 351 -220 351 -217 ct 
351 -217 l  356 -224 360 -231 365 -237 ct 370 -243 376 -248 383 -253 ct 389 -257 397 -260 405 -263 ct 
414 -265 424 -266 435 -266 ct 449 -266 462 -264 472 -261 ct 483 -257 491 -252 498 -244 ct 
505 -237 510 -227 513 -216 ct 516 -204 518 -190 518 -174 ct 518 0 l  474 0 l 
p ef
698 0 m  646 0 l  552 -261 l  598 -261 l  655 -91 l  657 -88 658 -83 659 -78 ct 
661 -73 662 -68 664 -62 ct 666 -57 667 -52 669 -47 ct 670 -42 671 -37 672 -34 ct 
673 -37 674 -42 676 -47 ct 677 -52 679 -57 680 -62 ct 682 -68 684 -73 685 -78 ct 
687 -83 689 -87 690 -91 ct 749 -261 l  795 -261 l  698 0 l  p ef
pom
0.796 c 6124 12795 m  3750 12795 l  3750 12295 l  8499 12295 l  8499 12795 l 
6124 12795 l  p ef
0.363 c 6124 12794 m  3749 12794 l  3749 12294 l  8498 12294 l  8498 12794 l 
6124 12794 l  pc
pum
5320 12674 t
0.000 c 190 -98 m  190 -30 166 4 118 4 ct 104 4 91 1 81 -4 ct 72 -9 64 -18 57 -30 ct 
57 -30 l  57 -27 57 -24 57 -20 ct 57 -17 56 -14 56 -11 ct 56 -8 56 -5 56 -3 ct 
56 -1 55 0 55 0 ct 24 0 l  24 -1 24 -3 24 -5 ct 24 -8 24 -11 25 -15 ct 25 -18 25 -22 25 -27 ct 
25 -31 25 -36 25 -40 ct 25 -268 l  57 -268 l  57 -192 l  57 -188 57 -185 57 -181 ct 
57 -178 57 -175 57 -172 ct 57 -169 57 -167 57 -164 ct 57 -164 l  63 -176 71 -185 81 -191 ct 
91 -196 104 -199 118 -199 ct 143 -199 161 -191 173 -174 ct 184 -157 190 -132 190 -98 ct 
p
156 -97 m  156 -111 155 -122 154 -132 ct 152 -142 149 -150 145 -156 ct 142 -162 137 -167 131 -170 ct 
125 -172 118 -174 110 -174 ct 101 -174 94 -173 87 -170 ct 81 -167 75 -163 71 -156 ct 
67 -150 63 -142 61 -132 ct 59 -122 57 -110 57 -95 ct 57 -81 59 -70 61 -60 ct 63 -50 67 -43 71 -37 ct 
75 -31 81 -27 87 -24 ct 94 -21 101 -20 110 -20 ct 118 -20 124 -21 130 -24 ct 136 -27 141 -31 145 -38 ct 
149 -44 151 -52 153 -62 ct 155 -71 156 -83 156 -97 ct p ef
253 -90 m  253 -80 254 -71 256 -62 ct 258 -53 261 -46 266 -40 ct 270 -34 276 -29 283 -26 ct 
290 -22 298 -20 307 -20 ct 322 -20 333 -23 341 -29 ct 350 -34 356 -42 359 -50 ct 
387 -42 l  385 -37 382 -31 379 -26 ct 375 -20 370 -15 364 -11 ct 358 -7 350 -3 341 0 ct 
332 3 320 4 307 4 ct 279 4 257 -5 241 -22 ct 226 -39 219 -65 219 -99 ct 219 -117 221 -133 226 -145 ct 
230 -158 236 -168 244 -176 ct 252 -184 262 -190 272 -194 ct 283 -197 294 -199 306 -199 ct 
323 -199 336 -196 347 -191 ct 358 -186 367 -178 374 -169 ct 381 -160 385 -148 388 -136 ct 
391 -123 392 -109 392 -94 ct 392 -90 l  253 -90 l  p
359 -115 m  357 -136 352 -151 343 -161 ct 334 -170 322 -175 306 -175 ct 300 -175 295 -174 289 -172 ct 
283 -171 277 -167 272 -163 ct 267 -158 263 -152 259 -145 ct 256 -137 254 -127 253 -115 ct 
359 -115 l  p ef
463 -162 m  467 -169 471 -174 475 -179 ct 479 -184 484 -187 489 -190 ct 494 -193 500 -196 506 -197 ct 
512 -198 518 -199 526 -199 ct 538 -199 549 -197 557 -194 ct 565 -191 571 -186 576 -180 ct 
580 -174 583 -166 585 -158 ct 587 -150 588 -140 588 -130 ct 588 0 l  555 0 l 
555 -124 l  555 -132 555 -139 554 -146 ct 553 -152 551 -157 548 -161 ct 545 -166 541 -169 535 -171 ct 
530 -173 523 -174 515 -174 ct 507 -174 500 -173 494 -170 ct 488 -167 482 -163 478 -158 ct 
474 -153 470 -147 468 -140 ct 465 -132 464 -124 464 -115 ct 464 0 l  432 0 l 
432 -268 l  464 -268 l  464 -198 l  464 -194 464 -190 464 -186 ct 464 -182 464 -179 464 -175 ct 
463 -172 463 -169 463 -167 ct 463 -164 463 -163 463 -162 ct 463 -162 l  p ef
685 4 m  665 4 650 -1 641 -12 ct 631 -22 626 -36 626 -54 ct 626 -67 628 -78 633 -86 ct 
638 -94 644 -101 652 -106 ct 660 -110 669 -113 679 -115 ct 689 -117 700 -118 710 -118 ct 
754 -118 l  754 -129 l  754 -137 753 -144 751 -150 ct 750 -156 747 -160 744 -164 ct 
740 -167 736 -170 731 -172 ct 725 -173 719 -174 712 -174 ct 706 -174 700 -174 695 -173 ct 
690 -172 686 -170 682 -168 ct 678 -165 675 -162 673 -158 ct 671 -154 669 -149 668 -143 ct 
634 -146 l  636 -154 638 -161 641 -167 ct 645 -174 649 -179 656 -184 ct 662 -189 670 -192 679 -195 ct 
688 -197 700 -199 713 -199 ct 737 -199 756 -193 768 -182 ct 781 -171 787 -154 787 -133 ct 
787 -49 l  787 -39 788 -32 791 -27 ct 793 -22 798 -20 805 -20 ct 807 -20 809 -20 811 -20 ct 
812 -20 814 -21 816 -21 ct 816 -1 l  812 0 808 1 804 1 ct 800 2 795 2 791 2 ct 
785 2 779 1 775 0 ct 770 -2 767 -4 764 -8 ct 761 -11 759 -15 758 -20 ct 756 -25 755 -30 755 -37 ct 
754 -37 l  751 -31 747 -25 743 -20 ct 738 -15 734 -11 728 -7 ct 722 -4 716 -1 709 1 ct 
702 3 694 4 685 4 ct p
692 -20 m  703 -20 712 -22 719 -26 ct 727 -30 734 -35 739 -40 ct 744 -46 748 -53 750 -60 ct 
753 -66 754 -73 754 -79 ct 754 -95 l  718 -95 l  710 -95 703 -95 696 -94 ct 
689 -93 682 -91 677 -88 ct 671 -85 667 -80 664 -75 ct 661 -70 659 -62 659 -54 ct 
659 -43 662 -35 668 -29 ct 673 -23 682 -20 692 -20 ct p ef
924 0 m  885 0 l  814 -196 l  849 -196 l  892 -68 l  893 -66 894 -62 895 -59 ct 
896 -55 897 -51 898 -47 ct 900 -43 901 -39 902 -35 ct 903 -31 904 -28 904 -25 ct 
905 -28 906 -31 907 -35 ct 908 -39 910 -43 911 -47 ct 912 -51 913 -54 914 -58 ct 
916 -62 917 -65 918 -68 ct 962 -196 l  997 -196 l  924 0 l  p ef
1024 -237 m  1024 -268 l  1056 -268 l  1056 -237 l  1024 -237 l  p
1024 0 m  1024 -195 l  1056 -195 l  1056 0 l  1024 0 l  p ef
1270 -98 m  1270 -63 1263 -38 1248 -21 ct 1233 -4 1211 4 1182 4 ct 1168 4 1156 2 1146 -2 ct 
1135 -6 1126 -13 1118 -21 ct 1111 -29 1105 -40 1101 -53 ct 1097 -65 1096 -80 1096 -98 ct 
1096 -165 1125 -199 1183 -199 ct 1198 -199 1211 -197 1222 -193 ct 1233 -188 1243 -182 1250 -174 ct 
1257 -165 1262 -155 1265 -142 ct 1269 -129 1270 -115 1270 -98 ct p
1236 -98 m  1236 -113 1235 -125 1233 -135 ct 1230 -145 1227 -153 1222 -159 ct 
1218 -165 1212 -169 1206 -171 ct 1199 -174 1192 -175 1184 -175 ct 1175 -175 1168 -174 1161 -171 ct 
1155 -169 1149 -165 1144 -159 ct 1139 -153 1136 -145 1133 -135 ct 1131 -125 1130 -113 1130 -98 ct 
1130 -82 1131 -70 1134 -60 ct 1136 -50 1140 -42 1145 -36 ct 1149 -30 1155 -26 1161 -24 ct 
1167 -21 1174 -20 1182 -20 ct 1190 -20 1198 -21 1204 -24 ct 1211 -26 1217 -30 1221 -36 ct 
1226 -42 1230 -50 1232 -60 ct 1235 -70 1236 -82 1236 -98 ct p ef
1340 -195 m  1340 -71 l  1340 -62 1340 -54 1342 -47 ct 1343 -41 1345 -36 1349 -32 ct 
1352 -28 1356 -25 1361 -24 ct 1366 -22 1372 -21 1380 -21 ct 1388 -21 1395 -22 1401 -25 ct 
1407 -28 1412 -32 1417 -37 ct 1421 -42 1425 -48 1427 -56 ct 1429 -63 1431 -72 1431 -82 ct 
1431 -195 l  1463 -195 l  1463 -41 l  1463 -37 1463 -32 1463 -28 ct 1463 -23 1463 -19 1463 -15 ct 
1464 -11 1464 -7 1464 -5 ct 1464 -2 1464 0 1464 0 ct 1434 0 l  1433 -1 1433 -2 1433 -5 ct 
1433 -8 1433 -11 1433 -14 ct 1433 -17 1432 -21 1432 -24 ct 1432 -28 1432 -31 1432 -33 ct 
1432 -33 l  1428 -27 1425 -22 1421 -18 ct 1417 -13 1413 -9 1408 -6 ct 1403 -3 1398 0 1391 1 ct 
1385 3 1377 4 1369 4 ct 1358 4 1349 3 1341 0 ct 1333 -3 1327 -7 1322 -12 ct 1317 -18 1313 -25 1311 -34 ct 
1308 -42 1307 -53 1307 -65 ct 1307 -195 l  1340 -195 l  p ef
1512 0 m  1512 -150 l  1512 -154 1512 -158 1512 -162 ct 1512 -167 1511 -171 1511 -175 ct 
1511 -179 1511 -183 1511 -186 ct 1511 -189 1511 -193 1511 -195 ct 1541 -195 l 
1541 -193 1542 -189 1542 -186 ct 1542 -182 1542 -179 1542 -175 ct 1542 -171 1543 -168 1543 -164 ct 
1543 -161 1543 -158 1543 -155 ct 1543 -155 l  1546 -163 1548 -169 1551 -175 ct 
1553 -180 1556 -185 1560 -188 ct 1563 -192 1568 -195 1572 -196 ct 1577 -198 1583 -199 1590 -199 ct 
1593 -199 1595 -199 1597 -198 ct 1600 -198 1602 -198 1603 -197 ct 1603 -167 l 
1601 -168 1598 -168 1595 -169 ct 1593 -169 1589 -169 1586 -169 ct 1578 -169 1572 -168 1567 -164 ct 
1561 -161 1557 -156 1554 -150 ct 1551 -144 1548 -137 1547 -129 ct 1545 -121 1544 -112 1544 -102 ct 
1544 0 l  1512 0 l  p ef
pom
0.363 c 15123 15543 m  12748 15543 l  12748 11794 l  17497 11794 l  17497 15543 l 
15123 15543 l  pc
0.695 c 15123 12295 m  12748 12295 l  12748 11795 l  17498 11795 l  17498 12295 l 
15123 12295 l  p ef
0.363 c 15123 12294 m  12748 12294 l  12748 11794 l  17497 11794 l  17497 12294 l 
15123 12294 l  pc
pum
14059 12217 t
0.000 c 25 -171 m  25 -198 28 -222 36 -243 ct 43 -265 53 -283 68 -298 ct 82 -313 100 -325 121 -333 ct 
142 -341 166 -345 194 -345 ct 215 -345 233 -343 249 -339 ct 265 -336 278 -330 290 -324 ct 
302 -317 311 -308 319 -298 ct 327 -288 334 -277 340 -265 ct 296 -252 l  292 -260 287 -268 281 -275 ct 
275 -281 268 -287 260 -292 ct 251 -297 241 -301 230 -303 ct 219 -306 207 -307 193 -307 ct 
172 -307 154 -304 139 -298 ct 124 -291 111 -282 101 -270 ct 91 -258 84 -244 79 -227 ct 
74 -210 72 -192 72 -171 ct 72 -151 74 -132 80 -115 ct 85 -98 93 -84 103 -71 ct 
114 -59 127 -50 142 -43 ct 158 -36 176 -32 196 -32 ct 209 -32 222 -34 233 -36 ct 
244 -38 254 -41 264 -45 ct 273 -48 281 -52 288 -57 ct 294 -61 300 -66 305 -70 ct 
305 -131 l  203 -131 l  203 -170 l  347 -170 l  347 -53 l  340 -45 331 -38 321 -31 ct 
310 -24 299 -17 286 -12 ct 274 -7 260 -3 245 0 ct 229 3 213 5 196 5 ct 167 5 142 1 121 -8 ct 
100 -17 82 -29 68 -45 ct 53 -61 43 -79 36 -101 ct 28 -122 25 -146 25 -171 ct p ef
576 -307 m  557 -307 540 -304 525 -298 ct 510 -291 497 -282 487 -270 ct 477 -258 470 -244 465 -227 ct 
459 -210 457 -192 457 -171 ct 457 -151 460 -132 465 -115 ct 471 -98 479 -84 489 -72 ct 
499 -59 512 -50 527 -43 ct 542 -36 559 -33 578 -33 ct 591 -33 603 -35 614 -38 ct 
625 -42 635 -46 643 -53 ct 652 -59 660 -66 667 -75 ct 674 -84 680 -93 685 -104 ct 
723 -85 l  717 -72 709 -60 700 -49 ct 691 -38 681 -29 669 -21 ct 656 -13 643 -6 627 -2 ct 
612 3 595 5 576 5 ct 548 5 524 1 504 -8 ct 483 -17 466 -29 452 -45 ct 438 -61 427 -79 420 -101 ct 
414 -122 410 -146 410 -171 ct 410 -198 414 -222 421 -243 ct 428 -265 439 -283 453 -298 ct 
467 -313 485 -325 505 -333 ct 526 -341 549 -345 576 -345 ct 612 -345 642 -338 666 -324 ct 
691 -310 708 -289 720 -261 ct 676 -246 l  673 -254 669 -262 663 -269 ct 658 -277 651 -283 643 -289 ct 
634 -294 625 -299 614 -302 ct 603 -306 590 -307 576 -307 ct p ef
1078 -173 m  1078 -145 1074 -120 1065 -99 ct 1057 -77 1045 -59 1030 -44 ct 1016 -30 998 -19 978 -11 ct 
958 -4 936 0 913 0 ct 786 0 l  786 -340 l  898 -340 l  924 -340 948 -337 970 -330 ct 
993 -324 1012 -314 1027 -300 ct 1043 -286 1056 -269 1065 -248 ct 1074 -227 1078 -202 1078 -173 ct 
p
1032 -173 m  1032 -197 1029 -216 1022 -232 ct 1015 -249 1006 -262 994 -273 ct 
982 -283 968 -291 951 -296 ct 935 -301 917 -303 897 -303 ct 832 -303 l  832 -37 l 
907 -37 l  925 -37 942 -40 957 -46 ct 972 -51 985 -60 996 -71 ct 1007 -83 1016 -97 1022 -114 ct 
1029 -131 1032 -151 1032 -173 ct p ef
1098 98 m  1098 67 l  1385 67 l  1385 98 l  1098 98 l  p ef
1609 -72 m  1609 -60 1607 -49 1602 -39 ct 1597 -30 1590 -22 1581 -15 ct 1572 -9 1561 -4 1548 0 ct 
1535 3 1520 5 1503 5 ct 1488 5 1475 4 1462 2 ct 1450 -1 1440 -5 1430 -10 ct 1421 -15 1414 -22 1407 -30 ct 
1401 -39 1397 -49 1394 -61 ct 1432 -69 l  1436 -55 1443 -44 1455 -38 ct 1467 -31 1483 -28 1503 -28 ct 
1513 -28 1521 -29 1529 -30 ct 1537 -31 1543 -34 1549 -37 ct 1555 -40 1559 -44 1562 -49 ct 
1565 -54 1567 -61 1567 -69 ct 1567 -76 1565 -83 1561 -88 ct 1558 -93 1553 -97 1546 -101 ct 
1539 -104 1531 -107 1522 -110 ct 1513 -112 1502 -115 1491 -118 ct 1481 -121 1470 -124 1460 -127 ct 
1450 -130 1440 -135 1432 -140 ct 1424 -146 1417 -153 1412 -161 ct 1407 -169 1404 -180 1404 -192 ct 
1404 -216 1413 -234 1430 -246 ct 1447 -259 1471 -265 1504 -265 ct 1533 -265 1555 -260 1572 -250 ct 
1589 -240 1600 -223 1605 -201 ct 1565 -196 l  1564 -203 1561 -209 1558 -213 ct 
1554 -218 1549 -222 1544 -224 ct 1538 -227 1532 -229 1525 -230 ct 1518 -232 1511 -232 1504 -232 ct 
1484 -232 1470 -229 1460 -223 ct 1451 -217 1446 -208 1446 -196 ct 1446 -189 1448 -183 1452 -179 ct 
1455 -174 1460 -170 1466 -167 ct 1472 -164 1480 -161 1488 -159 ct 1497 -157 1507 -154 1517 -152 ct 
1524 -150 1531 -148 1538 -146 ct 1545 -144 1553 -142 1559 -139 ct 1566 -136 1573 -133 1579 -129 ct 
1585 -125 1590 -120 1594 -115 ct 1599 -110 1603 -104 1605 -97 ct 1608 -90 1609 -81 1609 -72 ct 
p ef
1776 0 m  1770 16 1763 30 1757 43 ct 1751 56 1744 66 1736 75 ct 1728 84 1719 91 1709 96 ct 
1700 101 1689 103 1676 103 ct 1671 103 1666 103 1661 103 ct 1656 103 1651 102 1646 101 ct 
1646 68 l  1649 69 1653 69 1657 69 ct 1660 69 1664 69 1666 69 ct 1679 69 1691 65 1702 55 ct 
1713 46 1722 31 1731 10 ct 1735 0 l  1631 -261 l  1678 -261 l  1733 -116 l 
1734 -112 1736 -106 1739 -99 ct 1741 -92 1744 -84 1746 -77 ct 1749 -70 1751 -63 1753 -58 ct 
1755 -52 1756 -48 1756 -47 ct 1757 -48 1758 -52 1760 -57 ct 1762 -62 1764 -68 1766 -75 ct 
1768 -81 1771 -88 1773 -94 ct 1775 -101 1777 -107 1779 -111 ct 1830 -261 l  1876 -261 l 
1776 0 l  p ef
2109 -72 m  2109 -60 2107 -49 2102 -39 ct 2097 -30 2090 -22 2081 -15 ct 2072 -9 2061 -4 2048 0 ct 
2035 3 2020 5 2003 5 ct 1988 5 1975 4 1962 2 ct 1950 -1 1940 -5 1930 -10 ct 1921 -15 1914 -22 1907 -30 ct 
1901 -39 1897 -49 1894 -61 ct 1932 -69 l  1936 -55 1943 -44 1955 -38 ct 1967 -31 1983 -28 2003 -28 ct 
2013 -28 2021 -29 2029 -30 ct 2037 -31 2043 -34 2049 -37 ct 2055 -40 2059 -44 2062 -49 ct 
2065 -54 2067 -61 2067 -69 ct 2067 -76 2065 -83 2061 -88 ct 2058 -93 2053 -97 2046 -101 ct 
2039 -104 2031 -107 2022 -110 ct 2013 -112 2002 -115 1991 -118 ct 1981 -121 1970 -124 1960 -127 ct 
1950 -130 1940 -135 1932 -140 ct 1924 -146 1917 -153 1912 -161 ct 1907 -169 1904 -180 1904 -192 ct 
1904 -216 1913 -234 1930 -246 ct 1947 -259 1971 -265 2004 -265 ct 2033 -265 2055 -260 2072 -250 ct 
2089 -240 2100 -223 2105 -201 ct 2065 -196 l  2064 -203 2061 -209 2058 -213 ct 
2054 -218 2049 -222 2044 -224 ct 2038 -227 2032 -229 2025 -230 ct 2018 -232 2011 -232 2004 -232 ct 
1984 -232 1970 -229 1960 -223 ct 1951 -217 1946 -208 1946 -196 ct 1946 -189 1948 -183 1952 -179 ct 
1955 -174 1960 -170 1966 -167 ct 1972 -164 1980 -161 1988 -159 ct 1997 -157 2007 -154 2017 -152 ct 
2024 -150 2031 -148 2038 -146 ct 2045 -144 2053 -142 2059 -139 ct 2066 -136 2073 -133 2079 -129 ct 
2085 -125 2090 -120 2094 -115 ct 2099 -110 2103 -104 2105 -97 ct 2108 -90 2109 -81 2109 -72 ct 
p ef
pom
0.796 c 15123 12795 m  12748 12795 l  12748 12295 l  17498 12295 l  17498 12795 l 
15123 12795 l  p ef
0.363 c 15123 12794 m  12748 12794 l  12748 12294 l  17497 12294 l  17497 12794 l 
15123 12794 l  pc
pum
14114 12674 t
0.000 c 172 -54 m  172 -44 170 -36 166 -29 ct 163 -22 158 -16 151 -11 ct 144 -6 136 -2 126 0 ct 
116 3 105 4 92 4 ct 81 4 71 3 62 1 ct 53 0 45 -3 38 -7 ct 31 -11 25 -16 21 -22 ct 
16 -29 12 -36 10 -45 ct 39 -51 l  42 -41 48 -33 56 -28 ct 65 -23 77 -21 92 -21 ct 
99 -21 106 -21 112 -22 ct 117 -23 122 -25 127 -27 ct 131 -30 134 -33 136 -37 ct 
139 -40 140 -45 140 -51 ct 140 -57 139 -62 136 -66 ct 133 -69 129 -73 124 -75 ct 
119 -78 113 -80 106 -82 ct 99 -84 92 -86 83 -88 ct 75 -90 68 -92 60 -95 ct 52 -97 45 -101 39 -105 ct 
33 -109 28 -114 24 -120 ct 20 -126 18 -134 18 -143 ct 18 -161 24 -175 37 -184 ct 
50 -193 68 -198 93 -198 ct 114 -198 131 -194 144 -187 ct 157 -179 165 -167 168 -150 ct 
139 -147 l  138 -152 136 -156 133 -159 ct 130 -163 127 -165 122 -168 ct 118 -170 114 -171 109 -172 ct 
104 -173 98 -173 93 -173 ct 78 -173 67 -171 60 -167 ct 53 -162 50 -156 50 -147 ct 
50 -141 51 -137 54 -133 ct 56 -130 60 -127 64 -125 ct 69 -122 75 -120 81 -119 ct 
88 -117 95 -115 103 -113 ct 108 -112 113 -110 119 -109 ct 124 -107 129 -106 134 -104 ct 
139 -101 144 -99 149 -96 ct 153 -93 157 -90 161 -86 ct 164 -82 167 -77 169 -72 ct 
171 -67 172 -61 172 -54 ct p ef
376 -99 m  376 -84 375 -70 373 -57 ct 370 -45 366 -34 361 -25 ct 355 -16 348 -9 338 -4 ct 
329 1 318 4 304 4 ct 290 4 278 1 268 -4 ct 257 -9 249 -18 244 -30 ct 243 -30 l 
243 -30 243 -29 243 -27 ct 243 -25 243 -22 243 -20 ct 243 -17 243 -13 243 -10 ct 
243 -6 243 -3 243 1 ct 243 77 l  211 77 l  211 -156 l  211 -161 211 -165 211 -170 ct 
211 -174 211 -178 211 -182 ct 210 -185 210 -188 210 -191 ct 210 -193 210 -195 210 -195 ct 
241 -195 l  241 -194 242 -193 242 -191 ct 242 -189 242 -186 242 -183 ct 242 -180 243 -177 243 -174 ct 
243 -170 243 -167 243 -164 ct 244 -164 l  247 -170 250 -176 254 -180 ct 258 -185 262 -188 267 -191 ct 
272 -194 278 -196 284 -197 ct 290 -198 297 -199 304 -199 ct 318 -199 329 -197 338 -192 ct 
348 -187 355 -180 361 -171 ct 366 -163 370 -152 373 -140 ct 375 -127 376 -114 376 -99 ct 
p
342 -98 m  342 -110 341 -121 340 -130 ct 338 -139 336 -147 332 -154 ct 329 -161 324 -165 318 -169 ct 
312 -172 305 -174 296 -174 ct 289 -174 282 -173 276 -171 ct 269 -169 264 -165 259 -159 ct 
254 -153 250 -145 248 -135 ct 245 -125 243 -112 243 -95 ct 243 -81 245 -70 247 -60 ct 
249 -50 253 -43 257 -37 ct 261 -31 267 -27 273 -24 ct 280 -21 287 -20 296 -20 ct 
305 -20 312 -22 318 -25 ct 324 -29 329 -34 332 -41 ct 336 -47 338 -55 340 -65 ct 
341 -74 342 -85 342 -98 ct p ef
439 -90 m  439 -80 440 -71 442 -62 ct 444 -53 447 -46 452 -40 ct 456 -34 462 -29 469 -26 ct 
476 -22 484 -20 493 -20 ct 508 -20 519 -23 527 -29 ct 536 -34 542 -42 545 -50 ct 
573 -42 l  571 -37 568 -31 565 -26 ct 561 -20 556 -15 550 -11 ct 544 -7 536 -3 527 0 ct 
518 3 506 4 493 4 ct 465 4 443 -5 427 -22 ct 412 -39 405 -65 405 -99 ct 405 -117 407 -133 412 -145 ct 
416 -158 422 -168 430 -176 ct 438 -184 448 -190 458 -194 ct 469 -197 480 -199 492 -199 ct 
509 -199 522 -196 533 -191 ct 544 -186 553 -178 560 -169 ct 567 -160 571 -148 574 -136 ct 
577 -123 578 -109 578 -94 ct 578 -90 l  439 -90 l  p
545 -115 m  543 -136 538 -151 529 -161 ct 520 -170 508 -175 492 -175 ct 486 -175 481 -174 475 -172 ct 
469 -171 463 -167 458 -163 ct 453 -158 449 -152 445 -145 ct 442 -137 440 -127 439 -115 ct 
545 -115 l  p ef
643 -98 m  643 -87 644 -77 645 -67 ct 647 -58 649 -50 653 -43 ct 657 -36 662 -31 669 -27 ct 
675 -24 683 -22 692 -22 ct 704 -22 713 -25 721 -31 ct 729 -37 734 -46 735 -59 ct 
768 -59 l  767 -51 765 -43 761 -35 ct 758 -28 753 -21 746 -15 ct 740 -9 733 -5 724 -1 ct 
715 2 705 4 693 4 ct 678 4 665 1 654 -4 ct 643 -9 634 -16 628 -25 ct 621 -34 616 -45 613 -57 ct 
610 -70 609 -83 609 -97 ct 609 -111 610 -122 612 -132 ct 614 -142 617 -151 621 -158 ct 
625 -166 630 -172 635 -177 ct 640 -183 646 -187 652 -190 ct 658 -193 665 -195 672 -196 ct 
679 -198 686 -198 693 -198 ct 704 -198 713 -197 722 -194 ct 730 -191 738 -187 744 -182 ct 
750 -176 755 -170 759 -163 ct 763 -156 766 -148 767 -140 ct 734 -138 l  732 -148 728 -157 721 -163 ct 
714 -170 704 -173 692 -173 ct 682 -173 675 -171 668 -168 ct 662 -165 657 -161 653 -155 ct 
649 -148 647 -141 645 -131 ct 644 -122 643 -111 643 -98 ct p ef
804 -237 m  804 -268 l  836 -268 l  836 -237 l  804 -237 l  p
804 0 m  804 -195 l  836 -195 l  836 0 l  804 0 l  p ef
924 -172 m  924 -1 l  892 -1 l  892 -172 l  864 -172 l  864 -196 l  892 -196 l 
892 -218 l  892 -225 892 -231 894 -238 ct 895 -244 897 -249 901 -253 ct 905 -258 909 -262 916 -264 ct 
922 -267 930 -268 939 -268 ct 943 -268 947 -268 951 -267 ct 956 -267 959 -267 962 -266 ct 
962 -241 l  960 -241 958 -242 955 -242 ct 953 -242 950 -243 948 -243 ct 943 -243 939 -242 936 -241 ct 
933 -239 931 -237 929 -235 ct 927 -232 926 -229 925 -226 ct 925 -222 924 -218 924 -213 ct 
924 -196 l  962 -196 l  962 -172 l  924 -172 l  p ef
986 -237 m  986 -268 l  1018 -268 l  1018 -237 l  986 -237 l  p
986 0 m  986 -195 l  1018 -195 l  1018 0 l  986 0 l  p ef
1091 -98 m  1091 -87 1092 -77 1093 -67 ct 1095 -58 1097 -50 1101 -43 ct 1105 -36 1110 -31 1117 -27 ct 
1123 -24 1131 -22 1140 -22 ct 1152 -22 1161 -25 1169 -31 ct 1177 -37 1182 -46 1183 -59 ct 
1216 -59 l  1215 -51 1213 -43 1209 -35 ct 1206 -28 1201 -21 1194 -15 ct 1188 -9 1181 -5 1172 -1 ct 
1163 2 1153 4 1141 4 ct 1126 4 1113 1 1102 -4 ct 1091 -9 1082 -16 1076 -25 ct 1069 -34 1064 -45 1061 -57 ct 
1058 -70 1057 -83 1057 -97 ct 1057 -111 1058 -122 1060 -132 ct 1062 -142 1065 -151 1069 -158 ct 
1073 -166 1078 -172 1083 -177 ct 1088 -183 1094 -187 1100 -190 ct 1106 -193 1113 -195 1120 -196 ct 
1127 -198 1134 -198 1141 -198 ct 1152 -198 1161 -197 1170 -194 ct 1178 -191 1186 -187 1192 -182 ct 
1198 -176 1203 -170 1207 -163 ct 1211 -156 1214 -148 1215 -140 ct 1182 -138 l 
1180 -148 1176 -157 1169 -163 ct 1162 -170 1152 -173 1140 -173 ct 1130 -173 1123 -171 1116 -168 ct 
1110 -165 1105 -161 1101 -155 ct 1097 -148 1095 -141 1093 -131 ct 1092 -122 1091 -111 1091 -98 ct 
p ef
1303 4 m  1283 4 1268 -1 1259 -12 ct 1249 -22 1244 -36 1244 -54 ct 1244 -67 1246 -78 1251 -86 ct 
1256 -94 1262 -101 1270 -106 ct 1278 -110 1287 -113 1297 -115 ct 1307 -117 1318 -118 1328 -118 ct 
1372 -118 l  1372 -129 l  1372 -137 1371 -144 1369 -150 ct 1368 -156 1365 -160 1362 -164 ct 
1358 -167 1354 -170 1349 -172 ct 1343 -173 1337 -174 1330 -174 ct 1324 -174 1318 -174 1313 -173 ct 
1308 -172 1304 -170 1300 -168 ct 1296 -165 1293 -162 1291 -158 ct 1289 -154 1287 -149 1286 -143 ct 
1252 -146 l  1254 -154 1256 -161 1259 -167 ct 1263 -174 1267 -179 1274 -184 ct 
1280 -189 1288 -192 1297 -195 ct 1306 -197 1318 -199 1331 -199 ct 1355 -199 1374 -193 1386 -182 ct 
1399 -171 1405 -154 1405 -133 ct 1405 -49 l  1405 -39 1406 -32 1409 -27 ct 1411 -22 1416 -20 1423 -20 ct 
1425 -20 1427 -20 1429 -20 ct 1430 -20 1432 -21 1434 -21 ct 1434 -1 l  1430 0 1426 1 1422 1 ct 
1418 2 1413 2 1409 2 ct 1403 2 1397 1 1393 0 ct 1388 -2 1385 -4 1382 -8 ct 1379 -11 1377 -15 1376 -20 ct 
1374 -25 1373 -30 1373 -37 ct 1372 -37 l  1369 -31 1365 -25 1361 -20 ct 1356 -15 1352 -11 1346 -7 ct 
1340 -4 1334 -1 1327 1 ct 1320 3 1312 4 1303 4 ct p
1310 -20 m  1321 -20 1330 -22 1337 -26 ct 1345 -30 1352 -35 1357 -40 ct 1362 -46 1366 -53 1368 -60 ct 
1371 -66 1372 -73 1372 -79 ct 1372 -95 l  1336 -95 l  1328 -95 1321 -95 1314 -94 ct 
1307 -93 1300 -91 1295 -88 ct 1289 -85 1285 -80 1282 -75 ct 1279 -70 1277 -62 1277 -54 ct 
1277 -43 1280 -35 1286 -29 ct 1291 -23 1300 -20 1310 -20 ct p ef
1531 -1 m  1526 0 1521 1 1516 2 ct 1511 3 1505 3 1498 3 ct 1472 3 1459 -12 1459 -41 ct 
1459 -171 l  1437 -171 l  1437 -195 l  1460 -195 l  1470 -239 l  1492 -239 l 
1492 -195 l  1528 -195 l  1528 -171 l  1492 -171 l  1492 -48 l  1492 -39 1493 -32 1496 -29 ct 
1499 -25 1505 -23 1512 -23 ct 1515 -23 1518 -23 1521 -24 ct 1524 -24 1528 -25 1531 -25 ct 
1531 -1 l  p ef
1557 -237 m  1557 -268 l  1589 -268 l  1589 -237 l  1557 -237 l  p
1557 0 m  1557 -195 l  1589 -195 l  1589 0 l  1557 0 l  p ef
1803 -98 m  1803 -63 1796 -38 1781 -21 ct 1766 -4 1744 4 1715 4 ct 1701 4 1689 2 1679 -2 ct 
1668 -6 1659 -13 1651 -21 ct 1644 -29 1638 -40 1634 -53 ct 1630 -65 1629 -80 1629 -98 ct 
1629 -165 1658 -199 1716 -199 ct 1731 -199 1744 -197 1755 -193 ct 1766 -188 1776 -182 1783 -174 ct 
1790 -165 1795 -155 1798 -142 ct 1802 -129 1803 -115 1803 -98 ct p
1769 -98 m  1769 -113 1768 -125 1766 -135 ct 1763 -145 1760 -153 1755 -159 ct 
1751 -165 1745 -169 1739 -171 ct 1732 -174 1725 -175 1717 -175 ct 1708 -175 1701 -174 1694 -171 ct 
1688 -169 1682 -165 1677 -159 ct 1672 -153 1669 -145 1666 -135 ct 1664 -125 1663 -113 1663 -98 ct 
1663 -82 1664 -70 1667 -60 ct 1669 -50 1673 -42 1678 -36 ct 1682 -30 1688 -26 1694 -24 ct 
1700 -21 1707 -20 1715 -20 ct 1723 -20 1731 -21 1737 -24 ct 1744 -26 1750 -30 1754 -36 ct 
1759 -42 1763 -50 1765 -60 ct 1768 -70 1769 -82 1769 -98 ct p ef
1965 0 m  1965 -124 l  1965 -133 1964 -141 1963 -148 ct 1962 -154 1959 -159 1956 -163 ct 
1953 -167 1949 -170 1944 -171 ct 1939 -173 1932 -174 1925 -174 ct 1917 -174 1910 -173 1904 -170 ct 
1898 -167 1892 -163 1888 -158 ct 1884 -153 1880 -147 1878 -139 ct 1875 -132 1874 -123 1874 -113 ct 
1874 0 l  1842 0 l  1842 -154 l  1842 -158 1842 -163 1842 -167 ct 1842 -172 1841 -176 1841 -180 ct 
1841 -184 1841 -187 1841 -190 ct 1841 -193 1841 -195 1841 -195 ct 1871 -195 l 
1871 -194 1872 -192 1872 -190 ct 1872 -187 1872 -184 1872 -181 ct 1872 -178 1872 -174 1873 -171 ct 
1873 -167 1873 -164 1873 -162 ct 1873 -162 l  1876 -168 1880 -173 1884 -177 ct 
1887 -182 1892 -186 1897 -189 ct 1902 -192 1907 -195 1914 -196 ct 1920 -198 1927 -199 1936 -199 ct 
1947 -199 1956 -198 1964 -195 ct 1972 -192 1978 -188 1983 -183 ct 1988 -177 1992 -170 1994 -161 ct 
1997 -153 1998 -142 1998 -130 ct 1998 0 l  1965 0 l  p ef
pom
1 lw 8499 13295 m  12318 13295 l  ps
12748 13295 m  12298 13145 l  12298 13444 l  12748 13295 l  p ef
8499 13794 m  12318 13794 l  ps
12748 13794 m  12298 13644 l  12298 13944 l  12748 13794 l  p ef
12748 14544 m  8929 14544 l  ps
8499 14544 m  8949 14694 l  8949 14394 l  8499 14544 l  p ef
12748 15044 m  8929 15044 l  ps
8499 15044 m  8949 15194 l  8949 14894 l  8499 15044 l  p ef
pum
10023 13104 t
211 1 m  182 -74 l  66 -74 l  37 1 l  1 1 l  105 -254 l  144 -254 l  246 1 l 
211 1 l  p
139 -185 m  137 -190 135 -195 133 -199 ct 132 -204 130 -209 129 -213 ct 127 -217 126 -220 125 -223 ct 
124 -226 124 -227 124 -228 ct 124 -227 123 -226 122 -223 ct 121 -220 120 -217 119 -213 ct 
117 -209 116 -204 114 -199 ct 112 -194 111 -189 109 -185 ct 76 -101 l  171 -101 l 
139 -185 l  p ef
473 -72 m  473 -59 471 -48 466 -39 ct 461 -30 454 -22 445 -16 ct 437 -11 427 -7 415 -4 ct 
404 -1 392 0 380 0 ct 276 0 l  276 -255 l  369 -255 l  383 -255 396 -253 407 -251 ct 
418 -249 427 -245 435 -240 ct 443 -235 448 -228 452 -221 ct 456 -213 458 -204 458 -193 ct 
458 -186 457 -179 455 -173 ct 454 -166 450 -161 446 -155 ct 442 -150 437 -146 431 -142 ct 
425 -138 418 -136 410 -134 ct 420 -133 429 -130 437 -127 ct 445 -123 452 -119 457 -114 ct 
462 -108 466 -102 469 -95 ct 472 -88 473 -80 473 -72 ct p
424 -189 m  424 -202 419 -212 410 -218 ct 400 -224 387 -227 369 -227 ct 311 -227 l 
311 -146 l  369 -146 l  379 -146 388 -147 395 -149 ct 401 -151 407 -154 411 -158 ct 
416 -161 419 -166 421 -171 ct 423 -176 424 -182 424 -189 ct p
438 -74 m  438 -82 437 -89 434 -95 ct 431 -100 427 -105 421 -109 ct 416 -112 409 -115 401 -117 ct 
394 -118 385 -119 375 -119 ct 311 -119 l  311 -28 l  378 -28 l  387 -28 395 -28 402 -30 ct 
410 -31 416 -34 421 -37 ct 427 -41 431 -46 434 -52 ct 437 -58 438 -65 438 -74 ct 
p ef
593 4 m  667 -268 l  696 -268 l  622 4 l  593 4 l  p ef
824 0 m  824 -28 l  889 -28 l  889 -223 l  832 -182 l  832 -213 l  892 -255 l 
922 -255 l  922 -28 l  984 -28 l  984 0 l  824 0 l  p ef
1189 -83 m  1189 -70 1187 -58 1183 -48 ct 1180 -37 1174 -28 1167 -20 ct 1161 -13 1152 -7 1142 -2 ct 
1131 2 1120 4 1106 4 ct 1092 4 1079 1 1067 -4 ct 1056 -10 1047 -18 1040 -29 ct 
1032 -40 1027 -53 1023 -68 ct 1020 -84 1018 -101 1018 -121 ct 1018 -144 1020 -164 1024 -181 ct 
1028 -198 1034 -212 1042 -223 ct 1050 -235 1059 -244 1071 -249 ct 1082 -255 1095 -258 1109 -258 ct 
1118 -258 1126 -257 1133 -255 ct 1141 -253 1148 -251 1154 -247 ct 1160 -242 1166 -237 1170 -231 ct 
1175 -224 1179 -216 1181 -206 ct 1150 -200 l  1147 -211 1142 -219 1134 -224 ct 
1127 -229 1118 -232 1108 -232 ct 1100 -232 1092 -230 1084 -225 ct 1077 -221 1071 -215 1066 -206 ct 
1061 -198 1057 -188 1054 -175 ct 1051 -162 1050 -147 1050 -131 ct 1056 -141 1064 -150 1075 -156 ct 
1086 -161 1098 -164 1112 -164 ct 1123 -164 1134 -162 1143 -159 ct 1153 -155 1161 -149 1167 -142 ct 
1174 -135 1179 -127 1183 -117 ct 1187 -107 1189 -95 1189 -83 ct p
1155 -81 m  1155 -90 1154 -98 1152 -105 ct 1150 -112 1147 -118 1142 -123 ct 
1138 -128 1133 -132 1126 -135 ct 1120 -138 1113 -139 1104 -139 ct 1098 -139 1092 -138 1086 -136 ct 
1080 -135 1075 -132 1070 -128 ct 1065 -124 1061 -119 1058 -112 ct 1055 -106 1053 -98 1053 -89 ct 
1053 -80 1055 -71 1057 -63 ct 1059 -55 1063 -48 1067 -42 ct 1072 -36 1077 -31 1084 -27 ct 
1090 -24 1097 -22 1105 -22 ct 1113 -22 1120 -24 1126 -26 ct 1132 -29 1138 -33 1142 -38 ct 
1146 -43 1150 -49 1152 -57 ct 1154 -64 1155 -72 1155 -81 ct p ef
pom
pum
10135 14403 t
143 -230 m  129 -230 116 -227 105 -223 ct 94 -218 84 -211 77 -202 ct 69 -193 63 -182 60 -170 ct 
56 -157 54 -143 54 -128 ct 54 -113 56 -99 60 -86 ct 64 -73 70 -62 78 -53 ct 86 -44 95 -37 107 -32 ct 
118 -27 130 -24 145 -24 ct 154 -24 163 -26 172 -28 ct 180 -31 187 -34 194 -39 ct 
200 -44 206 -49 211 -56 ct 216 -62 221 -69 225 -77 ct 253 -63 l  249 -54 243 -45 236 -37 ct 
229 -28 221 -21 212 -15 ct 203 -9 193 -5 181 -1 ct 170 2 157 4 143 4 ct 122 4 104 1 89 -6 ct 
73 -12 60 -22 50 -33 ct 40 -45 32 -59 27 -75 ct 21 -91 19 -109 19 -128 ct 19 -148 22 -166 27 -182 ct 
33 -198 41 -212 51 -223 ct 62 -234 75 -243 90 -249 ct 105 -255 123 -258 143 -258 ct 
170 -258 192 -253 211 -242 ct 229 -232 242 -216 251 -195 ct 218 -184 l  216 -190 212 -196 208 -201 ct 
204 -207 199 -212 193 -216 ct 187 -220 180 -224 171 -226 ct 163 -229 154 -230 143 -230 ct 
p ef
368 4 m  442 -268 l  471 -268 l  397 4 l  368 4 l  p ef
600 0 m  600 -28 l  665 -28 l  665 -223 l  608 -182 l  608 -213 l  668 -255 l 
698 -255 l  698 -28 l  760 -28 l  760 0 l  600 0 l  p ef
965 -83 m  965 -70 963 -58 959 -48 ct 956 -37 950 -28 943 -20 ct 937 -13 928 -7 918 -2 ct 
907 2 896 4 882 4 ct 868 4 855 1 843 -4 ct 832 -10 823 -18 816 -29 ct 808 -40 803 -53 799 -68 ct 
796 -84 794 -101 794 -121 ct 794 -144 796 -164 800 -181 ct 804 -198 810 -212 818 -223 ct 
826 -235 835 -244 847 -249 ct 858 -255 871 -258 885 -258 ct 894 -258 902 -257 909 -255 ct 
917 -253 924 -251 930 -247 ct 936 -242 942 -237 946 -231 ct 951 -224 955 -216 957 -206 ct 
926 -200 l  923 -211 918 -219 910 -224 ct 903 -229 894 -232 884 -232 ct 876 -232 868 -230 860 -225 ct 
853 -221 847 -215 842 -206 ct 837 -198 833 -188 830 -175 ct 827 -162 826 -147 826 -131 ct 
832 -141 840 -150 851 -156 ct 862 -161 874 -164 888 -164 ct 899 -164 910 -162 919 -159 ct 
929 -155 937 -149 943 -142 ct 950 -135 955 -127 959 -117 ct 963 -107 965 -95 965 -83 ct 
p
931 -81 m  931 -90 930 -98 928 -105 ct 926 -112 923 -118 918 -123 ct 914 -128 909 -132 902 -135 ct 
896 -138 889 -139 880 -139 ct 874 -139 868 -138 862 -136 ct 856 -135 851 -132 846 -128 ct 
841 -124 837 -119 834 -112 ct 831 -106 829 -98 829 -89 ct 829 -80 831 -71 833 -63 ct 
835 -55 839 -48 843 -42 ct 848 -36 853 -31 860 -27 ct 866 -24 873 -22 881 -22 ct 
889 -22 896 -24 902 -26 ct 908 -29 914 -33 918 -38 ct 922 -43 926 -49 928 -57 ct 
930 -64 931 -72 931 -81 ct p ef
pom
pum
10336 14903 t
75 4 m  55 4 40 -1 31 -12 ct 21 -22 16 -36 16 -54 ct 16 -67 18 -78 23 -86 ct 28 -94 34 -101 42 -106 ct 
50 -110 59 -113 69 -115 ct 79 -117 90 -118 100 -118 ct 144 -118 l  144 -129 l 
144 -137 143 -144 141 -150 ct 140 -156 137 -160 134 -164 ct 130 -167 126 -170 121 -172 ct 
115 -173 109 -174 102 -174 ct 96 -174 90 -174 85 -173 ct 80 -172 76 -170 72 -168 ct 
68 -165 65 -162 63 -158 ct 61 -154 59 -149 58 -143 ct 24 -146 l  26 -154 28 -161 31 -167 ct 
35 -174 39 -179 46 -184 ct 52 -189 60 -192 69 -195 ct 78 -197 90 -199 103 -199 ct 
127 -199 146 -193 158 -182 ct 171 -171 177 -154 177 -133 ct 177 -49 l  177 -39 178 -32 181 -27 ct 
183 -22 188 -20 195 -20 ct 197 -20 199 -20 201 -20 ct 202 -20 204 -21 206 -21 ct 
206 -1 l  202 0 198 1 194 1 ct 190 2 185 2 181 2 ct 175 2 169 1 165 0 ct 160 -2 157 -4 154 -8 ct 
151 -11 149 -15 148 -20 ct 146 -25 145 -30 145 -37 ct 144 -37 l  141 -31 137 -25 133 -20 ct 
128 -15 124 -11 118 -7 ct 112 -4 106 -1 99 1 ct 92 3 84 4 75 4 ct p
82 -20 m  93 -20 102 -22 109 -26 ct 117 -30 124 -35 129 -40 ct 134 -46 138 -53 140 -60 ct 
143 -66 144 -73 144 -79 ct 144 -95 l  108 -95 l  100 -95 93 -95 86 -94 ct 79 -93 72 -91 67 -88 ct 
61 -85 57 -80 54 -75 ct 51 -70 49 -62 49 -54 ct 49 -43 52 -35 58 -29 ct 63 -23 72 -20 82 -20 ct 
p ef
253 -98 m  253 -87 254 -77 255 -67 ct 257 -58 259 -50 263 -43 ct 267 -36 272 -31 279 -27 ct 
285 -24 293 -22 302 -22 ct 314 -22 323 -25 331 -31 ct 339 -37 344 -46 345 -59 ct 
378 -59 l  377 -51 375 -43 371 -35 ct 368 -28 363 -21 356 -15 ct 350 -9 343 -5 334 -1 ct 
325 2 315 4 303 4 ct 288 4 275 1 264 -4 ct 253 -9 244 -16 238 -25 ct 231 -34 226 -45 223 -57 ct 
220 -70 219 -83 219 -97 ct 219 -111 220 -122 222 -132 ct 224 -142 227 -151 231 -158 ct 
235 -166 240 -172 245 -177 ct 250 -183 256 -187 262 -190 ct 268 -193 275 -195 282 -196 ct 
289 -198 296 -198 303 -198 ct 314 -198 323 -197 332 -194 ct 340 -191 348 -187 354 -182 ct 
360 -176 365 -170 369 -163 ct 373 -156 376 -148 377 -140 ct 344 -138 l  342 -148 338 -157 331 -163 ct 
324 -170 314 -173 302 -173 ct 292 -173 285 -171 278 -168 ct 272 -165 267 -161 263 -155 ct 
259 -148 257 -141 255 -131 ct 254 -122 253 -111 253 -98 ct p ef
536 0 m  470 -89 l  446 -70 l  446 0 l  414 0 l  414 -268 l  446 -268 l 
446 -101 l  532 -195 l  570 -195 l  491 -111 l  575 0 l  536 0 l  p ef
pom
pum
10360 13703 t
26 0 m  26 -150 l  26 -154 26 -158 26 -162 ct 26 -167 25 -171 25 -175 ct 25 -179 25 -183 25 -186 ct 
25 -189 25 -193 25 -195 ct 55 -195 l  55 -193 56 -189 56 -186 ct 56 -182 56 -179 56 -175 ct 
56 -171 57 -168 57 -164 ct 57 -161 57 -158 57 -155 ct 57 -155 l  60 -163 62 -169 65 -175 ct 
67 -180 70 -185 74 -188 ct 77 -192 82 -195 86 -196 ct 91 -198 97 -199 104 -199 ct 
107 -199 109 -199 111 -198 ct 114 -198 116 -198 117 -197 ct 117 -167 l  115 -168 112 -168 109 -169 ct 
107 -169 103 -169 100 -169 ct 92 -169 86 -168 81 -164 ct 75 -161 71 -156 68 -150 ct 
65 -144 62 -137 61 -129 ct 59 -121 58 -112 58 -102 ct 58 0 l  26 0 l  p ef
173 -90 m  173 -80 174 -71 176 -62 ct 178 -53 181 -46 186 -40 ct 190 -34 196 -29 203 -26 ct 
210 -22 218 -20 227 -20 ct 242 -20 253 -23 261 -29 ct 270 -34 276 -42 279 -50 ct 
307 -42 l  305 -37 302 -31 299 -26 ct 295 -20 290 -15 284 -11 ct 278 -7 270 -3 261 0 ct 
252 3 240 4 227 4 ct 199 4 177 -5 161 -22 ct 146 -39 139 -65 139 -99 ct 139 -117 141 -133 146 -145 ct 
150 -158 156 -168 164 -176 ct 172 -184 182 -190 192 -194 ct 203 -197 214 -199 226 -199 ct 
243 -199 256 -196 267 -191 ct 278 -186 287 -178 294 -169 ct 301 -160 305 -148 308 -136 ct 
311 -123 312 -109 312 -94 ct 312 -90 l  173 -90 l  p
279 -115 m  277 -136 272 -151 263 -161 ct 254 -170 242 -175 226 -175 ct 220 -175 215 -174 209 -172 ct 
203 -171 197 -167 192 -163 ct 187 -158 183 -152 179 -145 ct 176 -137 174 -127 173 -115 ct 
279 -115 l  p ef
413 4 m  389 4 370 -4 359 -21 ct 347 -38 342 -63 342 -97 ct 342 -131 347 -156 359 -173 ct 
371 -190 389 -199 413 -199 ct 422 -199 429 -198 435 -197 ct 441 -195 447 -193 451 -190 ct 
456 -188 461 -184 464 -180 ct 468 -176 471 -171 474 -165 ct 475 -165 l  475 -168 475 -171 475 -175 ct 
475 -179 475 -182 476 -186 ct 476 -189 476 -192 476 -194 ct 476 -196 477 -198 477 -198 ct 
508 -198 l  508 -196 508 -190 507 -181 ct 507 -173 507 -160 507 -144 ct 507 77 l 
474 77 l  474 -2 l  474 -5 474 -9 474 -12 ct 474 -15 475 -18 475 -22 ct 475 -25 475 -28 475 -32 ct 
475 -32 l  472 -26 468 -20 464 -16 ct 461 -11 456 -8 451 -5 ct 446 -2 441 1 434 2 ct 
428 3 421 4 413 4 ct p
474 -100 m  474 -114 473 -126 471 -136 ct 468 -145 465 -153 460 -159 ct 456 -165 450 -169 444 -171 ct 
437 -174 430 -175 422 -175 ct 414 -175 407 -173 401 -170 ct 395 -167 390 -163 386 -156 ct 
383 -150 380 -142 378 -132 ct 377 -122 376 -111 376 -98 ct 376 -85 377 -73 378 -64 ct 
380 -54 382 -46 386 -40 ct 390 -33 395 -29 400 -26 ct 406 -23 413 -21 422 -21 ct 
429 -21 436 -22 442 -24 ct 449 -27 454 -31 459 -37 ct 464 -42 467 -50 470 -61 ct 
473 -71 474 -84 474 -100 ct p ef
pom
0 lw 5999 16293 m  15248 16293 l  ps
1 lw 5999 16294 m  5999 15974 l  ps
5999 15544 m  5849 15994 l  6149 15994 l  5999 15544 l  p ef
15248 16294 m  15248 15974 l  ps
15248 15544 m  15098 15994 l  15398 15994 l  15248 15544 l  p ef
pum
10398 16203 t
50 -98 m  50 -87 51 -77 52 -67 ct 54 -58 56 -50 60 -43 ct 64 -36 69 -31 76 -27 ct 
82 -24 90 -22 99 -22 ct 111 -22 120 -25 128 -31 ct 136 -37 141 -46 142 -59 ct 175 -59 l 
174 -51 172 -43 168 -35 ct 165 -28 160 -21 153 -15 ct 147 -9 140 -5 131 -1 ct 122 2 112 4 100 4 ct 
85 4 72 1 61 -4 ct 50 -9 41 -16 35 -25 ct 28 -34 23 -45 20 -57 ct 17 -70 16 -83 16 -97 ct 
16 -111 17 -122 19 -132 ct 21 -142 24 -151 28 -158 ct 32 -166 37 -172 42 -177 ct 
47 -183 53 -187 59 -190 ct 65 -193 72 -195 79 -196 ct 86 -198 93 -198 100 -198 ct 
111 -198 120 -197 129 -194 ct 137 -191 145 -187 151 -182 ct 157 -176 162 -170 166 -163 ct 
170 -156 173 -148 174 -140 ct 141 -138 l  139 -148 135 -157 128 -163 ct 121 -170 111 -173 99 -173 ct 
89 -173 82 -171 75 -168 ct 69 -165 64 -161 60 -155 ct 56 -148 54 -141 52 -131 ct 
51 -122 50 -111 50 -98 ct p ef
211 0 m  211 -268 l  243 -268 l  243 0 l  211 0 l  p ef
414 0 m  348 -89 l  324 -70 l  324 0 l  292 0 l  292 -268 l  324 -268 l 
324 -101 l  410 -195 l  448 -195 l  369 -111 l  453 0 l  414 0 l  p ef
pom
0 lw 5249 17043 m  15997 17043 l  ps
1 lw 5249 17044 m  5249 15974 l  ps
5249 15544 m  5099 15994 l  5399 15994 l  5249 15544 l  p ef
15998 17044 m  15998 15974 l  ps
15998 15544 m  15848 15994 l  16148 15994 l  15998 15544 l  p ef
pum
10216 16903 t
26 0 m  26 -150 l  26 -154 26 -158 26 -162 ct 26 -167 25 -171 25 -175 ct 25 -179 25 -183 25 -186 ct 
25 -189 25 -193 25 -195 ct 55 -195 l  55 -193 56 -189 56 -186 ct 56 -182 56 -179 56 -175 ct 
56 -171 57 -168 57 -164 ct 57 -161 57 -158 57 -155 ct 57 -155 l  60 -163 62 -169 65 -175 ct 
67 -180 70 -185 74 -188 ct 77 -192 82 -195 86 -196 ct 91 -198 97 -199 104 -199 ct 
107 -199 109 -199 111 -198 ct 114 -198 116 -198 117 -197 ct 117 -167 l  115 -168 112 -168 109 -169 ct 
107 -169 103 -169 100 -169 ct 92 -169 86 -168 81 -164 ct 75 -161 71 -156 68 -150 ct 
65 -144 62 -137 61 -129 ct 59 -121 58 -112 58 -102 ct 58 0 l  26 0 l  p ef
173 -90 m  173 -80 174 -71 176 -62 ct 178 -53 181 -46 186 -40 ct 190 -34 196 -29 203 -26 ct 
210 -22 218 -20 227 -20 ct 242 -20 253 -23 261 -29 ct 270 -34 276 -42 279 -50 ct 
307 -42 l  305 -37 302 -31 299 -26 ct 295 -20 290 -15 284 -11 ct 278 -7 270 -3 261 0 ct 
252 3 240 4 227 4 ct 199 4 177 -5 161 -22 ct 146 -39 139 -65 139 -99 ct 139 -117 141 -133 146 -145 ct 
150 -158 156 -168 164 -176 ct 172 -184 182 -190 192 -194 ct 203 -197 214 -199 226 -199 ct 
243 -199 256 -196 267 -191 ct 278 -186 287 -178 294 -169 ct 301 -160 305 -148 308 -136 ct 
311 -123 312 -109 312 -94 ct 312 -90 l  173 -90 l  p
279 -115 m  277 -136 272 -151 263 -161 ct 254 -170 242 -175 226 -175 ct 220 -175 215 -174 209 -172 ct 
203 -171 197 -167 192 -163 ct 187 -158 183 -152 179 -145 ct 176 -137 174 -127 173 -115 ct 
279 -115 l  p ef
498 -54 m  498 -44 496 -36 492 -29 ct 489 -22 484 -16 477 -11 ct 470 -6 462 -2 452 0 ct 
442 3 431 4 418 4 ct 407 4 397 3 388 1 ct 379 0 371 -3 364 -7 ct 357 -11 351 -16 347 -22 ct 
342 -29 338 -36 336 -45 ct 365 -51 l  368 -41 374 -33 382 -28 ct 391 -23 403 -21 418 -21 ct 
425 -21 432 -21 438 -22 ct 443 -23 448 -25 453 -27 ct 457 -30 460 -33 462 -37 ct 
465 -40 466 -45 466 -51 ct 466 -57 465 -62 462 -66 ct 459 -69 455 -73 450 -75 ct 
445 -78 439 -80 432 -82 ct 425 -84 418 -86 409 -88 ct 401 -90 394 -92 386 -95 ct 
378 -97 371 -101 365 -105 ct 359 -109 354 -114 350 -120 ct 346 -126 344 -134 344 -143 ct 
344 -161 350 -175 363 -184 ct 376 -193 394 -198 419 -198 ct 440 -198 457 -194 470 -187 ct 
483 -179 491 -167 494 -150 ct 465 -147 l  464 -152 462 -156 459 -159 ct 456 -163 453 -165 448 -168 ct 
444 -170 440 -171 435 -172 ct 430 -173 424 -173 419 -173 ct 404 -173 393 -171 386 -167 ct 
379 -162 376 -156 376 -147 ct 376 -141 377 -137 380 -133 ct 382 -130 386 -127 390 -125 ct 
395 -122 401 -120 407 -119 ct 414 -117 421 -115 429 -113 ct 434 -112 439 -110 445 -109 ct 
450 -107 455 -106 460 -104 ct 465 -101 470 -99 475 -96 ct 479 -93 483 -90 487 -86 ct 
490 -82 493 -77 495 -72 ct 497 -67 498 -61 498 -54 ct p ef
562 -90 m  562 -80 563 -71 565 -62 ct 567 -53 570 -46 575 -40 ct 579 -34 585 -29 592 -26 ct 
599 -22 607 -20 616 -20 ct 631 -20 642 -23 650 -29 ct 659 -34 665 -42 668 -50 ct 
696 -42 l  694 -37 691 -31 688 -26 ct 684 -20 679 -15 673 -11 ct 667 -7 659 -3 650 0 ct 
641 3 629 4 616 4 ct 588 4 566 -5 550 -22 ct 535 -39 528 -65 528 -99 ct 528 -117 530 -133 535 -145 ct 
539 -158 545 -168 553 -176 ct 561 -184 571 -190 581 -194 ct 592 -197 603 -199 615 -199 ct 
632 -199 645 -196 656 -191 ct 667 -186 676 -178 683 -169 ct 690 -160 694 -148 697 -136 ct 
700 -123 701 -109 701 -94 ct 701 -90 l  562 -90 l  p
668 -115 m  666 -136 661 -151 652 -161 ct 643 -170 631 -175 615 -175 ct 609 -175 604 -174 598 -172 ct 
592 -171 586 -167 581 -163 ct 576 -158 572 -152 568 -145 ct 565 -137 563 -127 562 -115 ct 
668 -115 l  p ef
815 -1 m  810 0 805 1 800 2 ct 795 3 789 3 782 3 ct 756 3 743 -12 743 -41 ct 743 -171 l 
721 -171 l  721 -195 l  744 -195 l  754 -239 l  776 -239 l  776 -195 l 
812 -195 l  812 -171 l  776 -171 l  776 -48 l  776 -39 777 -32 780 -29 ct 
783 -25 789 -23 796 -23 ct 799 -23 802 -23 805 -24 ct 808 -24 812 -25 815 -25 ct 
815 -1 l  p ef
pom
0 7656 t 
pom
count op_count sub {pop} repeat countdictstack dict_count sub {end} repeat b4_inc_state restore
%%PageTrailer
%%Trailer
%%EOF
