%!PS-Adobe-3.0 EPSF-3.0 
%%BoundingBox: 0 0 507 106
%%Pages: 0
%%Creator: LibreOffice 5.1
%%Title: none
%%CreationDate: none
%%LanguageLevel: 2
%%EndComments
%%BeginProlog
%%BeginResource: procset SDRes-Prolog 1.0 0
/b4_inc_state save def
/dict_count countdictstack def
/op_count count 1 sub def
userdict begin
0 setgray 0 setlinecap 1 setlinewidth 0 setlinejoin 10 setmiterlimit[] 0 setdash newpath
/languagelevel where {pop languagelevel 1 ne {false setstrokeadjust false setoverprint} if} if
/bdef {bind def} bind def
/c {setrgbcolor} bdef
/l {neg lineto} bdef
/rl {neg rlineto} bdef
/lc {setlinecap} bdef
/lj {setlinejoin} bdef
/lw {setlinewidth} bdef
/ml {setmiterlimit} bdef
/ld {setdash} bdef
/m {neg moveto} bdef
/ct {6 2 roll neg 6 2 roll neg 6 2 roll neg curveto} bdef
/r {rotate} bdef
/t {neg translate} bdef
/s {scale} bdef
/sw {show} bdef
/gs {gsave} bdef
/gr {grestore} bdef
/f {findfont dup length dict begin
{1 index /FID ne {def} {pop pop} ifelse} forall /Encoding ISOLatin1Encoding def
currentdict end /NFont exch definefont pop /NFont findfont} bdef
/p {closepath} bdef
/sf {scalefont setfont} bdef
/ef {eofill}bdef
/pc {closepath stroke}bdef
/ps {stroke}bdef
/pum {matrix currentmatrix}bdef
/pom {setmatrix}bdef
/bs {/aString exch def /nXOfs exch def /nWidth exch def currentpoint nXOfs 0 rmoveto pum nWidth aString stringwidth pop div 1 scale aString show pom moveto} bdef
%%EndResource
%%EndProlog
%%BeginSetup
%%EndSetup
%%Page: 1 1
%%BeginPageSetup
%%EndPageSetup
pum
0.02835 0.0284 s 
0 -3732 t
/tm matrix currentmatrix def
tm setmatrix
-1470 -14848 t 
1 1 s 
0 lw 1 lj 0.207 0.398 0.644 c 3374 15491 m  4153 15491 4749 15924 4749 16491 ct 
4749 17057 4153 17490 3374 17490 ct 2595 17490 1999 17057 1999 16491 ct 1999 15924 2595 15491 3374 15491 ct 
pc
1999 15491 m  1999 15491 l  pc
4750 17491 m  4750 17491 l  pc
pum
2283 16712 t
0.003 0.003 0.003 c 59 0 m  59 -438 l  118 -438 l  118 0 l  59 0 l  p ef
434 0 m  434 -213 l  434 -229 433 -243 430 -254 ct 428 -265 424 -274 419 -280 ct 
413 -287 406 -292 397 -295 ct 389 -297 378 -299 365 -299 ct 351 -299 339 -297 329 -292 ct 
318 -287 309 -281 302 -272 ct 294 -263 288 -252 284 -239 ct 280 -226 278 -211 278 -195 ct 
278 0 l  222 0 l  222 -265 l  222 -272 222 -279 222 -287 ct 222 -295 222 -302 221 -309 ct 
221 -316 221 -322 221 -327 ct 221 -332 220 -335 220 -335 ct 273 -335 l  273 -334 273 -331 274 -326 ct 
274 -322 274 -317 274 -311 ct 275 -305 275 -299 275 -293 ct 275 -287 275 -282 275 -278 ct 
276 -278 l  282 -288 288 -297 294 -305 ct 300 -313 308 -319 316 -325 ct 325 -330 334 -335 345 -338 ct 
356 -341 369 -342 384 -342 ct 402 -342 418 -340 432 -335 ct 445 -331 456 -324 465 -314 ct 
473 -305 480 -292 484 -277 ct 488 -262 490 -244 490 -224 ct 490 0 l  434 0 l 
p ef
855 -170 m  855 -144 853 -121 849 -99 ct 845 -78 838 -59 829 -43 ct 819 -28 806 -16 791 -7 ct 
775 2 755 6 732 6 ct 708 6 687 2 669 -7 ct 651 -17 637 -31 628 -52 ct 626 -52 l 
627 -52 627 -50 627 -47 ct 627 -43 627 -39 627 -34 ct 627 -29 627 -24 627 -17 ct 
628 -11 628 -5 628 1 ct 628 132 l  572 132 l  572 -269 l  572 -277 572 -284 572 -292 ct 
572 -299 571 -306 571 -312 ct 571 -318 571 -324 571 -328 ct 570 -332 570 -335 570 -335 ct 
624 -335 l  624 -334 624 -332 625 -328 ct 625 -325 625 -320 626 -315 ct 626 -310 626 -304 627 -299 ct 
627 -293 627 -287 627 -282 ct 628 -282 l  633 -293 639 -302 646 -310 ct 653 -317 660 -323 669 -328 ct 
677 -333 686 -337 697 -339 ct 707 -341 719 -342 732 -342 ct 755 -342 775 -338 791 -330 ct 
806 -321 819 -310 829 -295 ct 838 -280 845 -261 849 -240 ct 853 -219 855 -195 855 -170 ct 
p
797 -168 m  797 -189 796 -207 793 -224 ct 791 -240 786 -253 780 -265 ct 774 -276 766 -284 756 -290 ct 
746 -296 733 -299 718 -299 ct 705 -299 694 -297 683 -294 ct 672 -290 662 -283 654 -273 ct 
646 -263 639 -250 635 -232 ct 630 -215 628 -192 628 -164 ct 628 -140 630 -120 633 -104 ct 
637 -87 643 -74 651 -64 ct 658 -53 668 -46 679 -42 ct 690 -37 703 -35 717 -35 ct 
733 -35 746 -38 756 -44 ct 766 -50 774 -59 780 -70 ct 786 -82 791 -95 793 -112 ct 
796 -128 797 -147 797 -168 ct p ef
978 -336 m  978 -123 l  978 -107 980 -93 982 -82 ct 984 -71 988 -62 994 -56 ct 
999 -49 1006 -44 1015 -41 ct 1024 -39 1034 -37 1048 -37 ct 1061 -37 1073 -39 1083 -44 ct 
1094 -49 1103 -55 1111 -64 ct 1118 -73 1124 -84 1128 -97 ct 1132 -110 1134 -125 1134 -141 ct 
1134 -336 l  1190 -336 l  1190 -71 l  1190 -64 1190 -56 1190 -49 ct 1190 -41 1191 -33 1191 -27 ct 
1191 -20 1191 -14 1191 -9 ct 1192 -4 1192 -1 1192 -1 ct 1139 -1 l  1139 -2 1139 -5 1139 -9 ct 
1138 -14 1138 -19 1138 -25 ct 1138 -31 1137 -37 1137 -43 ct 1137 -49 1137 -54 1137 -58 ct 
1136 -58 l  1131 -48 1125 -39 1118 -31 ct 1112 -23 1104 -17 1096 -11 ct 1087 -6 1078 -2 1067 2 ct 
1056 4 1043 6 1029 6 ct 1010 6 994 4 981 -1 ct 967 -5 956 -12 947 -22 ct 939 -31 932 -44 928 -59 ct 
924 -73 922 -91 922 -112 ct 922 -336 l  978 -336 l  p ef
1404 -2 m  1395 0 1387 2 1378 3 ct 1369 4 1359 5 1347 5 ct 1303 5 1280 -20 1280 -71 ct 
1280 -295 l  1242 -295 l  1242 -336 l  1283 -336 l  1299 -411 l  1336 -411 l 
1336 -336 l  1398 -336 l  1398 -295 l  1336 -295 l  1336 -83 l  1336 -67 1339 -56 1344 -49 ct 
1349 -43 1359 -39 1372 -39 ct 1377 -39 1382 -40 1387 -41 ct 1392 -41 1398 -42 1404 -44 ct 
1404 -2 l  p ef
1400 126 m  1400 86 l  1770 86 l  1770 126 l  1400 126 l  p ef
2123 0 m  2073 -128 l  1874 -128 l  1824 0 l  1762 0 l  1941 -438 l  2008 -438 l 
2183 0 l  2123 0 l  p
1999 -319 m  1996 -327 1993 -335 1990 -344 ct 1987 -352 1984 -360 1982 -367 ct 
1979 -374 1978 -380 1976 -384 ct 1974 -389 1974 -392 1973 -393 ct 1973 -392 1972 -389 1971 -384 ct 
1969 -379 1967 -373 1965 -366 ct 1962 -359 1960 -352 1957 -343 ct 1954 -335 1951 -326 1948 -318 ct 
1892 -174 l  2055 -174 l  1999 -319 l  p ef
pom
0.207 0.398 0.644 c 10373 15491 m  11152 15491 11748 15924 11748 16491 ct 
11748 17057 11152 17490 10373 17490 ct 9594 17490 8998 17057 8998 16491 ct 8998 15924 9594 15491 10373 15491 ct 
pc
8998 15491 m  8998 15491 l  pc
11749 17491 m  11749 17491 l  pc
pum
9281 16712 t
0.003 0.003 0.003 c 59 0 m  59 -438 l  118 -438 l  118 0 l  59 0 l  p ef
434 0 m  434 -213 l  434 -229 433 -243 430 -254 ct 428 -265 424 -274 419 -280 ct 
413 -287 406 -292 397 -295 ct 389 -297 378 -299 365 -299 ct 351 -299 339 -297 329 -292 ct 
318 -287 309 -281 302 -272 ct 294 -263 288 -252 284 -239 ct 280 -226 278 -211 278 -195 ct 
278 0 l  222 0 l  222 -265 l  222 -272 222 -279 222 -287 ct 222 -295 222 -302 221 -309 ct 
221 -316 221 -322 221 -327 ct 221 -332 220 -335 220 -335 ct 273 -335 l  273 -334 273 -331 274 -326 ct 
274 -322 274 -317 274 -311 ct 275 -305 275 -299 275 -293 ct 275 -287 275 -282 275 -278 ct 
276 -278 l  282 -288 288 -297 294 -305 ct 300 -313 308 -319 316 -325 ct 325 -330 334 -335 345 -338 ct 
356 -341 369 -342 384 -342 ct 402 -342 418 -340 432 -335 ct 445 -331 456 -324 465 -314 ct 
473 -305 480 -292 484 -277 ct 488 -262 490 -244 490 -224 ct 490 0 l  434 0 l 
p ef
855 -170 m  855 -144 853 -121 849 -99 ct 845 -78 838 -59 829 -43 ct 819 -28 806 -16 791 -7 ct 
775 2 755 6 732 6 ct 708 6 687 2 669 -7 ct 651 -17 637 -31 628 -52 ct 626 -52 l 
627 -52 627 -50 627 -47 ct 627 -43 627 -39 627 -34 ct 627 -29 627 -24 627 -17 ct 
628 -11 628 -5 628 1 ct 628 132 l  572 132 l  572 -269 l  572 -277 572 -284 572 -292 ct 
572 -299 571 -306 571 -312 ct 571 -318 571 -324 571 -328 ct 570 -332 570 -335 570 -335 ct 
624 -335 l  624 -334 624 -332 625 -328 ct 625 -325 625 -320 626 -315 ct 626 -310 626 -304 627 -299 ct 
627 -293 627 -287 627 -282 ct 628 -282 l  633 -293 639 -302 646 -310 ct 653 -317 660 -323 669 -328 ct 
677 -333 686 -337 697 -339 ct 707 -341 719 -342 732 -342 ct 755 -342 775 -338 791 -330 ct 
806 -321 819 -310 829 -295 ct 838 -280 845 -261 849 -240 ct 853 -219 855 -195 855 -170 ct 
p
797 -168 m  797 -189 796 -207 793 -224 ct 791 -240 786 -253 780 -265 ct 774 -276 766 -284 756 -290 ct 
746 -296 733 -299 718 -299 ct 705 -299 694 -297 683 -294 ct 672 -290 662 -283 654 -273 ct 
646 -263 639 -250 635 -232 ct 630 -215 628 -192 628 -164 ct 628 -140 630 -120 633 -104 ct 
637 -87 643 -74 651 -64 ct 658 -53 668 -46 679 -42 ct 690 -37 703 -35 717 -35 ct 
733 -35 746 -38 756 -44 ct 766 -50 774 -59 780 -70 ct 786 -82 791 -95 793 -112 ct 
796 -128 797 -147 797 -168 ct p ef
978 -336 m  978 -123 l  978 -107 980 -93 982 -82 ct 984 -71 988 -62 994 -56 ct 
999 -49 1006 -44 1015 -41 ct 1024 -39 1034 -37 1048 -37 ct 1061 -37 1073 -39 1083 -44 ct 
1094 -49 1103 -55 1111 -64 ct 1118 -73 1124 -84 1128 -97 ct 1132 -110 1134 -125 1134 -141 ct 
1134 -336 l  1190 -336 l  1190 -71 l  1190 -64 1190 -56 1190 -49 ct 1190 -41 1191 -33 1191 -27 ct 
1191 -20 1191 -14 1191 -9 ct 1192 -4 1192 -1 1192 -1 ct 1139 -1 l  1139 -2 1139 -5 1139 -9 ct 
1138 -14 1138 -19 1138 -25 ct 1138 -31 1137 -37 1137 -43 ct 1137 -49 1137 -54 1137 -58 ct 
1136 -58 l  1131 -48 1125 -39 1118 -31 ct 1112 -23 1104 -17 1096 -11 ct 1087 -6 1078 -2 1067 2 ct 
1056 4 1043 6 1029 6 ct 1010 6 994 4 981 -1 ct 967 -5 956 -12 947 -22 ct 939 -31 932 -44 928 -59 ct 
924 -73 922 -91 922 -112 ct 922 -336 l  978 -336 l  p ef
1404 -2 m  1395 0 1387 2 1378 3 ct 1369 4 1359 5 1347 5 ct 1303 5 1280 -20 1280 -71 ct 
1280 -295 l  1242 -295 l  1242 -336 l  1283 -336 l  1299 -411 l  1336 -411 l 
1336 -336 l  1398 -336 l  1398 -295 l  1336 -295 l  1336 -83 l  1336 -67 1339 -56 1344 -49 ct 
1349 -43 1359 -39 1372 -39 ct 1377 -39 1382 -40 1387 -41 ct 1392 -41 1398 -42 1404 -44 ct 
1404 -2 l  p ef
1400 126 m  1400 86 l  1770 86 l  1770 126 l  1400 126 l  p ef
2151 -123 m  2151 -101 2147 -82 2138 -67 ct 2129 -51 2118 -38 2103 -28 ct 2088 -19 2071 -11 2052 -7 ct 
2032 -2 2012 0 1990 0 ct 1813 0 l  1813 -437 l  1972 -437 l  1996 -437 2018 -435 2037 -431 ct 
2056 -427 2072 -421 2085 -412 ct 2098 -404 2108 -393 2115 -379 ct 2122 -366 2126 -350 2126 -331 ct 
2126 -319 2124 -307 2121 -297 ct 2117 -286 2112 -276 2105 -267 ct 2098 -258 2089 -251 2079 -245 ct 
2069 -238 2056 -234 2043 -230 ct 2060 -228 2076 -224 2089 -218 ct 2103 -212 2114 -205 2123 -195 ct 
2132 -186 2139 -175 2144 -163 ct 2149 -151 2151 -137 2151 -123 ct p
2066 -324 m  2066 -348 2058 -365 2042 -375 ct 2026 -385 2002 -390 1972 -390 ct 
1872 -390 l  1872 -251 l  1972 -251 l  1989 -251 2004 -253 2016 -256 ct 2028 -260 2038 -265 2045 -271 ct 
2052 -277 2058 -285 2061 -294 ct 2064 -303 2066 -313 2066 -324 ct p
2091 -128 m  2091 -142 2089 -153 2084 -163 ct 2079 -173 2071 -181 2062 -187 ct 
2052 -193 2041 -198 2028 -201 ct 2014 -204 1999 -205 1983 -205 ct 1872 -205 l 
1872 -47 l  1987 -47 l  2002 -47 2016 -49 2029 -51 ct 2042 -54 2053 -58 2062 -64 ct 
2071 -70 2078 -79 2083 -89 ct 2089 -99 2091 -112 2091 -128 ct p ef
pom
0.207 0.398 0.644 c 6874 15492 m  7653 15492 8249 15925 8249 16492 ct 8249 17058 7653 17491 6874 17491 ct 
6095 17491 5500 17058 5500 16492 ct 5500 15925 6095 15492 6874 15492 ct pc
5500 15492 m  5500 15492 l  pc
8250 17492 m  8250 17492 l  pc
pum
5732 16713 t
0.003 0.003 0.003 c 428 -223 m  428 -187 423 -155 412 -127 ct 401 -99 386 -76 367 -57 ct 
348 -38 325 -24 299 -14 ct 273 -5 245 0 215 0 ct 52 0 l  52 -437 l  197 -437 l 
230 -437 261 -433 290 -425 ct 318 -417 343 -404 363 -386 ct 384 -369 400 -346 411 -319 ct 
422 -293 428 -261 428 -223 ct p
369 -223 m  369 -253 364 -278 356 -299 ct 347 -320 336 -337 320 -351 ct 305 -364 287 -374 265 -381 ct 
244 -387 221 -390 195 -390 ct 111 -390 l  111 -47 l  209 -47 l  232 -47 253 -51 272 -59 ct 
292 -66 309 -77 323 -92 ct 337 -107 349 -125 357 -147 ct 365 -169 369 -194 369 -223 ct 
p ef
783 -168 m  783 -110 771 -66 745 -37 ct 719 -8 681 6 632 6 ct 609 6 588 2 570 -5 ct 
551 -12 536 -22 523 -37 ct 510 -51 500 -69 494 -91 ct 487 -113 484 -139 484 -168 ct 
484 -284 534 -342 634 -342 ct 660 -342 683 -339 701 -331 ct 720 -324 736 -313 748 -299 ct 
760 -284 769 -266 775 -245 ct 781 -223 783 -197 783 -168 ct p
725 -168 m  725 -195 723 -216 719 -233 ct 715 -250 709 -264 701 -274 ct 693 -284 684 -291 673 -295 ct 
662 -299 649 -301 635 -301 ct 621 -301 608 -299 596 -295 ct 585 -290 575 -283 567 -273 ct 
559 -263 553 -249 549 -232 ct 544 -215 542 -194 542 -168 ct 542 -142 545 -121 549 -104 ct 
554 -87 560 -73 568 -63 ct 576 -53 585 -46 596 -41 ct 607 -37 619 -35 632 -35 ct 
646 -35 659 -37 670 -41 ct 682 -45 692 -52 700 -63 ct 708 -73 714 -86 718 -104 ct 
723 -121 725 -142 725 -168 ct p ef
1065 0 m  1065 -213 l  1065 -229 1064 -243 1061 -254 ct 1059 -265 1055 -274 1050 -280 ct 
1044 -287 1037 -292 1028 -295 ct 1020 -297 1009 -299 996 -299 ct 982 -299 970 -297 960 -292 ct 
949 -287 940 -281 933 -272 ct 925 -263 919 -252 915 -239 ct 911 -226 909 -211 909 -195 ct 
909 0 l  853 0 l  853 -265 l  853 -272 853 -279 853 -287 ct 853 -295 853 -302 852 -309 ct 
852 -316 852 -322 852 -327 ct 852 -332 851 -335 851 -335 ct 904 -335 l  904 -334 904 -331 905 -326 ct 
905 -322 905 -317 905 -311 ct 906 -305 906 -299 906 -293 ct 906 -287 906 -282 906 -278 ct 
907 -278 l  913 -288 919 -297 925 -305 ct 931 -313 939 -319 947 -325 ct 956 -330 965 -335 976 -338 ct 
987 -341 1000 -342 1015 -342 ct 1033 -342 1049 -340 1063 -335 ct 1076 -331 1087 -324 1096 -314 ct 
1104 -305 1111 -292 1115 -277 ct 1119 -262 1121 -244 1121 -224 ct 1121 0 l  1065 0 l 
p ef
1246 -156 m  1246 -139 1247 -122 1251 -108 ct 1255 -93 1260 -80 1268 -70 ct 
1275 -59 1285 -51 1297 -45 ct 1309 -39 1323 -36 1339 -36 ct 1363 -36 1383 -41 1397 -50 ct 
1412 -60 1422 -72 1427 -87 ct 1476 -73 l  1472 -64 1468 -55 1461 -45 ct 1455 -36 1447 -27 1436 -20 ct 
1425 -12 1412 -6 1396 -1 ct 1381 4 1362 6 1339 6 ct 1290 6 1252 -9 1226 -38 ct 
1200 -68 1187 -112 1187 -170 ct 1187 -202 1191 -228 1199 -250 ct 1207 -272 1217 -290 1231 -303 ct 
1245 -317 1261 -327 1279 -333 ct 1297 -339 1316 -342 1337 -342 ct 1365 -342 1389 -338 1408 -329 ct 
1427 -320 1442 -307 1453 -291 ct 1465 -275 1473 -256 1478 -234 ct 1483 -212 1485 -189 1485 -164 ct 
1485 -156 l  1246 -156 l  p
1427 -199 m  1424 -234 1415 -260 1400 -277 ct 1385 -293 1364 -301 1336 -301 ct 
1327 -301 1317 -300 1307 -296 ct 1297 -293 1287 -288 1278 -280 ct 1270 -273 1262 -262 1256 -249 ct 
1250 -236 1247 -219 1246 -199 ct 1427 -199 l  p ef
1501 126 m  1501 86 l  1871 86 l  1871 126 l  1501 126 l  p ef
2225 0 m  2175 -128 l  1976 -128 l  1926 0 l  1864 0 l  2043 -438 l  2110 -438 l 
2285 0 l  2225 0 l  p
2101 -319 m  2098 -327 2095 -335 2092 -344 ct 2089 -352 2086 -360 2084 -367 ct 
2081 -374 2080 -380 2078 -384 ct 2076 -389 2076 -392 2075 -393 ct 2075 -392 2074 -389 2073 -384 ct 
2071 -379 2069 -373 2067 -366 ct 2064 -359 2062 -352 2059 -343 ct 2056 -335 2053 -326 2050 -318 ct 
1994 -174 l  2157 -174 l  2101 -319 l  p ef
pom
0.207 0.398 0.644 c 13872 15491 m  14651 15491 15247 15924 15247 16491 ct 
15247 17057 14651 17490 13872 17490 ct 13093 17490 12497 17057 12497 16491 ct 
12497 15924 13093 15491 13872 15491 ct pc
12497 15491 m  12497 15491 l  pc
15248 17491 m  15248 17491 l  pc
pum
12836 16712 t
0.003 0.003 0.003 c 246 -396 m  221 -396 199 -391 180 -383 ct 161 -375 145 -363 132 -348 ct 
119 -332 109 -314 102 -293 ct 96 -271 92 -247 92 -221 ct 92 -195 96 -171 103 -149 ct 
110 -127 120 -108 134 -92 ct 147 -77 163 -64 183 -56 ct 202 -47 224 -43 248 -43 ct 
265 -43 280 -45 294 -49 ct 308 -54 321 -60 332 -68 ct 343 -76 354 -86 362 -97 ct 
371 -108 379 -120 386 -134 ct 434 -109 l  427 -93 417 -78 405 -64 ct 394 -50 380 -38 364 -27 ct 
349 -17 331 -9 311 -3 ct 292 3 270 6 245 6 ct 210 6 179 0 152 -11 ct 126 -22 104 -38 86 -58 ct 
68 -78 54 -102 46 -130 ct 37 -158 32 -188 32 -221 ct 32 -255 37 -286 46 -313 ct 
56 -341 70 -364 88 -384 ct 106 -403 128 -418 154 -428 ct 181 -439 211 -444 245 -444 ct 
291 -444 330 -435 362 -417 ct 393 -398 416 -371 430 -336 ct 374 -317 l  370 -327 365 -337 358 -347 ct 
350 -356 342 -364 331 -372 ct 321 -379 308 -385 294 -389 ct 280 -393 264 -396 246 -396 ct 
p ef
585 6 m  552 6 526 -3 509 -21 ct 492 -39 484 -63 484 -94 ct 484 -117 488 -135 497 -149 ct 
505 -163 516 -174 529 -183 ct 543 -191 558 -196 576 -199 ct 593 -203 611 -204 629 -204 ct 
704 -204 l  704 -223 l  704 -237 703 -248 700 -258 ct 697 -268 692 -276 686 -282 ct 
680 -288 673 -292 664 -295 ct 655 -298 644 -299 632 -299 ct 621 -299 612 -299 603 -297 ct 
594 -296 587 -293 580 -289 ct 574 -285 569 -279 565 -272 ct 561 -265 558 -257 557 -246 ct 
499 -251 l  501 -265 505 -277 511 -288 ct 516 -299 525 -309 535 -317 ct 546 -325 559 -331 575 -335 ct 
591 -340 611 -342 633 -342 ct 676 -342 707 -332 729 -313 ct 750 -294 761 -266 761 -229 ct 
761 -85 l  761 -68 763 -55 767 -47 ct 771 -39 780 -35 792 -35 ct 795 -35 798 -35 801 -35 ct 
804 -36 807 -36 810 -37 ct 810 -2 l  803 0 796 1 789 2 ct 782 3 775 3 767 3 ct 
757 3 747 2 740 -1 ct 732 -4 726 -8 721 -14 ct 717 -20 713 -27 711 -35 ct 708 -43 707 -53 706 -64 ct 
704 -64 l  698 -54 692 -44 684 -35 ct 677 -27 669 -19 659 -13 ct 650 -7 639 -2 627 1 ct 
615 4 601 6 585 6 ct p
598 -36 m  616 -36 631 -39 645 -46 ct 658 -52 669 -60 678 -70 ct 687 -80 693 -91 698 -103 ct 
702 -115 704 -127 704 -138 ct 704 -165 l  643 -165 l  629 -165 616 -164 604 -162 ct 
592 -161 581 -157 572 -152 ct 562 -147 555 -139 550 -130 ct 544 -121 541 -108 541 -93 ct 
541 -75 546 -61 556 -51 ct 566 -41 580 -36 598 -36 ct p ef
852 1 m  852 -460 l  908 -460 l  908 1 l  852 1 l  p ef
1033 -170 m  1033 -150 1035 -133 1037 -117 ct 1040 -100 1045 -86 1052 -75 ct 
1058 -63 1067 -54 1078 -48 ct 1089 -41 1102 -38 1118 -38 ct 1138 -38 1154 -43 1168 -54 ct 
1181 -64 1189 -80 1192 -102 ct 1249 -102 l  1247 -88 1243 -74 1237 -61 ct 1230 -48 1222 -37 1211 -27 ct 
1201 -17 1188 -9 1172 -3 ct 1157 3 1140 6 1119 6 ct 1093 6 1071 2 1052 -7 ct 1034 -16 1019 -28 1008 -44 ct 
996 -60 988 -78 983 -99 ct 978 -121 975 -144 975 -168 ct 975 -191 977 -211 981 -228 ct 
984 -245 990 -260 996 -273 ct 1003 -286 1011 -297 1020 -306 ct 1029 -315 1039 -322 1050 -327 ct 
1060 -332 1071 -336 1083 -338 ct 1095 -341 1107 -342 1119 -342 ct 1138 -342 1154 -339 1169 -334 ct 
1184 -329 1196 -322 1207 -313 ct 1218 -304 1226 -293 1233 -281 ct 1240 -269 1244 -256 1247 -242 ct 
1190 -237 l  1187 -256 1179 -271 1168 -282 ct 1156 -293 1139 -298 1117 -298 ct 
1101 -298 1088 -296 1077 -290 ct 1067 -285 1058 -277 1052 -266 ct 1045 -256 1040 -242 1037 -226 ct 
1035 -210 1033 -191 1033 -170 ct p ef
1256 126 m  1256 86 l  1626 86 l  1626 126 l  1256 126 l  p ef
1863 -396 m  1838 -396 1816 -391 1797 -383 ct 1778 -375 1762 -363 1749 -348 ct 
1736 -332 1726 -314 1719 -293 ct 1713 -271 1709 -247 1709 -221 ct 1709 -195 1713 -171 1720 -149 ct 
1727 -127 1737 -108 1751 -92 ct 1764 -77 1780 -64 1800 -56 ct 1819 -47 1841 -43 1865 -43 ct 
1882 -43 1897 -45 1911 -49 ct 1925 -54 1938 -60 1949 -68 ct 1960 -76 1971 -86 1979 -97 ct 
1988 -108 1996 -120 2003 -134 ct 2051 -109 l  2044 -93 2034 -78 2022 -64 ct 
2011 -50 1997 -38 1981 -27 ct 1966 -17 1948 -9 1928 -3 ct 1909 3 1887 6 1862 6 ct 
1827 6 1796 0 1769 -11 ct 1743 -22 1721 -38 1703 -58 ct 1685 -78 1671 -102 1663 -130 ct 
1654 -158 1649 -188 1649 -221 ct 1649 -255 1654 -286 1663 -313 ct 1673 -341 1687 -364 1705 -384 ct 
1723 -403 1745 -418 1771 -428 ct 1798 -439 1828 -444 1862 -444 ct 1908 -444 1947 -435 1979 -417 ct 
2010 -398 2033 -371 2047 -336 ct 1991 -317 l  1987 -327 1982 -337 1975 -347 ct 
1967 -356 1959 -364 1948 -372 ct 1938 -379 1925 -385 1911 -389 ct 1897 -393 1881 -396 1863 -396 ct 
p ef
pom
0.207 0.398 0.644 c 17971 15491 m  18750 15491 19346 15924 19346 16491 ct 
19346 17057 18750 17490 17971 17490 ct 17193 17490 16597 17057 16597 16491 ct 
16597 15924 17193 15491 17971 15491 ct pc
16597 15491 m  16597 15491 l  pc
19347 17491 m  19347 17491 l  pc
pum
16689 16712 t
0.003 0.003 0.003 c 428 -223 m  428 -187 423 -155 412 -127 ct 401 -99 386 -76 367 -57 ct 
348 -38 325 -24 299 -14 ct 273 -5 245 0 215 0 ct 52 0 l  52 -437 l  197 -437 l 
230 -437 261 -433 290 -425 ct 318 -417 343 -404 363 -386 ct 384 -369 400 -346 411 -319 ct 
422 -293 428 -261 428 -223 ct p
369 -223 m  369 -253 364 -278 356 -299 ct 347 -320 336 -337 320 -351 ct 305 -364 287 -374 265 -381 ct 
244 -387 221 -390 195 -390 ct 111 -390 l  111 -47 l  209 -47 l  232 -47 253 -51 272 -59 ct 
292 -66 309 -77 323 -92 ct 337 -107 349 -125 357 -147 ct 365 -169 369 -194 369 -223 ct 
p ef
783 -168 m  783 -110 771 -66 745 -37 ct 719 -8 681 6 632 6 ct 609 6 588 2 570 -5 ct 
551 -12 536 -22 523 -37 ct 510 -51 500 -69 494 -91 ct 487 -113 484 -139 484 -168 ct 
484 -284 534 -342 634 -342 ct 660 -342 683 -339 701 -331 ct 720 -324 736 -313 748 -299 ct 
760 -284 769 -266 775 -245 ct 781 -223 783 -197 783 -168 ct p
725 -168 m  725 -195 723 -216 719 -233 ct 715 -250 709 -264 701 -274 ct 693 -284 684 -291 673 -295 ct 
662 -299 649 -301 635 -301 ct 621 -301 608 -299 596 -295 ct 585 -290 575 -283 567 -273 ct 
559 -263 553 -249 549 -232 ct 544 -215 542 -194 542 -168 ct 542 -142 545 -121 549 -104 ct 
554 -87 560 -73 568 -63 ct 576 -53 585 -46 596 -41 ct 607 -37 619 -35 632 -35 ct 
646 -35 659 -37 670 -41 ct 682 -45 692 -52 700 -63 ct 708 -73 714 -86 718 -104 ct 
723 -121 725 -142 725 -168 ct p ef
1065 0 m  1065 -213 l  1065 -229 1064 -243 1061 -254 ct 1059 -265 1055 -274 1050 -280 ct 
1044 -287 1037 -292 1028 -295 ct 1020 -297 1009 -299 996 -299 ct 982 -299 970 -297 960 -292 ct 
949 -287 940 -281 933 -272 ct 925 -263 919 -252 915 -239 ct 911 -226 909 -211 909 -195 ct 
909 0 l  853 0 l  853 -265 l  853 -272 853 -279 853 -287 ct 853 -295 853 -302 852 -309 ct 
852 -316 852 -322 852 -327 ct 852 -332 851 -335 851 -335 ct 904 -335 l  904 -334 904 -331 905 -326 ct 
905 -322 905 -317 905 -311 ct 906 -305 906 -299 906 -293 ct 906 -287 906 -282 906 -278 ct 
907 -278 l  913 -288 919 -297 925 -305 ct 931 -313 939 -319 947 -325 ct 956 -330 965 -335 976 -338 ct 
987 -341 1000 -342 1015 -342 ct 1033 -342 1049 -340 1063 -335 ct 1076 -331 1087 -324 1096 -314 ct 
1104 -305 1111 -292 1115 -277 ct 1119 -262 1121 -244 1121 -224 ct 1121 0 l  1065 0 l 
p ef
1246 -156 m  1246 -139 1247 -122 1251 -108 ct 1255 -93 1260 -80 1268 -70 ct 
1275 -59 1285 -51 1297 -45 ct 1309 -39 1323 -36 1339 -36 ct 1363 -36 1383 -41 1397 -50 ct 
1412 -60 1422 -72 1427 -87 ct 1476 -73 l  1472 -64 1468 -55 1461 -45 ct 1455 -36 1447 -27 1436 -20 ct 
1425 -12 1412 -6 1396 -1 ct 1381 4 1362 6 1339 6 ct 1290 6 1252 -9 1226 -38 ct 
1200 -68 1187 -112 1187 -170 ct 1187 -202 1191 -228 1199 -250 ct 1207 -272 1217 -290 1231 -303 ct 
1245 -317 1261 -327 1279 -333 ct 1297 -339 1316 -342 1337 -342 ct 1365 -342 1389 -338 1408 -329 ct 
1427 -320 1442 -307 1453 -291 ct 1465 -275 1473 -256 1478 -234 ct 1483 -212 1485 -189 1485 -164 ct 
1485 -156 l  1246 -156 l  p
1427 -199 m  1424 -234 1415 -260 1400 -277 ct 1385 -293 1364 -301 1336 -301 ct 
1327 -301 1317 -300 1307 -296 ct 1297 -293 1287 -288 1278 -280 ct 1270 -273 1262 -262 1256 -249 ct 
1250 -236 1247 -219 1246 -199 ct 1427 -199 l  p ef
1501 126 m  1501 86 l  1871 86 l  1871 126 l  1501 126 l  p ef
2225 0 m  2175 -128 l  1976 -128 l  1926 0 l  1864 0 l  2043 -438 l  2110 -438 l 
2285 0 l  2225 0 l  p
2101 -319 m  2098 -327 2095 -335 2092 -344 ct 2089 -352 2086 -360 2084 -367 ct 
2081 -374 2080 -380 2078 -384 ct 2076 -389 2076 -392 2075 -393 ct 2075 -392 2074 -389 2073 -384 ct 
2071 -379 2069 -373 2067 -366 ct 2064 -359 2062 -352 2059 -343 ct 2056 -335 2053 -326 2050 -318 ct 
1994 -174 l  2157 -174 l  2101 -319 l  p ef
2329 1 m  2329 -460 l  2385 -460 l  2385 1 l  2329 1 l  p ef
2469 1 m  2469 -460 l  2525 -460 l  2525 1 l  2469 1 l  p ef
pom
1 lw 4347 15785 m  4347 14594 6057 14730 6664 15153 ct ps
6875 15493 m  6756 15034 l  6504 15197 l  6875 15493 l  p ef
pum
5057 15475 t
26 0 m  26 -150 l  26 -154 26 -158 26 -162 ct 26 -167 25 -171 25 -175 ct 25 -179 25 -183 25 -186 ct 
25 -189 25 -193 25 -195 ct 55 -195 l  55 -193 56 -189 56 -186 ct 56 -182 56 -179 56 -175 ct 
56 -171 57 -168 57 -164 ct 57 -161 57 -158 57 -155 ct 57 -155 l  60 -163 62 -169 65 -175 ct 
67 -180 70 -185 74 -188 ct 77 -192 82 -195 86 -196 ct 91 -198 97 -199 104 -199 ct 
107 -199 109 -199 111 -198 ct 114 -198 116 -198 117 -197 ct 117 -167 l  115 -168 112 -168 109 -169 ct 
107 -169 103 -169 100 -169 ct 92 -169 86 -168 81 -164 ct 75 -161 71 -156 68 -150 ct 
65 -144 62 -137 61 -129 ct 59 -121 58 -112 58 -102 ct 58 0 l  26 0 l  p ef
173 -90 m  173 -80 174 -71 176 -62 ct 178 -53 181 -46 186 -40 ct 190 -34 196 -29 203 -26 ct 
210 -22 218 -20 227 -20 ct 242 -20 253 -23 261 -29 ct 270 -34 276 -42 279 -50 ct 
307 -42 l  305 -37 302 -31 299 -26 ct 295 -20 290 -15 284 -11 ct 278 -7 270 -3 261 0 ct 
252 3 240 4 227 4 ct 199 4 177 -5 161 -22 ct 146 -39 139 -65 139 -99 ct 139 -117 141 -133 146 -145 ct 
150 -158 156 -168 164 -176 ct 172 -184 182 -190 192 -194 ct 203 -197 214 -199 226 -199 ct 
243 -199 256 -196 267 -191 ct 278 -186 287 -178 294 -169 ct 301 -160 305 -148 308 -136 ct 
311 -123 312 -109 312 -94 ct 312 -90 l  173 -90 l  p
279 -115 m  277 -136 272 -151 263 -161 ct 254 -170 242 -175 226 -175 ct 220 -175 215 -174 209 -172 ct 
203 -171 197 -167 192 -163 ct 187 -158 183 -152 179 -145 ct 176 -137 174 -127 173 -115 ct 
279 -115 l  p ef
413 4 m  389 4 370 -4 359 -21 ct 347 -38 342 -63 342 -97 ct 342 -131 347 -156 359 -173 ct 
371 -190 389 -199 413 -199 ct 422 -199 429 -198 435 -197 ct 441 -195 447 -193 451 -190 ct 
456 -188 461 -184 464 -180 ct 468 -176 471 -171 474 -165 ct 475 -165 l  475 -168 475 -171 475 -175 ct 
475 -179 475 -182 476 -186 ct 476 -189 476 -192 476 -194 ct 476 -196 477 -198 477 -198 ct 
508 -198 l  508 -196 508 -190 507 -181 ct 507 -173 507 -160 507 -144 ct 507 77 l 
474 77 l  474 -2 l  474 -5 474 -9 474 -12 ct 474 -15 475 -18 475 -22 ct 475 -25 475 -28 475 -32 ct 
475 -32 l  472 -26 468 -20 464 -16 ct 461 -11 456 -8 451 -5 ct 446 -2 441 1 434 2 ct 
428 3 421 4 413 4 ct p
474 -100 m  474 -114 473 -126 471 -136 ct 468 -145 465 -153 460 -159 ct 456 -165 450 -169 444 -171 ct 
437 -174 430 -175 422 -175 ct 414 -175 407 -173 401 -170 ct 395 -167 390 -163 386 -156 ct 
383 -150 380 -142 378 -132 ct 377 -122 376 -111 376 -98 ct 376 -85 377 -73 378 -64 ct 
380 -54 382 -46 386 -40 ct 390 -33 395 -29 400 -26 ct 406 -23 413 -21 422 -21 ct 
429 -21 436 -22 442 -24 ct 449 -27 454 -31 459 -37 ct 464 -42 467 -50 470 -61 ct 
473 -71 474 -84 474 -100 ct p ef
547 -154 m  547 -181 l  727 -181 l  727 -154 l  547 -154 l  p
547 -62 m  547 -89 l  727 -89 l  727 -62 l  547 -62 l  p ef
804 -228 m  804 -222 804 -216 803 -211 ct 803 -206 802 -201 801 -196 ct 800 -192 798 -188 796 -184 ct 
795 -180 793 -176 790 -172 ct 768 -172 l  773 -180 778 -188 781 -196 ct 783 -204 785 -211 785 -219 ct 
769 -219 l  769 -255 l  804 -255 l  804 -228 l  p ef
854 0 m  854 -28 l  919 -28 l  919 -223 l  862 -182 l  862 -213 l  922 -255 l 
952 -255 l  952 -28 l  1014 -28 l  1014 0 l  854 0 l  p ef
1088 -228 m  1088 -222 1088 -216 1087 -211 ct 1087 -206 1086 -201 1085 -196 ct 
1084 -192 1082 -188 1080 -184 ct 1079 -180 1077 -176 1074 -172 ct 1052 -172 l 
1057 -180 1062 -188 1065 -196 ct 1067 -204 1069 -211 1069 -219 ct 1053 -219 l 
1053 -255 l  1088 -255 l  1088 -228 l  p ef
pom
2000 16491 m  1249 16491 1373 15741 1905 15303 ct 2437 14865 2955 14817 3235 15099 ct 
ps
3374 15492 m  3355 15018 l  3075 15124 l  3374 15492 l  p ef
7848 15786 m  7848 14594 9555 14731 10162 15153 ct ps
10373 15492 m  10253 15033 l  10002 15197 l  10373 15492 l  p ef
pum
8557 15476 t
26 0 m  26 -150 l  26 -154 26 -158 26 -162 ct 26 -167 25 -171 25 -175 ct 25 -179 25 -183 25 -186 ct 
25 -189 25 -193 25 -195 ct 55 -195 l  55 -193 56 -189 56 -186 ct 56 -182 56 -179 56 -175 ct 
56 -171 57 -168 57 -164 ct 57 -161 57 -158 57 -155 ct 57 -155 l  60 -163 62 -169 65 -175 ct 
67 -180 70 -185 74 -188 ct 77 -192 82 -195 86 -196 ct 91 -198 97 -199 104 -199 ct 
107 -199 109 -199 111 -198 ct 114 -198 116 -198 117 -197 ct 117 -167 l  115 -168 112 -168 109 -169 ct 
107 -169 103 -169 100 -169 ct 92 -169 86 -168 81 -164 ct 75 -161 71 -156 68 -150 ct 
65 -144 62 -137 61 -129 ct 59 -121 58 -112 58 -102 ct 58 0 l  26 0 l  p ef
173 -90 m  173 -80 174 -71 176 -62 ct 178 -53 181 -46 186 -40 ct 190 -34 196 -29 203 -26 ct 
210 -22 218 -20 227 -20 ct 242 -20 253 -23 261 -29 ct 270 -34 276 -42 279 -50 ct 
307 -42 l  305 -37 302 -31 299 -26 ct 295 -20 290 -15 284 -11 ct 278 -7 270 -3 261 0 ct 
252 3 240 4 227 4 ct 199 4 177 -5 161 -22 ct 146 -39 139 -65 139 -99 ct 139 -117 141 -133 146 -145 ct 
150 -158 156 -168 164 -176 ct 172 -184 182 -190 192 -194 ct 203 -197 214 -199 226 -199 ct 
243 -199 256 -196 267 -191 ct 278 -186 287 -178 294 -169 ct 301 -160 305 -148 308 -136 ct 
311 -123 312 -109 312 -94 ct 312 -90 l  173 -90 l  p
279 -115 m  277 -136 272 -151 263 -161 ct 254 -170 242 -175 226 -175 ct 220 -175 215 -174 209 -172 ct 
203 -171 197 -167 192 -163 ct 187 -158 183 -152 179 -145 ct 176 -137 174 -127 173 -115 ct 
279 -115 l  p ef
413 4 m  389 4 370 -4 359 -21 ct 347 -38 342 -63 342 -97 ct 342 -131 347 -156 359 -173 ct 
371 -190 389 -199 413 -199 ct 422 -199 429 -198 435 -197 ct 441 -195 447 -193 451 -190 ct 
456 -188 461 -184 464 -180 ct 468 -176 471 -171 474 -165 ct 475 -165 l  475 -168 475 -171 475 -175 ct 
475 -179 475 -182 476 -186 ct 476 -189 476 -192 476 -194 ct 476 -196 477 -198 477 -198 ct 
508 -198 l  508 -196 508 -190 507 -181 ct 507 -173 507 -160 507 -144 ct 507 77 l 
474 77 l  474 -2 l  474 -5 474 -9 474 -12 ct 474 -15 475 -18 475 -22 ct 475 -25 475 -28 475 -32 ct 
475 -32 l  472 -26 468 -20 464 -16 ct 461 -11 456 -8 451 -5 ct 446 -2 441 1 434 2 ct 
428 3 421 4 413 4 ct p
474 -100 m  474 -114 473 -126 471 -136 ct 468 -145 465 -153 460 -159 ct 456 -165 450 -169 444 -171 ct 
437 -174 430 -175 422 -175 ct 414 -175 407 -173 401 -170 ct 395 -167 390 -163 386 -156 ct 
383 -150 380 -142 378 -132 ct 377 -122 376 -111 376 -98 ct 376 -85 377 -73 378 -64 ct 
380 -54 382 -46 386 -40 ct 390 -33 395 -29 400 -26 ct 406 -23 413 -21 422 -21 ct 
429 -21 436 -22 442 -24 ct 449 -27 454 -31 459 -37 ct 464 -42 467 -50 470 -61 ct 
473 -71 474 -84 474 -100 ct p ef
547 -154 m  547 -181 l  727 -181 l  727 -154 l  547 -154 l  p
547 -62 m  547 -89 l  727 -89 l  727 -62 l  547 -62 l  p ef
804 -228 m  804 -222 804 -216 803 -211 ct 803 -206 802 -201 801 -196 ct 800 -192 798 -188 796 -184 ct 
795 -180 793 -176 790 -172 ct 768 -172 l  773 -180 778 -188 781 -196 ct 783 -204 785 -211 785 -219 ct 
769 -219 l  769 -255 l  804 -255 l  804 -228 l  p ef
1017 -127 m  1017 -103 1015 -82 1010 -65 ct 1006 -49 999 -35 991 -25 ct 983 -15 974 -7 963 -3 ct 
952 2 941 4 928 4 ct 916 4 904 2 894 -3 ct 883 -7 874 -15 866 -25 ct 858 -35 852 -48 847 -65 ct 
843 -82 840 -102 840 -127 ct 840 -153 843 -174 847 -191 ct 852 -207 858 -221 866 -231 ct 
874 -241 883 -248 894 -252 ct 905 -256 917 -258 930 -258 ct 942 -258 953 -256 964 -252 ct 
974 -248 984 -241 992 -231 ct 1000 -221 1006 -207 1010 -191 ct 1015 -174 1017 -153 1017 -127 ct 
p
984 -127 m  984 -147 983 -164 981 -178 ct 978 -191 975 -202 970 -210 ct 965 -218 960 -223 953 -227 ct 
946 -230 938 -232 930 -232 ct 920 -232 912 -230 905 -227 ct 898 -223 892 -218 888 -209 ct 
883 -201 879 -191 877 -177 ct 875 -164 873 -147 873 -127 ct 873 -107 875 -91 877 -78 ct 
880 -64 883 -54 888 -45 ct 893 -37 898 -31 905 -28 ct 912 -24 920 -23 929 -23 ct 
937 -23 945 -24 952 -28 ct 959 -31 965 -37 969 -45 ct 974 -54 978 -64 980 -78 ct 
983 -91 984 -107 984 -127 ct p ef
1088 -228 m  1088 -222 1088 -216 1087 -211 ct 1087 -206 1086 -201 1085 -196 ct 
1084 -192 1082 -188 1080 -184 ct 1079 -180 1077 -176 1074 -172 ct 1052 -172 l 
1057 -180 1062 -188 1065 -196 ct 1067 -204 1069 -211 1069 -219 ct 1053 -219 l 
1053 -255 l  1088 -255 l  1088 -228 l  p ef
pom
11346 15785 m  11346 14594 13054 14731 13662 15153 ct ps
13873 15492 m  13753 15033 l  13502 15197 l  13873 15492 l  p ef
pum
12055 15476 t
26 0 m  26 -150 l  26 -154 26 -158 26 -162 ct 26 -167 25 -171 25 -175 ct 25 -179 25 -183 25 -186 ct 
25 -189 25 -193 25 -195 ct 55 -195 l  55 -193 56 -189 56 -186 ct 56 -182 56 -179 56 -175 ct 
56 -171 57 -168 57 -164 ct 57 -161 57 -158 57 -155 ct 57 -155 l  60 -163 62 -169 65 -175 ct 
67 -180 70 -185 74 -188 ct 77 -192 82 -195 86 -196 ct 91 -198 97 -199 104 -199 ct 
107 -199 109 -199 111 -198 ct 114 -198 116 -198 117 -197 ct 117 -167 l  115 -168 112 -168 109 -169 ct 
107 -169 103 -169 100 -169 ct 92 -169 86 -168 81 -164 ct 75 -161 71 -156 68 -150 ct 
65 -144 62 -137 61 -129 ct 59 -121 58 -112 58 -102 ct 58 0 l  26 0 l  p ef
173 -90 m  173 -80 174 -71 176 -62 ct 178 -53 181 -46 186 -40 ct 190 -34 196 -29 203 -26 ct 
210 -22 218 -20 227 -20 ct 242 -20 253 -23 261 -29 ct 270 -34 276 -42 279 -50 ct 
307 -42 l  305 -37 302 -31 299 -26 ct 295 -20 290 -15 284 -11 ct 278 -7 270 -3 261 0 ct 
252 3 240 4 227 4 ct 199 4 177 -5 161 -22 ct 146 -39 139 -65 139 -99 ct 139 -117 141 -133 146 -145 ct 
150 -158 156 -168 164 -176 ct 172 -184 182 -190 192 -194 ct 203 -197 214 -199 226 -199 ct 
243 -199 256 -196 267 -191 ct 278 -186 287 -178 294 -169 ct 301 -160 305 -148 308 -136 ct 
311 -123 312 -109 312 -94 ct 312 -90 l  173 -90 l  p
279 -115 m  277 -136 272 -151 263 -161 ct 254 -170 242 -175 226 -175 ct 220 -175 215 -174 209 -172 ct 
203 -171 197 -167 192 -163 ct 187 -158 183 -152 179 -145 ct 176 -137 174 -127 173 -115 ct 
279 -115 l  p ef
413 4 m  389 4 370 -4 359 -21 ct 347 -38 342 -63 342 -97 ct 342 -131 347 -156 359 -173 ct 
371 -190 389 -199 413 -199 ct 422 -199 429 -198 435 -197 ct 441 -195 447 -193 451 -190 ct 
456 -188 461 -184 464 -180 ct 468 -176 471 -171 474 -165 ct 475 -165 l  475 -168 475 -171 475 -175 ct 
475 -179 475 -182 476 -186 ct 476 -189 476 -192 476 -194 ct 476 -196 477 -198 477 -198 ct 
508 -198 l  508 -196 508 -190 507 -181 ct 507 -173 507 -160 507 -144 ct 507 77 l 
474 77 l  474 -2 l  474 -5 474 -9 474 -12 ct 474 -15 475 -18 475 -22 ct 475 -25 475 -28 475 -32 ct 
475 -32 l  472 -26 468 -20 464 -16 ct 461 -11 456 -8 451 -5 ct 446 -2 441 1 434 2 ct 
428 3 421 4 413 4 ct p
474 -100 m  474 -114 473 -126 471 -136 ct 468 -145 465 -153 460 -159 ct 456 -165 450 -169 444 -171 ct 
437 -174 430 -175 422 -175 ct 414 -175 407 -173 401 -170 ct 395 -167 390 -163 386 -156 ct 
383 -150 380 -142 378 -132 ct 377 -122 376 -111 376 -98 ct 376 -85 377 -73 378 -64 ct 
380 -54 382 -46 386 -40 ct 390 -33 395 -29 400 -26 ct 406 -23 413 -21 422 -21 ct 
429 -21 436 -22 442 -24 ct 449 -27 454 -31 459 -37 ct 464 -42 467 -50 470 -61 ct 
473 -71 474 -84 474 -100 ct p ef
547 -154 m  547 -181 l  727 -181 l  727 -154 l  547 -154 l  p
547 -62 m  547 -89 l  727 -89 l  727 -62 l  547 -62 l  p ef
804 -228 m  804 -222 804 -216 803 -211 ct 803 -206 802 -201 801 -196 ct 800 -192 798 -188 796 -184 ct 
795 -180 793 -176 790 -172 ct 768 -172 l  773 -180 778 -188 781 -196 ct 783 -204 785 -211 785 -219 ct 
769 -219 l  769 -255 l  804 -255 l  804 -228 l  p ef
854 0 m  854 -28 l  919 -28 l  919 -223 l  862 -182 l  862 -213 l  922 -255 l 
952 -255 l  952 -28 l  1014 -28 l  1014 0 l  854 0 l  p ef
1088 -228 m  1088 -222 1088 -216 1087 -211 ct 1087 -206 1086 -201 1085 -196 ct 
1084 -192 1082 -188 1080 -184 ct 1079 -180 1077 -176 1074 -172 ct 1052 -172 l 
1057 -180 1062 -188 1065 -196 ct 1067 -204 1069 -211 1069 -219 ct 1053 -219 l 
1053 -255 l  1088 -255 l  1088 -228 l  p ef
pom
13873 17491 m  13873 18243 12935 18118 12403 17681 ct 11871 17243 11833 16842 12096 16612 ct 
ps
12498 16491 m  12024 16486 l  12116 16772 l  12498 16491 l  p ef
14846 15785 m  14846 14594 17025 14729 17745 15173 ct ps
17972 15492 m  17824 15041 l  17583 15220 l  17972 15492 l  p ef
pum
15725 15368 t
26 0 m  26 -150 l  26 -154 26 -158 26 -162 ct 26 -167 25 -171 25 -175 ct 25 -179 25 -183 25 -186 ct 
25 -189 25 -193 25 -195 ct 55 -195 l  55 -193 56 -189 56 -186 ct 56 -182 56 -179 56 -175 ct 
56 -171 57 -168 57 -164 ct 57 -161 57 -158 57 -155 ct 57 -155 l  60 -163 62 -169 65 -175 ct 
67 -180 70 -185 74 -188 ct 77 -192 82 -195 86 -196 ct 91 -198 97 -199 104 -199 ct 
107 -199 109 -199 111 -198 ct 114 -198 116 -198 117 -197 ct 117 -167 l  115 -168 112 -168 109 -169 ct 
107 -169 103 -169 100 -169 ct 92 -169 86 -168 81 -164 ct 75 -161 71 -156 68 -150 ct 
65 -144 62 -137 61 -129 ct 59 -121 58 -112 58 -102 ct 58 0 l  26 0 l  p ef
173 -90 m  173 -80 174 -71 176 -62 ct 178 -53 181 -46 186 -40 ct 190 -34 196 -29 203 -26 ct 
210 -22 218 -20 227 -20 ct 242 -20 253 -23 261 -29 ct 270 -34 276 -42 279 -50 ct 
307 -42 l  305 -37 302 -31 299 -26 ct 295 -20 290 -15 284 -11 ct 278 -7 270 -3 261 0 ct 
252 3 240 4 227 4 ct 199 4 177 -5 161 -22 ct 146 -39 139 -65 139 -99 ct 139 -117 141 -133 146 -145 ct 
150 -158 156 -168 164 -176 ct 172 -184 182 -190 192 -194 ct 203 -197 214 -199 226 -199 ct 
243 -199 256 -196 267 -191 ct 278 -186 287 -178 294 -169 ct 301 -160 305 -148 308 -136 ct 
311 -123 312 -109 312 -94 ct 312 -90 l  173 -90 l  p
279 -115 m  277 -136 272 -151 263 -161 ct 254 -170 242 -175 226 -175 ct 220 -175 215 -174 209 -172 ct 
203 -171 197 -167 192 -163 ct 187 -158 183 -152 179 -145 ct 176 -137 174 -127 173 -115 ct 
279 -115 l  p ef
425 77 m  414 77 404 76 395 74 ct 387 71 379 68 373 64 ct 367 59 362 54 358 49 ct 
354 43 351 36 350 29 ct 382 24 l  385 33 389 40 397 45 ct 404 50 414 52 426 52 ct 
433 52 440 51 446 49 ct 452 47 457 44 461 39 ct 466 35 469 29 471 22 ct 473 15 475 6 475 -4 ct 
475 -36 l  474 -36 l  472 -31 469 -26 465 -22 ct 462 -17 457 -13 452 -10 ct 
447 -6 441 -3 434 -1 ct 428 1 420 2 411 2 ct 399 2 388 0 379 -4 ct 371 -8 363 -15 358 -23 ct 
352 -31 348 -42 345 -54 ct 343 -66 342 -81 342 -97 ct 342 -113 343 -127 345 -139 ct 
348 -152 352 -162 358 -171 ct 364 -180 372 -187 381 -191 ct 390 -196 402 -198 415 -198 ct 
429 -198 441 -195 451 -189 ct 461 -182 469 -173 475 -162 ct 475 -162 l  475 -165 475 -168 475 -172 ct 
475 -176 476 -179 476 -183 ct 476 -186 476 -189 476 -191 ct 477 -194 477 -195 477 -195 ct 
508 -195 l  508 -194 508 -192 508 -189 ct 507 -187 507 -184 507 -180 ct 507 -176 507 -172 507 -168 ct 
507 -164 507 -159 507 -154 ct 507 -5 l  507 22 500 43 487 56 ct 473 70 453 77 425 77 ct 
p
475 -97 m  475 -111 473 -123 470 -132 ct 467 -142 463 -150 458 -156 ct 454 -162 448 -167 442 -170 ct 
436 -173 429 -174 423 -174 ct 415 -174 407 -173 401 -170 ct 395 -167 391 -162 387 -156 ct 
383 -150 380 -142 378 -132 ct 376 -122 375 -111 375 -97 ct 375 -83 376 -71 378 -62 ct 
380 -52 383 -44 387 -38 ct 390 -33 395 -28 401 -26 ct 407 -23 414 -22 422 -22 ct 
429 -22 435 -23 441 -26 ct 448 -29 453 -33 458 -39 ct 463 -45 467 -53 470 -63 ct 
473 -72 475 -84 475 -97 ct p ef
523 73 m  523 50 l  739 50 l  739 73 l  523 73 l  p ef
807 4 m  787 4 772 -1 763 -12 ct 753 -22 748 -36 748 -54 ct 748 -67 750 -78 755 -86 ct 
760 -94 766 -101 774 -106 ct 782 -110 791 -113 801 -115 ct 811 -117 822 -118 832 -118 ct 
876 -118 l  876 -129 l  876 -137 875 -144 873 -150 ct 872 -156 869 -160 866 -164 ct 
862 -167 858 -170 853 -172 ct 847 -173 841 -174 834 -174 ct 828 -174 822 -174 817 -173 ct 
812 -172 808 -170 804 -168 ct 800 -165 797 -162 795 -158 ct 793 -154 791 -149 790 -143 ct 
756 -146 l  758 -154 760 -161 763 -167 ct 767 -174 771 -179 778 -184 ct 784 -189 792 -192 801 -195 ct 
810 -197 822 -199 835 -199 ct 859 -199 878 -193 890 -182 ct 903 -171 909 -154 909 -133 ct 
909 -49 l  909 -39 910 -32 913 -27 ct 915 -22 920 -20 927 -20 ct 929 -20 931 -20 933 -20 ct 
934 -20 936 -21 938 -21 ct 938 -1 l  934 0 930 1 926 1 ct 922 2 917 2 913 2 ct 
907 2 901 1 897 0 ct 892 -2 889 -4 886 -8 ct 883 -11 881 -15 880 -20 ct 878 -25 877 -30 877 -37 ct 
876 -37 l  873 -31 869 -25 865 -20 ct 860 -15 856 -11 850 -7 ct 844 -4 838 -1 831 1 ct 
824 3 816 4 807 4 ct p
814 -20 m  825 -20 834 -22 841 -26 ct 849 -30 856 -35 861 -40 ct 866 -46 870 -53 872 -60 ct 
875 -66 876 -73 876 -79 ct 876 -95 l  840 -95 l  832 -95 825 -95 818 -94 ct 
811 -93 804 -91 799 -88 ct 793 -85 789 -80 786 -75 ct 783 -70 781 -62 781 -54 ct 
781 -43 784 -35 790 -29 ct 795 -23 804 -20 814 -20 ct p ef
954 -154 m  954 -181 l  1134 -181 l  1134 -154 l  954 -154 l  p
954 -62 m  954 -89 l  1134 -89 l  1134 -62 l  954 -62 l  p ef
1169 -154 m  1169 -181 l  1349 -181 l  1349 -154 l  1169 -154 l  p
1169 -62 m  1169 -89 l  1349 -89 l  1349 -62 l  1169 -62 l  p ef
pom
pum
15941 15779 t
26 0 m  26 -150 l  26 -154 26 -158 26 -162 ct 26 -167 25 -171 25 -175 ct 25 -179 25 -183 25 -186 ct 
25 -189 25 -193 25 -195 ct 55 -195 l  55 -193 56 -189 56 -186 ct 56 -182 56 -179 56 -175 ct 
56 -171 57 -168 57 -164 ct 57 -161 57 -158 57 -155 ct 57 -155 l  60 -163 62 -169 65 -175 ct 
67 -180 70 -185 74 -188 ct 77 -192 82 -195 86 -196 ct 91 -198 97 -199 104 -199 ct 
107 -199 109 -199 111 -198 ct 114 -198 116 -198 117 -197 ct 117 -167 l  115 -168 112 -168 109 -169 ct 
107 -169 103 -169 100 -169 ct 92 -169 86 -168 81 -164 ct 75 -161 71 -156 68 -150 ct 
65 -144 62 -137 61 -129 ct 59 -121 58 -112 58 -102 ct 58 0 l  26 0 l  p ef
173 -90 m  173 -80 174 -71 176 -62 ct 178 -53 181 -46 186 -40 ct 190 -34 196 -29 203 -26 ct 
210 -22 218 -20 227 -20 ct 242 -20 253 -23 261 -29 ct 270 -34 276 -42 279 -50 ct 
307 -42 l  305 -37 302 -31 299 -26 ct 295 -20 290 -15 284 -11 ct 278 -7 270 -3 261 0 ct 
252 3 240 4 227 4 ct 199 4 177 -5 161 -22 ct 146 -39 139 -65 139 -99 ct 139 -117 141 -133 146 -145 ct 
150 -158 156 -168 164 -176 ct 172 -184 182 -190 192 -194 ct 203 -197 214 -199 226 -199 ct 
243 -199 256 -196 267 -191 ct 278 -186 287 -178 294 -169 ct 301 -160 305 -148 308 -136 ct 
311 -123 312 -109 312 -94 ct 312 -90 l  173 -90 l  p
279 -115 m  277 -136 272 -151 263 -161 ct 254 -170 242 -175 226 -175 ct 220 -175 215 -174 209 -172 ct 
203 -171 197 -167 192 -163 ct 187 -158 183 -152 179 -145 ct 176 -137 174 -127 173 -115 ct 
279 -115 l  p ef
425 77 m  414 77 404 76 395 74 ct 387 71 379 68 373 64 ct 367 59 362 54 358 49 ct 
354 43 351 36 350 29 ct 382 24 l  385 33 389 40 397 45 ct 404 50 414 52 426 52 ct 
433 52 440 51 446 49 ct 452 47 457 44 461 39 ct 466 35 469 29 471 22 ct 473 15 475 6 475 -4 ct 
475 -36 l  474 -36 l  472 -31 469 -26 465 -22 ct 462 -17 457 -13 452 -10 ct 
447 -6 441 -3 434 -1 ct 428 1 420 2 411 2 ct 399 2 388 0 379 -4 ct 371 -8 363 -15 358 -23 ct 
352 -31 348 -42 345 -54 ct 343 -66 342 -81 342 -97 ct 342 -113 343 -127 345 -139 ct 
348 -152 352 -162 358 -171 ct 364 -180 372 -187 381 -191 ct 390 -196 402 -198 415 -198 ct 
429 -198 441 -195 451 -189 ct 461 -182 469 -173 475 -162 ct 475 -162 l  475 -165 475 -168 475 -172 ct 
475 -176 476 -179 476 -183 ct 476 -186 476 -189 476 -191 ct 477 -194 477 -195 477 -195 ct 
508 -195 l  508 -194 508 -192 508 -189 ct 507 -187 507 -184 507 -180 ct 507 -176 507 -172 507 -168 ct 
507 -164 507 -159 507 -154 ct 507 -5 l  507 22 500 43 487 56 ct 473 70 453 77 425 77 ct 
p
475 -97 m  475 -111 473 -123 470 -132 ct 467 -142 463 -150 458 -156 ct 454 -162 448 -167 442 -170 ct 
436 -173 429 -174 423 -174 ct 415 -174 407 -173 401 -170 ct 395 -167 391 -162 387 -156 ct 
383 -150 380 -142 378 -132 ct 376 -122 375 -111 375 -97 ct 375 -83 376 -71 378 -62 ct 
380 -52 383 -44 387 -38 ct 390 -33 395 -28 401 -26 ct 407 -23 414 -22 422 -22 ct 
429 -22 435 -23 441 -26 ct 448 -29 453 -33 458 -39 ct 463 -45 467 -53 470 -63 ct 
473 -72 475 -84 475 -97 ct p ef
523 73 m  523 50 l  739 50 l  739 73 l  523 73 l  p ef
922 -98 m  922 -30 898 4 850 4 ct 836 4 823 1 813 -4 ct 804 -9 796 -18 789 -30 ct 
789 -30 l  789 -27 789 -24 789 -20 ct 789 -17 788 -14 788 -11 ct 788 -8 788 -5 788 -3 ct 
788 -1 787 0 787 0 ct 756 0 l  756 -1 756 -3 756 -5 ct 756 -8 756 -11 757 -15 ct 
757 -18 757 -22 757 -27 ct 757 -31 757 -36 757 -40 ct 757 -268 l  789 -268 l 
789 -192 l  789 -188 789 -185 789 -181 ct 789 -178 789 -175 789 -172 ct 789 -169 789 -167 789 -164 ct 
789 -164 l  795 -176 803 -185 813 -191 ct 823 -196 836 -199 850 -199 ct 875 -199 893 -191 905 -174 ct 
916 -157 922 -132 922 -98 ct p
888 -97 m  888 -111 887 -122 886 -132 ct 884 -142 881 -150 877 -156 ct 874 -162 869 -167 863 -170 ct 
857 -172 850 -174 842 -174 ct 833 -174 826 -173 819 -170 ct 813 -167 807 -163 803 -156 ct 
799 -150 795 -142 793 -132 ct 791 -122 789 -110 789 -95 ct 789 -81 791 -70 793 -60 ct 
795 -50 799 -43 803 -37 ct 807 -31 813 -27 819 -24 ct 826 -21 833 -20 842 -20 ct 
850 -20 856 -21 862 -24 ct 868 -27 873 -31 877 -38 ct 881 -44 883 -52 885 -62 ct 
887 -71 888 -83 888 -97 ct p ef
pom
17972 17491 m  17972 18879 4061 19005 2537 17481 ct ps
2402 17198 m  2471 17667 l  2739 17532 l  2402 17198 l  p ef
pum
9632 18349 t
26 0 m  26 -150 l  26 -154 26 -158 26 -162 ct 26 -167 25 -171 25 -175 ct 25 -179 25 -183 25 -186 ct 
25 -189 25 -193 25 -195 ct 55 -195 l  55 -193 56 -189 56 -186 ct 56 -182 56 -179 56 -175 ct 
56 -171 57 -168 57 -164 ct 57 -161 57 -158 57 -155 ct 57 -155 l  60 -163 62 -169 65 -175 ct 
67 -180 70 -185 74 -188 ct 77 -192 82 -195 86 -196 ct 91 -198 97 -199 104 -199 ct 
107 -199 109 -199 111 -198 ct 114 -198 116 -198 117 -197 ct 117 -167 l  115 -168 112 -168 109 -169 ct 
107 -169 103 -169 100 -169 ct 92 -169 86 -168 81 -164 ct 75 -161 71 -156 68 -150 ct 
65 -144 62 -137 61 -129 ct 59 -121 58 -112 58 -102 ct 58 0 l  26 0 l  p ef
173 -90 m  173 -80 174 -71 176 -62 ct 178 -53 181 -46 186 -40 ct 190 -34 196 -29 203 -26 ct 
210 -22 218 -20 227 -20 ct 242 -20 253 -23 261 -29 ct 270 -34 276 -42 279 -50 ct 
307 -42 l  305 -37 302 -31 299 -26 ct 295 -20 290 -15 284 -11 ct 278 -7 270 -3 261 0 ct 
252 3 240 4 227 4 ct 199 4 177 -5 161 -22 ct 146 -39 139 -65 139 -99 ct 139 -117 141 -133 146 -145 ct 
150 -158 156 -168 164 -176 ct 172 -184 182 -190 192 -194 ct 203 -197 214 -199 226 -199 ct 
243 -199 256 -196 267 -191 ct 278 -186 287 -178 294 -169 ct 301 -160 305 -148 308 -136 ct 
311 -123 312 -109 312 -94 ct 312 -90 l  173 -90 l  p
279 -115 m  277 -136 272 -151 263 -161 ct 254 -170 242 -175 226 -175 ct 220 -175 215 -174 209 -172 ct 
203 -171 197 -167 192 -163 ct 187 -158 183 -152 179 -145 ct 176 -137 174 -127 173 -115 ct 
279 -115 l  p ef
413 4 m  389 4 370 -4 359 -21 ct 347 -38 342 -63 342 -97 ct 342 -131 347 -156 359 -173 ct 
371 -190 389 -199 413 -199 ct 422 -199 429 -198 435 -197 ct 441 -195 447 -193 451 -190 ct 
456 -188 461 -184 464 -180 ct 468 -176 471 -171 474 -165 ct 475 -165 l  475 -168 475 -171 475 -175 ct 
475 -179 475 -182 476 -186 ct 476 -189 476 -192 476 -194 ct 476 -196 477 -198 477 -198 ct 
508 -198 l  508 -196 508 -190 507 -181 ct 507 -173 507 -160 507 -144 ct 507 77 l 
474 77 l  474 -2 l  474 -5 474 -9 474 -12 ct 474 -15 475 -18 475 -22 ct 475 -25 475 -28 475 -32 ct 
475 -32 l  472 -26 468 -20 464 -16 ct 461 -11 456 -8 451 -5 ct 446 -2 441 1 434 2 ct 
428 3 421 4 413 4 ct p
474 -100 m  474 -114 473 -126 471 -136 ct 468 -145 465 -153 460 -159 ct 456 -165 450 -169 444 -171 ct 
437 -174 430 -175 422 -175 ct 414 -175 407 -173 401 -170 ct 395 -167 390 -163 386 -156 ct 
383 -150 380 -142 378 -132 ct 377 -122 376 -111 376 -98 ct 376 -85 377 -73 378 -64 ct 
380 -54 382 -46 386 -40 ct 390 -33 395 -29 400 -26 ct 406 -23 413 -21 422 -21 ct 
429 -21 436 -22 442 -24 ct 449 -27 454 -31 459 -37 ct 464 -42 467 -50 470 -61 ct 
473 -71 474 -84 474 -100 ct p ef
547 -154 m  547 -181 l  727 -181 l  727 -154 l  547 -154 l  p
547 -62 m  547 -89 l  727 -89 l  727 -62 l  547 -62 l  p ef
804 -228 m  804 -222 804 -216 803 -211 ct 803 -206 802 -201 801 -196 ct 800 -192 798 -188 796 -184 ct 
795 -180 793 -176 790 -172 ct 768 -172 l  773 -180 778 -188 781 -196 ct 783 -204 785 -211 785 -219 ct 
769 -219 l  769 -255 l  804 -255 l  804 -228 l  p ef
1017 -127 m  1017 -103 1015 -82 1010 -65 ct 1006 -49 999 -35 991 -25 ct 983 -15 974 -7 963 -3 ct 
952 2 941 4 928 4 ct 916 4 904 2 894 -3 ct 883 -7 874 -15 866 -25 ct 858 -35 852 -48 847 -65 ct 
843 -82 840 -102 840 -127 ct 840 -153 843 -174 847 -191 ct 852 -207 858 -221 866 -231 ct 
874 -241 883 -248 894 -252 ct 905 -256 917 -258 930 -258 ct 942 -258 953 -256 964 -252 ct 
974 -248 984 -241 992 -231 ct 1000 -221 1006 -207 1010 -191 ct 1015 -174 1017 -153 1017 -127 ct 
p
984 -127 m  984 -147 983 -164 981 -178 ct 978 -191 975 -202 970 -210 ct 965 -218 960 -223 953 -227 ct 
946 -230 938 -232 930 -232 ct 920 -232 912 -230 905 -227 ct 898 -223 892 -218 888 -209 ct 
883 -201 879 -191 877 -177 ct 875 -164 873 -147 873 -127 ct 873 -107 875 -91 877 -78 ct 
880 -64 883 -54 888 -45 ct 893 -37 898 -31 905 -28 ct 912 -24 920 -23 929 -23 ct 
937 -23 945 -24 952 -28 ct 959 -31 965 -37 969 -45 ct 974 -54 978 -64 980 -78 ct 
983 -91 984 -107 984 -127 ct p ef
1088 -228 m  1088 -222 1088 -216 1087 -211 ct 1087 -206 1086 -201 1085 -196 ct 
1084 -192 1082 -188 1080 -184 ct 1079 -180 1077 -176 1074 -172 ct 1052 -172 l 
1057 -180 1062 -188 1065 -196 ct 1067 -204 1069 -211 1069 -219 ct 1053 -219 l 
1053 -255 l  1088 -255 l  1088 -228 l  p ef
pom
6875 17492 m  6875 18244 5937 18119 5405 17682 ct 4873 17244 4835 16843 5098 16613 ct 
ps
5500 16492 m  5026 16487 l  5118 16773 l  5500 16492 l  p ef
10373 17491 m  10373 18243 9435 18118 8904 17681 ct 8372 17243 8334 16842 8597 16612 ct 
ps
8998 16491 m  8525 16486 l  8617 16772 l  8998 16491 l  p ef
16999 17198 m  16999 17941 16547 17818 16259 17456 ct 15971 17093 15919 16779 16185 16592 ct 
ps
16597 16491 m  16124 16461 l  16200 16751 l  16597 16491 l  p ef
0 3732 t 
pom
count op_count sub {pop} repeat countdictstack dict_count sub {end} repeat b4_inc_state restore
%%PageTrailer
%%Trailer
%%EOF
