%!PS-Adobe-3.0 EPSF-3.0 
%%BoundingBox: 0 0 541 268
%%Pages: 0
%%Creator: LibreOffice 5.1
%%Title: none
%%CreationDate: none
%%LanguageLevel: 2
%%EndComments
%%BeginProlog
%%BeginResource: procset SDRes-Prolog 1.0 0
/b4_inc_state save def
/dict_count countdictstack def
/op_count count 1 sub def
userdict begin
0 setgray 0 setlinecap 1 setlinewidth 0 setlinejoin 10 setmiterlimit[] 0 setdash newpath
/languagelevel where {pop languagelevel 1 ne {false setstrokeadjust false setoverprint} if} if
/bdef {bind def} bind def
/c {setrgbcolor} bdef
/l {neg lineto} bdef
/rl {neg rlineto} bdef
/lc {setlinecap} bdef
/lj {setlinejoin} bdef
/lw {setlinewidth} bdef
/ml {setmiterlimit} bdef
/ld {setdash} bdef
/m {neg moveto} bdef
/ct {6 2 roll neg 6 2 roll neg 6 2 roll neg curveto} bdef
/r {rotate} bdef
/t {neg translate} bdef
/s {scale} bdef
/sw {show} bdef
/gs {gsave} bdef
/gr {grestore} bdef
/f {findfont dup length dict begin
{1 index /FID ne {def} {pop pop} ifelse} forall /Encoding ISOLatin1Encoding def
currentdict end /NFont exch definefont pop /NFont findfont} bdef
/p {closepath} bdef
/sf {scalefont setfont} bdef
/ef {eofill}bdef
/pc {closepath stroke}bdef
/ps {stroke}bdef
/pum {matrix currentmatrix}bdef
/pom {setmatrix}bdef
/bs {/aString exch def /nXOfs exch def /nWidth exch def currentpoint nXOfs 0 rmoveto pum nWidth aString stringwidth pop div 1 scale aString show pom moveto} bdef
%%EndResource
%%EndProlog
%%BeginSetup
%%EndSetup
%%Page: 1 1
%%BeginPageSetup
%%EndPageSetup
pum
0.02832 0.02832 s 
0 -9460 t
/tm matrix currentmatrix def
tm setmatrix
-1245 -8788 t 
1 1 s 
0 lw 1 lj 0.207 0.398 0.644 c 10739 18246 m  3114 18246 l  3114 8790 l 
18364 8790 l  18364 18246 l  10739 18246 l  pc
0.699 0.699 0.699 c 10739 9410 m  3115 9410 l  3115 8789 l  18364 8789 l 
18364 9410 l  10739 9410 l  p ef
0.207 0.398 0.644 c 10739 9410 m  3114 9410 l  3114 8789 l  18364 8789 l 
18364 9410 l  10739 9410 l  pc
pum
9827 9271 t
0.003 0.003 0.003 c 132 103 m  117 103 104 101 92 98 ct 81 95 71 91 63 85 ct 55 79 48 73 43 65 ct 
38 57 34 48 32 38 ct 75 32 l  78 44 85 54 94 60 ct 104 67 117 70 133 70 ct 143 70 152 69 160 66 ct 
168 63 175 59 181 53 ct 186 47 191 39 194 29 ct 197 19 198 8 198 -6 ct 198 -48 l 
198 -48 l  195 -42 191 -35 186 -29 ct 181 -23 175 -18 168 -13 ct 162 -9 154 -5 145 -2 ct 
136 1 125 2 114 2 ct 97 2 83 -1 71 -6 ct 59 -12 50 -20 42 -31 ct 35 -42 29 -56 26 -73 ct 
22 -89 21 -108 21 -130 ct 21 -151 22 -170 26 -186 ct 29 -203 35 -217 43 -229 ct 
51 -241 61 -250 73 -256 ct 86 -262 101 -265 119 -265 ct 137 -265 153 -261 167 -252 ct 
180 -244 191 -232 198 -216 ct 199 -216 l  199 -220 199 -225 199 -230 ct 199 -235 200 -240 200 -244 ct 
200 -248 200 -252 201 -256 ct 201 -259 201 -260 202 -260 ct 243 -260 l  243 -259 243 -257 242 -253 ct 
242 -250 242 -245 242 -241 ct 242 -236 242 -230 242 -225 ct 241 -219 241 -213 241 -206 ct 
241 -7 l  241 30 232 57 215 75 ct 197 94 169 103 132 103 ct p
198 -130 m  198 -149 196 -164 192 -177 ct 188 -190 183 -201 177 -209 ct 170 -217 163 -223 155 -227 ct 
146 -231 138 -233 129 -233 ct 118 -233 109 -231 101 -227 ct 93 -223 86 -217 81 -209 ct 
76 -200 72 -190 69 -177 ct 67 -164 66 -148 66 -130 ct 66 -112 67 -96 69 -83 ct 
72 -70 76 -60 81 -52 ct 86 -44 92 -38 100 -35 ct 108 -32 118 -30 129 -30 ct 137 -30 146 -32 154 -36 ct 
162 -39 170 -45 176 -53 ct 183 -61 188 -72 192 -84 ct 196 -97 198 -112 198 -130 ct 
p ef
341 -132 m  341 -117 342 -103 345 -90 ct 347 -78 350 -67 356 -58 ct 361 -49 368 -42 376 -37 ct 
384 -32 395 -29 407 -29 ct 423 -29 436 -33 446 -41 ct 456 -50 463 -62 465 -79 ct 
509 -79 l  508 -68 504 -58 500 -47 ct 495 -37 488 -28 480 -21 ct 472 -13 462 -7 450 -2 ct 
438 3 424 5 408 5 ct 388 5 371 2 356 -5 ct 342 -12 330 -22 321 -34 ct 313 -46 306 -60 302 -77 ct 
298 -94 296 -111 296 -131 ct 296 -148 297 -164 300 -177 ct 303 -191 307 -202 313 -213 ct 
318 -223 324 -231 331 -238 ct 338 -245 346 -250 354 -254 ct 362 -258 371 -261 380 -263 ct 
389 -265 399 -266 408 -266 ct 423 -266 436 -264 447 -260 ct 458 -256 468 -250 477 -243 ct 
485 -236 492 -228 497 -219 ct 502 -209 505 -199 508 -188 ct 463 -185 l  461 -199 455 -211 446 -219 ct 
437 -228 424 -232 407 -232 ct 394 -232 384 -230 376 -226 ct 367 -222 361 -216 356 -207 ct 
350 -199 347 -188 345 -176 ct 342 -163 341 -149 341 -132 ct p ef
723 -42 m  715 -25 704 -13 691 -6 ct 678 1 661 5 642 5 ct 609 5 585 -6 569 -28 ct 
554 -51 546 -84 546 -129 ct 546 -220 578 -266 642 -266 ct 662 -266 678 -262 691 -255 ct 
704 -248 715 -236 723 -221 ct 724 -221 l  724 -222 723 -225 723 -228 ct 723 -232 723 -235 723 -239 ct 
723 -243 723 -246 723 -250 ct 723 -253 723 -256 723 -257 ct 723 -358 l  766 -358 l 
766 -53 l  766 -46 766 -40 767 -34 ct 767 -29 767 -23 767 -18 ct 767 -14 767 -9 767 -6 ct 
768 -3 768 -1 768 -1 ct 726 -1 l  726 -2 726 -5 726 -8 ct 725 -10 725 -14 725 -18 ct 
725 -21 724 -25 724 -29 ct 724 -34 724 -38 724 -42 ct 723 -42 l  p
591 -131 m  591 -113 592 -97 595 -84 ct 597 -71 601 -61 606 -53 ct 611 -44 617 -38 625 -34 ct 
632 -30 642 -29 653 -29 ct 664 -29 674 -30 683 -34 ct 692 -38 699 -44 705 -52 ct 
711 -60 715 -71 718 -85 ct 722 -98 723 -114 723 -134 ct 723 -152 722 -168 718 -181 ct 
715 -193 711 -204 705 -212 ct 699 -220 692 -225 683 -229 ct 675 -232 665 -234 653 -234 ct 
643 -234 634 -232 626 -228 ct 618 -225 612 -219 607 -210 ct 601 -202 598 -192 595 -178 ct 
593 -165 591 -149 591 -131 ct p ef
793 98 m  793 67 l  1080 67 l  1080 98 l  793 98 l  p ef
1304 -72 m  1304 -60 1302 -49 1297 -39 ct 1292 -30 1285 -22 1276 -15 ct 1267 -9 1256 -4 1243 0 ct 
1230 3 1215 5 1198 5 ct 1183 5 1170 4 1157 2 ct 1145 -1 1135 -5 1125 -10 ct 1116 -15 1109 -22 1102 -30 ct 
1096 -39 1092 -49 1089 -61 ct 1127 -69 l  1131 -55 1138 -44 1150 -38 ct 1162 -31 1178 -28 1198 -28 ct 
1208 -28 1216 -29 1224 -30 ct 1232 -31 1238 -34 1244 -37 ct 1250 -40 1254 -44 1257 -49 ct 
1260 -54 1262 -61 1262 -69 ct 1262 -76 1260 -83 1256 -88 ct 1253 -93 1248 -97 1241 -101 ct 
1234 -104 1226 -107 1217 -110 ct 1208 -112 1197 -115 1186 -118 ct 1176 -121 1165 -124 1155 -127 ct 
1145 -130 1135 -135 1127 -140 ct 1119 -146 1112 -153 1107 -161 ct 1102 -169 1099 -180 1099 -192 ct 
1099 -216 1108 -234 1125 -246 ct 1142 -259 1166 -265 1199 -265 ct 1228 -265 1250 -260 1267 -250 ct 
1284 -240 1295 -223 1300 -201 ct 1260 -196 l  1259 -203 1256 -209 1253 -213 ct 
1249 -218 1244 -222 1239 -224 ct 1233 -227 1227 -229 1220 -230 ct 1213 -232 1206 -232 1199 -232 ct 
1179 -232 1165 -229 1155 -223 ct 1146 -217 1141 -208 1141 -196 ct 1141 -189 1143 -183 1147 -179 ct 
1150 -174 1155 -170 1161 -167 ct 1167 -164 1175 -161 1183 -159 ct 1192 -157 1202 -154 1212 -152 ct 
1219 -150 1226 -148 1233 -146 ct 1240 -144 1248 -142 1254 -139 ct 1261 -136 1268 -133 1274 -129 ct 
1280 -125 1285 -120 1289 -115 ct 1294 -110 1298 -104 1300 -97 ct 1303 -90 1304 -81 1304 -72 ct 
p ef
1471 0 m  1465 16 1458 30 1452 43 ct 1446 56 1439 66 1431 75 ct 1423 84 1414 91 1404 96 ct 
1395 101 1384 103 1371 103 ct 1366 103 1361 103 1356 103 ct 1351 103 1346 102 1341 101 ct 
1341 68 l  1344 69 1348 69 1352 69 ct 1355 69 1359 69 1361 69 ct 1374 69 1386 65 1397 55 ct 
1408 46 1417 31 1426 10 ct 1430 0 l  1326 -261 l  1373 -261 l  1428 -116 l 
1429 -112 1431 -106 1434 -99 ct 1436 -92 1439 -84 1441 -77 ct 1444 -70 1446 -63 1448 -58 ct 
1450 -52 1451 -48 1451 -47 ct 1452 -48 1453 -52 1455 -57 ct 1457 -62 1459 -68 1461 -75 ct 
1463 -81 1466 -88 1468 -94 ct 1470 -101 1472 -107 1474 -111 ct 1525 -261 l  1571 -261 l 
1471 0 l  p ef
1804 -72 m  1804 -60 1802 -49 1797 -39 ct 1792 -30 1785 -22 1776 -15 ct 1767 -9 1756 -4 1743 0 ct 
1730 3 1715 5 1698 5 ct 1683 5 1670 4 1657 2 ct 1645 -1 1635 -5 1625 -10 ct 1616 -15 1609 -22 1602 -30 ct 
1596 -39 1592 -49 1589 -61 ct 1627 -69 l  1631 -55 1638 -44 1650 -38 ct 1662 -31 1678 -28 1698 -28 ct 
1708 -28 1716 -29 1724 -30 ct 1732 -31 1738 -34 1744 -37 ct 1750 -40 1754 -44 1757 -49 ct 
1760 -54 1762 -61 1762 -69 ct 1762 -76 1760 -83 1756 -88 ct 1753 -93 1748 -97 1741 -101 ct 
1734 -104 1726 -107 1717 -110 ct 1708 -112 1697 -115 1686 -118 ct 1676 -121 1665 -124 1655 -127 ct 
1645 -130 1635 -135 1627 -140 ct 1619 -146 1612 -153 1607 -161 ct 1602 -169 1599 -180 1599 -192 ct 
1599 -216 1608 -234 1625 -246 ct 1642 -259 1666 -265 1699 -265 ct 1728 -265 1750 -260 1767 -250 ct 
1784 -240 1795 -223 1800 -201 ct 1760 -196 l  1759 -203 1756 -209 1753 -213 ct 
1749 -218 1744 -222 1739 -224 ct 1733 -227 1727 -229 1720 -230 ct 1713 -232 1706 -232 1699 -232 ct 
1679 -232 1665 -229 1655 -223 ct 1646 -217 1641 -208 1641 -196 ct 1641 -189 1643 -183 1647 -179 ct 
1650 -174 1655 -170 1661 -167 ct 1667 -164 1675 -161 1683 -159 ct 1692 -157 1702 -154 1712 -152 ct 
1719 -150 1726 -148 1733 -146 ct 1740 -144 1748 -142 1754 -139 ct 1761 -136 1768 -133 1774 -129 ct 
1780 -125 1785 -120 1789 -115 ct 1794 -110 1798 -104 1800 -97 ct 1803 -90 1804 -81 1804 -72 ct 
p ef
pom
0.800 0.800 0.800 c 10739 10031 m  3115 10031 l  3115 9410 l  18364 9410 l 
18364 10031 l  10739 10031 l  p ef
0.207 0.398 0.644 c 10739 10030 m  3114 10030 l  3114 9410 l  18364 9410 l 
18364 10030 l  10739 10030 l  pc
pum
10098 9849 t
0.003 0.003 0.003 c 65 -172 m  65 -1 l  33 -1 l  33 -172 l  5 -172 l  5 -196 l 
33 -196 l  33 -218 l  33 -225 33 -231 35 -238 ct 36 -244 38 -249 42 -253 ct 
46 -258 50 -262 57 -264 ct 63 -267 71 -268 80 -268 ct 84 -268 88 -268 92 -267 ct 
97 -267 100 -267 103 -266 ct 103 -241 l  101 -241 99 -242 96 -242 ct 94 -242 91 -243 89 -243 ct 
84 -243 80 -242 77 -241 ct 74 -239 72 -237 70 -235 ct 68 -232 67 -229 66 -226 ct 
66 -222 65 -218 65 -213 ct 65 -196 l  103 -196 l  103 -172 l  65 -172 l  p ef
274 -54 m  274 -44 272 -36 268 -29 ct 265 -22 260 -16 253 -11 ct 246 -6 238 -2 228 0 ct 
218 3 207 4 194 4 ct 183 4 173 3 164 1 ct 155 0 147 -3 140 -7 ct 133 -11 127 -16 123 -22 ct 
118 -29 114 -36 112 -45 ct 141 -51 l  144 -41 150 -33 158 -28 ct 167 -23 179 -21 194 -21 ct 
201 -21 208 -21 214 -22 ct 219 -23 224 -25 229 -27 ct 233 -30 236 -33 238 -37 ct 
241 -40 242 -45 242 -51 ct 242 -57 241 -62 238 -66 ct 235 -69 231 -73 226 -75 ct 
221 -78 215 -80 208 -82 ct 201 -84 194 -86 185 -88 ct 177 -90 170 -92 162 -95 ct 
154 -97 147 -101 141 -105 ct 135 -109 130 -114 126 -120 ct 122 -126 120 -134 120 -143 ct 
120 -161 126 -175 139 -184 ct 152 -193 170 -198 195 -198 ct 216 -198 233 -194 246 -187 ct 
259 -179 267 -167 270 -150 ct 241 -147 l  240 -152 238 -156 235 -159 ct 232 -163 229 -165 224 -168 ct 
220 -170 216 -171 211 -172 ct 206 -173 200 -173 195 -173 ct 180 -173 169 -171 162 -167 ct 
155 -162 152 -156 152 -147 ct 152 -141 153 -137 156 -133 ct 158 -130 162 -127 166 -125 ct 
171 -122 177 -120 183 -119 ct 190 -117 197 -115 205 -113 ct 210 -112 215 -110 221 -109 ct 
226 -107 231 -106 236 -104 ct 241 -101 246 -99 251 -96 ct 255 -93 259 -90 263 -86 ct 
266 -82 269 -77 271 -72 ct 273 -67 274 -61 274 -54 ct p ef
427 0 m  427 -124 l  427 -133 426 -141 425 -148 ct 424 -154 422 -159 419 -163 ct 
416 -167 412 -170 408 -171 ct 403 -173 398 -174 391 -174 ct 384 -174 378 -173 372 -170 ct 
367 -167 362 -163 358 -158 ct 354 -153 351 -147 349 -139 ct 347 -132 346 -123 346 -113 ct 
346 0 l  314 0 l  314 -154 l  314 -158 314 -163 314 -167 ct 314 -172 313 -176 313 -180 ct 
313 -184 313 -187 313 -190 ct 313 -193 313 -195 313 -195 ct 343 -195 l  343 -194 344 -192 344 -190 ct 
344 -187 344 -184 344 -181 ct 344 -178 344 -174 345 -171 ct 345 -167 345 -164 345 -162 ct 
345 -162 l  348 -168 351 -173 355 -177 ct 358 -182 362 -186 367 -189 ct 371 -192 376 -195 382 -196 ct 
388 -198 395 -199 402 -199 ct 417 -199 429 -196 438 -190 ct 446 -184 452 -175 455 -162 ct 
456 -162 l  459 -168 462 -173 466 -177 ct 469 -182 474 -186 478 -189 ct 483 -192 489 -195 495 -196 ct 
501 -198 508 -199 515 -199 ct 525 -199 534 -198 541 -195 ct 548 -192 554 -188 558 -183 ct 
563 -177 566 -170 569 -161 ct 571 -153 572 -142 572 -130 ct 572 0 l  540 0 l 
540 -124 l  540 -133 539 -141 538 -148 ct 537 -154 535 -159 532 -163 ct 529 -167 525 -170 521 -171 ct 
516 -173 511 -174 504 -174 ct 497 -174 491 -173 485 -170 ct 480 -167 475 -164 471 -159 ct 
467 -154 464 -147 462 -140 ct 460 -132 459 -123 459 -113 ct 459 0 l  427 0 l 
p ef
741 -31 m  735 -19 727 -10 717 -4 ct 707 1 695 4 680 4 ct 656 4 638 -4 626 -21 ct 
614 -38 609 -63 609 -97 ct 609 -165 633 -199 680 -199 ct 695 -199 708 -196 717 -191 ct 
727 -185 735 -177 741 -165 ct 742 -165 l  742 -166 742 -168 742 -171 ct 742 -173 741 -176 741 -179 ct 
741 -182 741 -184 741 -187 ct 741 -189 741 -191 741 -192 ct 741 -268 l  774 -268 l 
774 -39 l  774 -34 774 -30 774 -26 ct 774 -21 774 -17 774 -14 ct 774 -10 774 -7 775 -4 ct 
775 -2 775 0 775 0 ct 744 0 l  744 -2 743 -3 743 -5 ct 743 -8 743 -10 743 -13 ct 
743 -16 742 -19 742 -22 ct 742 -25 742 -28 742 -31 ct 741 -31 l  p
643 -98 m  643 -84 644 -73 645 -63 ct 647 -53 650 -45 653 -39 ct 657 -33 662 -28 668 -25 ct 
673 -23 680 -21 689 -21 ct 697 -21 705 -22 711 -25 ct 718 -28 723 -33 728 -39 ct 
732 -45 736 -53 738 -63 ct 740 -73 741 -85 741 -100 ct 741 -114 740 -125 738 -135 ct 
736 -145 732 -152 728 -158 ct 723 -164 718 -169 711 -171 ct 705 -174 698 -175 689 -175 ct 
681 -175 674 -174 669 -171 ct 663 -168 658 -164 654 -157 ct 650 -151 647 -143 645 -133 ct 
644 -124 643 -112 643 -98 ct p ef
790 73 m  790 50 l  1006 50 l  1006 73 l  790 73 l  p ef
1024 -237 m  1024 -268 l  1056 -268 l  1056 -237 l  1024 -237 l  p
1024 0 m  1024 -195 l  1056 -195 l  1056 0 l  1024 0 l  p ef
1270 -98 m  1270 -63 1263 -38 1248 -21 ct 1233 -4 1211 4 1182 4 ct 1168 4 1156 2 1146 -2 ct 
1135 -6 1126 -13 1118 -21 ct 1111 -29 1105 -40 1101 -53 ct 1097 -65 1096 -80 1096 -98 ct 
1096 -165 1125 -199 1183 -199 ct 1198 -199 1211 -197 1222 -193 ct 1233 -188 1243 -182 1250 -174 ct 
1257 -165 1262 -155 1265 -142 ct 1269 -129 1270 -115 1270 -98 ct p
1236 -98 m  1236 -113 1235 -125 1233 -135 ct 1230 -145 1227 -153 1222 -159 ct 
1218 -165 1212 -169 1206 -171 ct 1199 -174 1192 -175 1184 -175 ct 1175 -175 1168 -174 1161 -171 ct 
1155 -169 1149 -165 1144 -159 ct 1139 -153 1136 -145 1133 -135 ct 1131 -125 1130 -113 1130 -98 ct 
1130 -82 1131 -70 1134 -60 ct 1136 -50 1140 -42 1145 -36 ct 1149 -30 1155 -26 1161 -24 ct 
1167 -21 1174 -20 1182 -20 ct 1190 -20 1198 -21 1204 -24 ct 1211 -26 1217 -30 1221 -36 ct 
1226 -42 1230 -50 1232 -60 ct 1235 -70 1236 -82 1236 -98 ct p ef
pom
0.207 0.398 0.644 c 7694 14146 m  5944 14146 l  5944 10646 l  9444 10646 l 
9444 14146 l  7694 14146 l  pc
0.699 0.699 0.699 c 7695 11147 m  5945 11147 l  5945 10647 l  9445 10647 l 
9445 11147 l  7695 11147 l  p ef
0.207 0.398 0.644 c 7694 11146 m  5944 11146 l  5944 10646 l  9444 10646 l 
9444 11146 l  7694 11146 l  pc
pum
6607 11069 t
0.003 0.003 0.003 c 198 -42 m  190 -25 179 -13 166 -6 ct 153 1 136 5 117 5 ct 84 5 60 -6 44 -28 ct 
29 -51 21 -84 21 -129 ct 21 -220 53 -266 117 -266 ct 137 -266 153 -262 166 -255 ct 
179 -248 190 -236 198 -221 ct 199 -221 l  199 -222 198 -225 198 -228 ct 198 -232 198 -235 198 -239 ct 
198 -243 198 -246 198 -250 ct 198 -253 198 -256 198 -257 ct 198 -358 l  241 -358 l 
241 -53 l  241 -46 241 -40 242 -34 ct 242 -29 242 -23 242 -18 ct 242 -14 242 -9 242 -6 ct 
243 -3 243 -1 243 -1 ct 201 -1 l  201 -2 201 -5 201 -8 ct 200 -10 200 -14 200 -18 ct 
200 -21 199 -25 199 -29 ct 199 -34 199 -38 199 -42 ct 198 -42 l  p
66 -131 m  66 -113 67 -97 70 -84 ct 72 -71 76 -61 81 -53 ct 86 -44 92 -38 100 -34 ct 
107 -30 117 -29 128 -29 ct 139 -29 149 -30 158 -34 ct 167 -38 174 -44 180 -52 ct 
186 -60 190 -71 193 -85 ct 197 -98 198 -114 198 -134 ct 198 -152 197 -168 193 -181 ct 
190 -193 186 -204 180 -212 ct 174 -220 167 -225 158 -229 ct 150 -232 140 -234 128 -234 ct 
118 -234 109 -232 101 -228 ct 93 -225 87 -219 82 -210 ct 76 -202 73 -192 70 -178 ct 
68 -165 66 -149 66 -131 ct p ef
342 -121 m  342 -107 343 -95 346 -83 ct 349 -72 353 -62 359 -54 ct 365 -45 372 -39 381 -34 ct 
391 -30 402 -28 414 -28 ct 433 -28 448 -31 460 -39 ct 471 -46 479 -56 483 -68 ct 
521 -57 l  518 -49 514 -42 509 -35 ct 504 -28 498 -21 490 -15 ct 481 -9 471 -4 459 -1 ct 
447 3 432 5 414 5 ct 376 5 346 -7 326 -30 ct 306 -53 296 -87 296 -132 ct 296 -157 299 -177 305 -194 ct 
311 -211 320 -225 330 -236 ct 341 -246 353 -254 367 -259 ct 382 -264 397 -266 413 -266 ct 
435 -266 453 -262 468 -255 ct 482 -248 494 -238 503 -226 ct 512 -213 518 -199 522 -182 ct 
526 -165 528 -147 528 -127 ct 528 -121 l  342 -121 l  p
483 -154 m  481 -182 474 -202 462 -215 ct 450 -228 434 -234 412 -234 ct 405 -234 397 -233 389 -230 ct 
381 -228 374 -224 367 -218 ct 360 -212 355 -204 350 -193 ct 345 -183 343 -170 342 -154 ct 
483 -154 l  p ef
804 -132 m  804 -41 772 5 708 5 ct 688 5 672 1 659 -6 ct 646 -13 635 -24 627 -40 ct 
626 -40 l  626 -36 626 -32 626 -27 ct 626 -23 625 -18 625 -14 ct 625 -11 625 -7 624 -4 ct 
624 -2 624 0 624 0 ct 582 0 l  582 -2 582 -4 582 -8 ct 582 -11 583 -15 583 -20 ct 
583 -25 583 -30 583 -36 ct 583 -42 583 -48 583 -54 ct 583 -358 l  627 -358 l 
627 -256 l  627 -251 627 -247 627 -242 ct 627 -238 626 -234 626 -231 ct 626 -226 626 -223 626 -219 ct 
627 -219 l  635 -236 645 -248 659 -255 ct 672 -262 688 -266 708 -266 ct 741 -266 765 -255 781 -233 ct 
796 -210 804 -177 804 -132 ct p
758 -130 m  758 -148 757 -164 755 -177 ct 753 -190 749 -200 744 -208 ct 739 -217 733 -223 725 -227 ct 
717 -231 708 -232 697 -232 ct 685 -232 675 -231 667 -227 ct 658 -223 651 -217 645 -209 ct 
639 -201 634 -190 631 -177 ct 628 -163 627 -147 627 -128 ct 627 -109 628 -93 631 -80 ct 
634 -68 639 -57 645 -49 ct 651 -41 658 -36 667 -32 ct 675 -29 685 -27 696 -27 ct 
707 -27 716 -29 724 -33 ct 732 -36 738 -42 743 -51 ct 748 -59 752 -69 755 -83 ct 
757 -96 758 -112 758 -130 ct p ef
1080 -131 m  1080 -85 1070 -51 1050 -29 ct 1030 -6 1001 5 962 5 ct 944 5 928 2 914 -3 ct 
899 -9 887 -17 877 -28 ct 867 -40 860 -54 855 -71 ct 849 -88 847 -108 847 -131 ct 
847 -221 886 -266 964 -266 ct 984 -266 1001 -263 1016 -258 ct 1031 -252 1043 -243 1052 -232 ct 
1062 -221 1069 -207 1073 -190 ct 1078 -173 1080 -153 1080 -131 ct p
1034 -131 m  1034 -151 1033 -168 1030 -181 ct 1027 -194 1022 -205 1016 -213 ct 
1010 -221 1003 -226 994 -229 ct 985 -232 975 -234 964 -234 ct 953 -234 943 -232 934 -229 ct 
926 -226 918 -220 912 -212 ct 905 -204 901 -193 897 -180 ct 894 -167 892 -151 892 -131 ct 
892 -110 894 -94 898 -80 ct 901 -67 906 -57 912 -49 ct 918 -41 926 -35 934 -32 ct 
943 -29 952 -27 962 -27 ct 973 -27 983 -29 992 -32 ct 1001 -35 1009 -40 1015 -48 ct 
1021 -56 1026 -67 1029 -80 ct 1033 -94 1034 -110 1034 -131 ct p ef
1177 -261 m  1177 -95 l  1177 -83 1178 -72 1180 -64 ct 1181 -55 1184 -48 1189 -43 ct 
1193 -38 1198 -34 1205 -32 ct 1212 -30 1220 -29 1231 -29 ct 1241 -29 1250 -30 1258 -34 ct 
1267 -38 1274 -43 1280 -50 ct 1285 -57 1290 -65 1293 -75 ct 1296 -85 1298 -97 1298 -110 ct 
1298 -261 l  1341 -261 l  1341 -55 l  1341 -49 1342 -44 1342 -38 ct 1342 -31 1342 -26 1342 -20 ct 
1342 -15 1342 -10 1342 -6 ct 1343 -2 1343 -1 1343 -1 ct 1302 -1 l  1302 -1 1302 -3 1301 -7 ct 
1301 -10 1301 -14 1301 -19 ct 1301 -23 1300 -28 1300 -33 ct 1300 -37 1300 -41 1300 -44 ct 
1299 -44 l  1295 -37 1291 -30 1286 -24 ct 1281 -18 1275 -13 1268 -8 ct 1262 -4 1254 -1 1245 2 ct 
1237 4 1227 5 1216 5 ct 1201 5 1189 3 1178 0 ct 1168 -4 1159 -9 1153 -17 ct 1146 -24 1141 -34 1138 -45 ct 
1135 -57 1133 -71 1133 -87 ct 1133 -261 l  1177 -261 l  p ef
1575 0 m  1575 -166 l  1575 -178 1574 -189 1572 -197 ct 1570 -206 1567 -213 1563 -218 ct 
1559 -223 1553 -227 1547 -229 ct 1540 -231 1531 -232 1521 -232 ct 1511 -232 1502 -231 1493 -227 ct 
1485 -223 1478 -218 1472 -211 ct 1466 -205 1462 -196 1458 -186 ct 1455 -176 1454 -164 1454 -151 ct 
1454 0 l  1410 0 l  1410 -206 l  1410 -211 1410 -217 1410 -223 ct 1410 -229 1410 -235 1410 -240 ct 
1410 -246 1409 -251 1409 -254 ct 1409 -258 1409 -260 1409 -260 ct 1450 -260 l 
1450 -259 1450 -257 1450 -254 ct 1450 -250 1451 -246 1451 -242 ct 1451 -237 1451 -233 1452 -228 ct 
1452 -224 1452 -220 1452 -217 ct 1452 -217 l  1457 -224 1461 -231 1466 -237 ct 
1471 -243 1477 -248 1484 -253 ct 1490 -257 1498 -260 1506 -263 ct 1515 -265 1525 -266 1536 -266 ct 
1550 -266 1563 -264 1573 -261 ct 1584 -257 1592 -252 1599 -244 ct 1606 -237 1611 -227 1614 -216 ct 
1617 -204 1619 -190 1619 -174 ct 1619 0 l  1575 0 l  p ef
1717 -132 m  1717 -117 1718 -103 1721 -90 ct 1723 -78 1726 -67 1732 -58 ct 1737 -49 1744 -42 1752 -37 ct 
1760 -32 1771 -29 1783 -29 ct 1799 -29 1812 -33 1822 -41 ct 1832 -50 1839 -62 1841 -79 ct 
1885 -79 l  1884 -68 1880 -58 1876 -47 ct 1871 -37 1864 -28 1856 -21 ct 1848 -13 1838 -7 1826 -2 ct 
1814 3 1800 5 1784 5 ct 1764 5 1747 2 1732 -5 ct 1718 -12 1706 -22 1697 -34 ct 
1689 -46 1682 -60 1678 -77 ct 1674 -94 1672 -111 1672 -131 ct 1672 -148 1673 -164 1676 -177 ct 
1679 -191 1683 -202 1689 -213 ct 1694 -223 1700 -231 1707 -238 ct 1714 -245 1722 -250 1730 -254 ct 
1738 -258 1747 -261 1756 -263 ct 1765 -265 1775 -266 1784 -266 ct 1799 -266 1812 -264 1823 -260 ct 
1834 -256 1844 -250 1853 -243 ct 1861 -236 1868 -228 1873 -219 ct 1878 -209 1881 -199 1884 -188 ct 
1839 -185 l  1837 -199 1831 -211 1822 -219 ct 1813 -228 1800 -232 1783 -232 ct 
1770 -232 1760 -230 1752 -226 ct 1743 -222 1737 -216 1732 -207 ct 1726 -199 1723 -188 1721 -176 ct 
1718 -163 1717 -149 1717 -132 ct p ef
1968 -121 m  1968 -107 1969 -95 1972 -83 ct 1975 -72 1979 -62 1985 -54 ct 1991 -45 1998 -39 2007 -34 ct 
2017 -30 2028 -28 2040 -28 ct 2059 -28 2074 -31 2086 -39 ct 2097 -46 2105 -56 2109 -68 ct 
2147 -57 l  2144 -49 2140 -42 2135 -35 ct 2130 -28 2124 -21 2116 -15 ct 2107 -9 2097 -4 2085 -1 ct 
2073 3 2058 5 2040 5 ct 2002 5 1972 -7 1952 -30 ct 1932 -53 1922 -87 1922 -132 ct 
1922 -157 1925 -177 1931 -194 ct 1937 -211 1946 -225 1956 -236 ct 1967 -246 1979 -254 1993 -259 ct 
2008 -264 2023 -266 2039 -266 ct 2061 -266 2079 -262 2094 -255 ct 2108 -248 2120 -238 2129 -226 ct 
2138 -213 2144 -199 2148 -182 ct 2152 -165 2154 -147 2154 -127 ct 2154 -121 l 
1968 -121 l  p
2109 -154 m  2107 -182 2100 -202 2088 -215 ct 2076 -228 2060 -234 2038 -234 ct 
2031 -234 2023 -233 2015 -230 ct 2007 -228 2000 -224 1993 -218 ct 1986 -212 1981 -204 1976 -193 ct 
1971 -183 1969 -170 1968 -154 ct 2109 -154 l  p ef
pom
0.800 0.800 0.800 c 7695 11647 m  5945 11647 l  5945 11147 l  9445 11147 l 
9445 11647 l  7695 11647 l  p ef
0.207 0.398 0.644 c 7694 11646 m  5944 11646 l  5944 11146 l  9444 11146 l 
9444 11646 l  7694 11646 l  pc
pum
6830 11526 t
0.003 0.003 0.003 c 227 -72 m  227 -59 225 -48 220 -39 ct 215 -30 208 -22 199 -16 ct 
191 -11 181 -7 169 -4 ct 158 -1 146 0 134 0 ct 30 0 l  30 -255 l  123 -255 l 
137 -255 150 -253 161 -251 ct 172 -249 181 -245 189 -240 ct 197 -235 202 -228 206 -221 ct 
210 -213 212 -204 212 -193 ct 212 -186 211 -179 209 -173 ct 208 -166 204 -161 200 -155 ct 
196 -150 191 -146 185 -142 ct 179 -138 172 -136 164 -134 ct 174 -133 183 -130 191 -127 ct 
199 -123 206 -119 211 -114 ct 216 -108 220 -102 223 -95 ct 226 -88 227 -80 227 -72 ct 
p
178 -189 m  178 -202 173 -212 164 -218 ct 154 -224 141 -227 123 -227 ct 65 -227 l 
65 -146 l  123 -146 l  133 -146 142 -147 149 -149 ct 155 -151 161 -154 165 -158 ct 
170 -161 173 -166 175 -171 ct 177 -176 178 -182 178 -189 ct p
192 -74 m  192 -82 191 -89 188 -95 ct 185 -100 181 -105 175 -109 ct 170 -112 163 -115 155 -117 ct 
148 -118 139 -119 129 -119 ct 65 -119 l  65 -28 l  132 -28 l  141 -28 149 -28 156 -30 ct 
164 -31 170 -34 175 -37 ct 181 -41 185 -46 188 -52 ct 191 -58 192 -65 192 -74 ct 
p ef
296 -90 m  296 -80 297 -71 299 -62 ct 301 -53 304 -46 309 -40 ct 313 -34 319 -29 326 -26 ct 
333 -22 341 -20 350 -20 ct 365 -20 376 -23 384 -29 ct 393 -34 399 -42 402 -50 ct 
430 -42 l  428 -37 425 -31 422 -26 ct 418 -20 413 -15 407 -11 ct 401 -7 393 -3 384 0 ct 
375 3 363 4 350 4 ct 322 4 300 -5 284 -22 ct 269 -39 262 -65 262 -99 ct 262 -117 264 -133 269 -145 ct 
273 -158 279 -168 287 -176 ct 295 -184 305 -190 315 -194 ct 326 -197 337 -199 349 -199 ct 
366 -199 379 -196 390 -191 ct 401 -186 410 -178 417 -169 ct 424 -160 428 -148 431 -136 ct 
434 -123 435 -109 435 -94 ct 435 -90 l  296 -90 l  p
402 -115 m  400 -136 395 -151 386 -161 ct 377 -170 365 -175 349 -175 ct 343 -175 338 -174 332 -172 ct 
326 -171 320 -167 315 -163 ct 310 -158 306 -152 302 -145 ct 299 -137 297 -127 296 -115 ct 
402 -115 l  p ef
506 -162 m  510 -169 514 -174 518 -179 ct 522 -184 527 -187 532 -190 ct 537 -193 543 -196 549 -197 ct 
555 -198 561 -199 569 -199 ct 581 -199 592 -197 600 -194 ct 608 -191 614 -186 619 -180 ct 
623 -174 626 -166 628 -158 ct 630 -150 631 -140 631 -130 ct 631 0 l  598 0 l 
598 -124 l  598 -132 598 -139 597 -146 ct 596 -152 594 -157 591 -161 ct 588 -166 584 -169 578 -171 ct 
573 -173 566 -174 558 -174 ct 550 -174 543 -173 537 -170 ct 531 -167 525 -163 521 -158 ct 
517 -153 513 -147 511 -140 ct 508 -132 507 -124 507 -115 ct 507 0 l  475 0 l 
475 -268 l  507 -268 l  507 -198 l  507 -194 507 -190 507 -186 ct 507 -182 507 -179 507 -175 ct 
506 -172 506 -169 506 -167 ct 506 -164 506 -163 506 -162 ct 506 -162 l  p ef
727 4 m  707 4 692 -1 683 -12 ct 673 -22 668 -36 668 -54 ct 668 -67 670 -78 675 -86 ct 
680 -94 686 -101 694 -106 ct 702 -110 711 -113 721 -115 ct 731 -117 742 -118 752 -118 ct 
796 -118 l  796 -129 l  796 -137 795 -144 793 -150 ct 792 -156 789 -160 786 -164 ct 
782 -167 778 -170 773 -172 ct 767 -173 761 -174 754 -174 ct 748 -174 742 -174 737 -173 ct 
732 -172 728 -170 724 -168 ct 720 -165 717 -162 715 -158 ct 713 -154 711 -149 710 -143 ct 
676 -146 l  678 -154 680 -161 683 -167 ct 687 -174 691 -179 698 -184 ct 704 -189 712 -192 721 -195 ct 
730 -197 742 -199 755 -199 ct 779 -199 798 -193 810 -182 ct 823 -171 829 -154 829 -133 ct 
829 -49 l  829 -39 830 -32 833 -27 ct 835 -22 840 -20 847 -20 ct 849 -20 851 -20 853 -20 ct 
854 -20 856 -21 858 -21 ct 858 -1 l  854 0 850 1 846 1 ct 842 2 837 2 833 2 ct 
827 2 821 1 817 0 ct 812 -2 809 -4 806 -8 ct 803 -11 801 -15 800 -20 ct 798 -25 797 -30 797 -37 ct 
796 -37 l  793 -31 789 -25 785 -20 ct 780 -15 776 -11 770 -7 ct 764 -4 758 -1 751 1 ct 
744 3 736 4 727 4 ct p
734 -20 m  745 -20 754 -22 761 -26 ct 769 -30 776 -35 781 -40 ct 786 -46 790 -53 792 -60 ct 
795 -66 796 -73 796 -79 ct 796 -95 l  760 -95 l  752 -95 745 -95 738 -94 ct 
731 -93 724 -91 719 -88 ct 713 -85 709 -80 706 -75 ct 703 -70 701 -62 701 -54 ct 
701 -43 704 -35 710 -29 ct 715 -23 724 -20 734 -20 ct p ef
966 0 m  927 0 l  856 -196 l  891 -196 l  934 -68 l  935 -66 936 -62 937 -59 ct 
938 -55 939 -51 940 -47 ct 942 -43 943 -39 944 -35 ct 945 -31 946 -28 946 -25 ct 
947 -28 948 -31 949 -35 ct 950 -39 952 -43 953 -47 ct 954 -51 955 -54 956 -58 ct 
958 -62 959 -65 960 -68 ct 1004 -196 l  1039 -196 l  966 0 l  p ef
1066 -237 m  1066 -268 l  1098 -268 l  1098 -237 l  1066 -237 l  p
1066 0 m  1066 -195 l  1098 -195 l  1098 0 l  1066 0 l  p ef
1312 -98 m  1312 -63 1305 -38 1290 -21 ct 1275 -4 1253 4 1224 4 ct 1210 4 1198 2 1188 -2 ct 
1177 -6 1168 -13 1160 -21 ct 1153 -29 1147 -40 1143 -53 ct 1139 -65 1138 -80 1138 -98 ct 
1138 -165 1167 -199 1225 -199 ct 1240 -199 1253 -197 1264 -193 ct 1275 -188 1285 -182 1292 -174 ct 
1299 -165 1304 -155 1307 -142 ct 1311 -129 1312 -115 1312 -98 ct p
1278 -98 m  1278 -113 1277 -125 1275 -135 ct 1272 -145 1269 -153 1264 -159 ct 
1260 -165 1254 -169 1248 -171 ct 1241 -174 1234 -175 1226 -175 ct 1217 -175 1210 -174 1203 -171 ct 
1197 -169 1191 -165 1186 -159 ct 1181 -153 1178 -145 1175 -135 ct 1173 -125 1172 -113 1172 -98 ct 
1172 -82 1173 -70 1176 -60 ct 1178 -50 1182 -42 1187 -36 ct 1191 -30 1197 -26 1203 -24 ct 
1209 -21 1216 -20 1224 -20 ct 1232 -20 1240 -21 1246 -24 ct 1253 -26 1259 -30 1263 -36 ct 
1268 -42 1272 -50 1274 -60 ct 1277 -70 1278 -82 1278 -98 ct p ef
1351 0 m  1351 -150 l  1351 -154 1351 -158 1351 -162 ct 1351 -167 1350 -171 1350 -175 ct 
1350 -179 1350 -183 1350 -186 ct 1350 -189 1350 -193 1350 -195 ct 1380 -195 l 
1380 -193 1381 -189 1381 -186 ct 1381 -182 1381 -179 1381 -175 ct 1381 -171 1382 -168 1382 -164 ct 
1382 -161 1382 -158 1382 -155 ct 1382 -155 l  1385 -163 1387 -169 1390 -175 ct 
1392 -180 1395 -185 1399 -188 ct 1402 -192 1407 -195 1411 -196 ct 1416 -198 1422 -199 1429 -199 ct 
1432 -199 1434 -199 1436 -198 ct 1439 -198 1441 -198 1442 -197 ct 1442 -167 l 
1440 -168 1437 -168 1434 -169 ct 1432 -169 1428 -169 1425 -169 ct 1417 -169 1411 -168 1406 -164 ct 
1400 -161 1396 -156 1393 -150 ct 1390 -144 1387 -137 1386 -129 ct 1384 -121 1383 -112 1383 -102 ct 
1383 0 l  1351 0 l  p ef
1523 4 m  1503 4 1488 -1 1479 -12 ct 1469 -22 1464 -36 1464 -54 ct 1464 -67 1466 -78 1471 -86 ct 
1476 -94 1482 -101 1490 -106 ct 1498 -110 1507 -113 1517 -115 ct 1527 -117 1538 -118 1548 -118 ct 
1592 -118 l  1592 -129 l  1592 -137 1591 -144 1589 -150 ct 1588 -156 1585 -160 1582 -164 ct 
1578 -167 1574 -170 1569 -172 ct 1563 -173 1557 -174 1550 -174 ct 1544 -174 1538 -174 1533 -173 ct 
1528 -172 1524 -170 1520 -168 ct 1516 -165 1513 -162 1511 -158 ct 1509 -154 1507 -149 1506 -143 ct 
1472 -146 l  1474 -154 1476 -161 1479 -167 ct 1483 -174 1487 -179 1494 -184 ct 
1500 -189 1508 -192 1517 -195 ct 1526 -197 1538 -199 1551 -199 ct 1575 -199 1594 -193 1606 -182 ct 
1619 -171 1625 -154 1625 -133 ct 1625 -49 l  1625 -39 1626 -32 1629 -27 ct 1631 -22 1636 -20 1643 -20 ct 
1645 -20 1647 -20 1649 -20 ct 1650 -20 1652 -21 1654 -21 ct 1654 -1 l  1650 0 1646 1 1642 1 ct 
1638 2 1633 2 1629 2 ct 1623 2 1617 1 1613 0 ct 1608 -2 1605 -4 1602 -8 ct 1599 -11 1597 -15 1596 -20 ct 
1594 -25 1593 -30 1593 -37 ct 1592 -37 l  1589 -31 1585 -25 1581 -20 ct 1576 -15 1572 -11 1566 -7 ct 
1560 -4 1554 -1 1547 1 ct 1540 3 1532 4 1523 4 ct p
1530 -20 m  1541 -20 1550 -22 1557 -26 ct 1565 -30 1572 -35 1577 -40 ct 1582 -46 1586 -53 1588 -60 ct 
1591 -66 1592 -73 1592 -79 ct 1592 -95 l  1556 -95 l  1548 -95 1541 -95 1534 -94 ct 
1527 -93 1520 -91 1515 -88 ct 1509 -85 1505 -80 1502 -75 ct 1499 -70 1497 -62 1497 -54 ct 
1497 -43 1500 -35 1506 -29 ct 1511 -23 1520 -20 1530 -20 ct p ef
1676 0 m  1676 -268 l  1708 -268 l  1708 0 l  1676 0 l  p ef
pom
1 lw 1445 11896 m  5515 11896 l  ps
5945 11896 m  5495 11747 l  5495 12046 l  5945 11896 l  p ef
1445 12646 m  5515 12646 l  ps
5945 12646 m  5495 12496 l  5495 12796 l  5945 12646 l  p ef
pum
1495 11756 t
50 -98 m  50 -87 51 -77 52 -67 ct 54 -58 56 -50 60 -43 ct 64 -36 69 -31 76 -27 ct 
82 -24 90 -22 99 -22 ct 111 -22 120 -25 128 -31 ct 136 -37 141 -46 142 -59 ct 175 -59 l 
174 -51 172 -43 168 -35 ct 165 -28 160 -21 153 -15 ct 147 -9 140 -5 131 -1 ct 122 2 112 4 100 4 ct 
85 4 72 1 61 -4 ct 50 -9 41 -16 35 -25 ct 28 -34 23 -45 20 -57 ct 17 -70 16 -83 16 -97 ct 
16 -111 17 -122 19 -132 ct 21 -142 24 -151 28 -158 ct 32 -166 37 -172 42 -177 ct 
47 -183 53 -187 59 -190 ct 65 -193 72 -195 79 -196 ct 86 -198 93 -198 100 -198 ct 
111 -198 120 -197 129 -194 ct 137 -191 145 -187 151 -182 ct 157 -176 162 -170 166 -163 ct 
170 -156 173 -148 174 -140 ct 141 -138 l  139 -148 135 -157 128 -163 ct 121 -170 111 -173 99 -173 ct 
89 -173 82 -171 75 -168 ct 69 -165 64 -161 60 -155 ct 56 -148 54 -141 52 -131 ct 
51 -122 50 -111 50 -98 ct p ef
211 0 m  211 -268 l  243 -268 l  243 0 l  211 0 l  p ef
414 0 m  348 -89 l  324 -70 l  324 0 l  292 0 l  292 -268 l  324 -268 l 
324 -101 l  410 -195 l  448 -195 l  369 -111 l  453 0 l  414 0 l  p ef
pom
pum
1495 12455 t
26 0 m  26 -150 l  26 -154 26 -158 26 -162 ct 26 -167 25 -171 25 -175 ct 25 -179 25 -183 25 -186 ct 
25 -189 25 -193 25 -195 ct 55 -195 l  55 -193 56 -189 56 -186 ct 56 -182 56 -179 56 -175 ct 
56 -171 57 -168 57 -164 ct 57 -161 57 -158 57 -155 ct 57 -155 l  60 -163 62 -169 65 -175 ct 
67 -180 70 -185 74 -188 ct 77 -192 82 -195 86 -196 ct 91 -198 97 -199 104 -199 ct 
107 -199 109 -199 111 -198 ct 114 -198 116 -198 117 -197 ct 117 -167 l  115 -168 112 -168 109 -169 ct 
107 -169 103 -169 100 -169 ct 92 -169 86 -168 81 -164 ct 75 -161 71 -156 68 -150 ct 
65 -144 62 -137 61 -129 ct 59 -121 58 -112 58 -102 ct 58 0 l  26 0 l  p ef
173 -90 m  173 -80 174 -71 176 -62 ct 178 -53 181 -46 186 -40 ct 190 -34 196 -29 203 -26 ct 
210 -22 218 -20 227 -20 ct 242 -20 253 -23 261 -29 ct 270 -34 276 -42 279 -50 ct 
307 -42 l  305 -37 302 -31 299 -26 ct 295 -20 290 -15 284 -11 ct 278 -7 270 -3 261 0 ct 
252 3 240 4 227 4 ct 199 4 177 -5 161 -22 ct 146 -39 139 -65 139 -99 ct 139 -117 141 -133 146 -145 ct 
150 -158 156 -168 164 -176 ct 172 -184 182 -190 192 -194 ct 203 -197 214 -199 226 -199 ct 
243 -199 256 -196 267 -191 ct 278 -186 287 -178 294 -169 ct 301 -160 305 -148 308 -136 ct 
311 -123 312 -109 312 -94 ct 312 -90 l  173 -90 l  p
279 -115 m  277 -136 272 -151 263 -161 ct 254 -170 242 -175 226 -175 ct 220 -175 215 -174 209 -172 ct 
203 -171 197 -167 192 -163 ct 187 -158 183 -152 179 -145 ct 176 -137 174 -127 173 -115 ct 
279 -115 l  p ef
498 -54 m  498 -44 496 -36 492 -29 ct 489 -22 484 -16 477 -11 ct 470 -6 462 -2 452 0 ct 
442 3 431 4 418 4 ct 407 4 397 3 388 1 ct 379 0 371 -3 364 -7 ct 357 -11 351 -16 347 -22 ct 
342 -29 338 -36 336 -45 ct 365 -51 l  368 -41 374 -33 382 -28 ct 391 -23 403 -21 418 -21 ct 
425 -21 432 -21 438 -22 ct 443 -23 448 -25 453 -27 ct 457 -30 460 -33 462 -37 ct 
465 -40 466 -45 466 -51 ct 466 -57 465 -62 462 -66 ct 459 -69 455 -73 450 -75 ct 
445 -78 439 -80 432 -82 ct 425 -84 418 -86 409 -88 ct 401 -90 394 -92 386 -95 ct 
378 -97 371 -101 365 -105 ct 359 -109 354 -114 350 -120 ct 346 -126 344 -134 344 -143 ct 
344 -161 350 -175 363 -184 ct 376 -193 394 -198 419 -198 ct 440 -198 457 -194 470 -187 ct 
483 -179 491 -167 494 -150 ct 465 -147 l  464 -152 462 -156 459 -159 ct 456 -163 453 -165 448 -168 ct 
444 -170 440 -171 435 -172 ct 430 -173 424 -173 419 -173 ct 404 -173 393 -171 386 -167 ct 
379 -162 376 -156 376 -147 ct 376 -141 377 -137 380 -133 ct 382 -130 386 -127 390 -125 ct 
395 -122 401 -120 407 -119 ct 414 -117 421 -115 429 -113 ct 434 -112 439 -110 445 -109 ct 
450 -107 455 -106 460 -104 ct 465 -101 470 -99 475 -96 ct 479 -93 483 -90 487 -86 ct 
490 -82 493 -77 495 -72 ct 497 -67 498 -61 498 -54 ct p ef
562 -90 m  562 -80 563 -71 565 -62 ct 567 -53 570 -46 575 -40 ct 579 -34 585 -29 592 -26 ct 
599 -22 607 -20 616 -20 ct 631 -20 642 -23 650 -29 ct 659 -34 665 -42 668 -50 ct 
696 -42 l  694 -37 691 -31 688 -26 ct 684 -20 679 -15 673 -11 ct 667 -7 659 -3 650 0 ct 
641 3 629 4 616 4 ct 588 4 566 -5 550 -22 ct 535 -39 528 -65 528 -99 ct 528 -117 530 -133 535 -145 ct 
539 -158 545 -168 553 -176 ct 561 -184 571 -190 581 -194 ct 592 -197 603 -199 615 -199 ct 
632 -199 645 -196 656 -191 ct 667 -186 676 -178 683 -169 ct 690 -160 694 -148 697 -136 ct 
700 -123 701 -109 701 -94 ct 701 -90 l  562 -90 l  p
668 -115 m  666 -136 661 -151 652 -161 ct 643 -170 631 -175 615 -175 ct 609 -175 604 -174 598 -172 ct 
592 -171 586 -167 581 -163 ct 576 -158 572 -152 568 -145 ct 565 -137 563 -127 562 -115 ct 
668 -115 l  p ef
815 -1 m  810 0 805 1 800 2 ct 795 3 789 3 782 3 ct 756 3 743 -12 743 -41 ct 743 -171 l 
721 -171 l  721 -195 l  744 -195 l  754 -239 l  776 -239 l  776 -195 l 
812 -195 l  812 -171 l  776 -171 l  776 -48 l  776 -39 777 -32 780 -29 ct 
783 -25 789 -23 796 -23 ct 799 -23 802 -23 805 -24 ct 808 -24 812 -25 815 -25 ct 
815 -1 l  p ef
pom
1445 13415 m  5515 13415 l  ps
5945 13415 m  5495 13265 l  5495 13565 l  5945 13415 l  p ef
pum
1495 13224 t
26 0 m  26 -150 l  26 -154 26 -158 26 -162 ct 26 -167 25 -171 25 -175 ct 25 -179 25 -183 25 -186 ct 
25 -189 25 -193 25 -195 ct 55 -195 l  55 -193 56 -189 56 -186 ct 56 -182 56 -179 56 -175 ct 
56 -171 57 -168 57 -164 ct 57 -161 57 -158 57 -155 ct 57 -155 l  60 -163 62 -169 65 -175 ct 
67 -180 70 -185 74 -188 ct 77 -192 82 -195 86 -196 ct 91 -198 97 -199 104 -199 ct 
107 -199 109 -199 111 -198 ct 114 -198 116 -198 117 -197 ct 117 -167 l  115 -168 112 -168 109 -169 ct 
107 -169 103 -169 100 -169 ct 92 -169 86 -168 81 -164 ct 75 -161 71 -156 68 -150 ct 
65 -144 62 -137 61 -129 ct 59 -121 58 -112 58 -102 ct 58 0 l  26 0 l  p ef
173 -90 m  173 -80 174 -71 176 -62 ct 178 -53 181 -46 186 -40 ct 190 -34 196 -29 203 -26 ct 
210 -22 218 -20 227 -20 ct 242 -20 253 -23 261 -29 ct 270 -34 276 -42 279 -50 ct 
307 -42 l  305 -37 302 -31 299 -26 ct 295 -20 290 -15 284 -11 ct 278 -7 270 -3 261 0 ct 
252 3 240 4 227 4 ct 199 4 177 -5 161 -22 ct 146 -39 139 -65 139 -99 ct 139 -117 141 -133 146 -145 ct 
150 -158 156 -168 164 -176 ct 172 -184 182 -190 192 -194 ct 203 -197 214 -199 226 -199 ct 
243 -199 256 -196 267 -191 ct 278 -186 287 -178 294 -169 ct 301 -160 305 -148 308 -136 ct 
311 -123 312 -109 312 -94 ct 312 -90 l  173 -90 l  p
279 -115 m  277 -136 272 -151 263 -161 ct 254 -170 242 -175 226 -175 ct 220 -175 215 -174 209 -172 ct 
203 -171 197 -167 192 -163 ct 187 -158 183 -152 179 -145 ct 176 -137 174 -127 173 -115 ct 
279 -115 l  p ef
413 4 m  389 4 370 -4 359 -21 ct 347 -38 342 -63 342 -97 ct 342 -131 347 -156 359 -173 ct 
371 -190 389 -199 413 -199 ct 422 -199 429 -198 435 -197 ct 441 -195 447 -193 451 -190 ct 
456 -188 461 -184 464 -180 ct 468 -176 471 -171 474 -165 ct 475 -165 l  475 -168 475 -171 475 -175 ct 
475 -179 475 -182 476 -186 ct 476 -189 476 -192 476 -194 ct 476 -196 477 -198 477 -198 ct 
508 -198 l  508 -196 508 -190 507 -181 ct 507 -173 507 -160 507 -144 ct 507 77 l 
474 77 l  474 -2 l  474 -5 474 -9 474 -12 ct 474 -15 475 -18 475 -22 ct 475 -25 475 -28 475 -32 ct 
475 -32 l  472 -26 468 -20 464 -16 ct 461 -11 456 -8 451 -5 ct 446 -2 441 1 434 2 ct 
428 3 421 4 413 4 ct p
474 -100 m  474 -114 473 -126 471 -136 ct 468 -145 465 -153 460 -159 ct 456 -165 450 -169 444 -171 ct 
437 -174 430 -175 422 -175 ct 414 -175 407 -173 401 -170 ct 395 -167 390 -163 386 -156 ct 
383 -150 380 -142 378 -132 ct 377 -122 376 -111 376 -98 ct 376 -85 377 -73 378 -64 ct 
380 -54 382 -46 386 -40 ct 390 -33 395 -29 400 -26 ct 406 -23 413 -21 422 -21 ct 
429 -21 436 -22 442 -24 ct 449 -27 454 -31 459 -37 ct 464 -42 467 -50 470 -61 ct 
473 -71 474 -84 474 -100 ct p ef
pom
0 lw 3444 11896 m  3444 15645 l  ps
4694 12646 m  4694 15145 l  ps
1 lw 4695 15146 m  11514 15146 l  ps
11944 15146 m  11494 14996 l  11494 15296 l  11944 15146 l  p ef
3445 15646 m  11514 15646 l  ps
11944 15646 m  11494 15496 l  11494 15796 l  11944 15646 l  p ef
3444 11797 m  3500 11797 3544 11839 3544 11895 ct 3544 11951 3500 11995 3444 11995 ct 
3388 11995 3345 11951 3345 11895 ct 3345 11839 3388 11797 3444 11797 ct p
3345 11797 m  3345 11797 l  p
3546 11997 m  3546 11997 l  p ef
0 lw 3443 11796 m  3499 11796 3543 11839 3543 11895 ct 3543 11951 3499 11995 3443 11995 ct 
3387 11995 3344 11951 3344 11895 ct 3344 11839 3387 11796 3443 11796 ct pc
3344 11796 m  3344 11796 l  pc
3545 11997 m  3545 11997 l  pc
4694 12546 m  4750 12546 4794 12589 4794 12645 ct 4794 12701 4750 12745 4694 12745 ct 
4638 12745 4595 12701 4595 12645 ct 4595 12589 4638 12546 4694 12546 ct p
4595 12546 m  4595 12546 l  p
4796 12747 m  4796 12747 l  p ef
4693 12546 m  4749 12546 4793 12589 4793 12645 ct 4793 12701 4749 12745 4693 12745 ct 
4637 12745 4594 12701 4594 12645 ct 4594 12589 4637 12546 4693 12546 ct pc
4594 12546 m  4594 12546 l  pc
4795 12747 m  4795 12747 l  pc
9444 13396 m  10444 13396 l  ps
10444 13396 m  10444 16145 l  ps
1 lw 10444 16146 m  11514 16146 l  ps
11944 16146 m  11494 15996 l  11494 16296 l  11944 16146 l  p ef
pum
9694 13224 t
26 0 m  26 -150 l  26 -154 26 -158 26 -162 ct 26 -167 25 -171 25 -175 ct 25 -179 25 -183 25 -186 ct 
25 -189 25 -193 25 -195 ct 55 -195 l  55 -193 56 -189 56 -186 ct 56 -182 56 -179 56 -175 ct 
56 -171 57 -168 57 -164 ct 57 -161 57 -158 57 -155 ct 57 -155 l  60 -163 62 -169 65 -175 ct 
67 -180 70 -185 74 -188 ct 77 -192 82 -195 86 -196 ct 91 -198 97 -199 104 -199 ct 
107 -199 109 -199 111 -198 ct 114 -198 116 -198 117 -197 ct 117 -167 l  115 -168 112 -168 109 -169 ct 
107 -169 103 -169 100 -169 ct 92 -169 86 -168 81 -164 ct 75 -161 71 -156 68 -150 ct 
65 -144 62 -137 61 -129 ct 59 -121 58 -112 58 -102 ct 58 0 l  26 0 l  p ef
173 -90 m  173 -80 174 -71 176 -62 ct 178 -53 181 -46 186 -40 ct 190 -34 196 -29 203 -26 ct 
210 -22 218 -20 227 -20 ct 242 -20 253 -23 261 -29 ct 270 -34 276 -42 279 -50 ct 
307 -42 l  305 -37 302 -31 299 -26 ct 295 -20 290 -15 284 -11 ct 278 -7 270 -3 261 0 ct 
252 3 240 4 227 4 ct 199 4 177 -5 161 -22 ct 146 -39 139 -65 139 -99 ct 139 -117 141 -133 146 -145 ct 
150 -158 156 -168 164 -176 ct 172 -184 182 -190 192 -194 ct 203 -197 214 -199 226 -199 ct 
243 -199 256 -196 267 -191 ct 278 -186 287 -178 294 -169 ct 301 -160 305 -148 308 -136 ct 
311 -123 312 -109 312 -94 ct 312 -90 l  173 -90 l  p
279 -115 m  277 -136 272 -151 263 -161 ct 254 -170 242 -175 226 -175 ct 220 -175 215 -174 209 -172 ct 
203 -171 197 -167 192 -163 ct 187 -158 183 -152 179 -145 ct 176 -137 174 -127 173 -115 ct 
279 -115 l  p ef
413 4 m  389 4 370 -4 359 -21 ct 347 -38 342 -63 342 -97 ct 342 -131 347 -156 359 -173 ct 
371 -190 389 -199 413 -199 ct 422 -199 429 -198 435 -197 ct 441 -195 447 -193 451 -190 ct 
456 -188 461 -184 464 -180 ct 468 -176 471 -171 474 -165 ct 475 -165 l  475 -168 475 -171 475 -175 ct 
475 -179 475 -182 476 -186 ct 476 -189 476 -192 476 -194 ct 476 -196 477 -198 477 -198 ct 
508 -198 l  508 -196 508 -190 507 -181 ct 507 -173 507 -160 507 -144 ct 507 77 l 
474 77 l  474 -2 l  474 -5 474 -9 474 -12 ct 474 -15 475 -18 475 -22 ct 475 -25 475 -28 475 -32 ct 
475 -32 l  472 -26 468 -20 464 -16 ct 461 -11 456 -8 451 -5 ct 446 -2 441 1 434 2 ct 
428 3 421 4 413 4 ct p
474 -100 m  474 -114 473 -126 471 -136 ct 468 -145 465 -153 460 -159 ct 456 -165 450 -169 444 -171 ct 
437 -174 430 -175 422 -175 ct 414 -175 407 -173 401 -170 ct 395 -167 390 -163 386 -156 ct 
383 -150 380 -142 378 -132 ct 377 -122 376 -111 376 -98 ct 376 -85 377 -73 378 -64 ct 
380 -54 382 -46 386 -40 ct 390 -33 395 -29 400 -26 ct 406 -23 413 -21 422 -21 ct 
429 -21 436 -22 442 -24 ct 449 -27 454 -31 459 -37 ct 464 -42 467 -50 470 -61 ct 
473 -71 474 -84 474 -100 ct p ef
588 -228 m  588 -222 588 -216 587 -211 ct 587 -206 586 -201 585 -196 ct 584 -192 582 -188 580 -184 ct 
579 -180 577 -176 574 -172 ct 552 -172 l  557 -180 562 -188 565 -196 ct 567 -204 569 -211 569 -219 ct 
553 -219 l  553 -255 l  588 -255 l  588 -228 l  p ef
pom
1445 16645 m  11514 16645 l  ps
11944 16645 m  11494 16496 l  11494 16795 l  11944 16645 l  p ef
pum
1495 16524 t
211 1 m  182 -74 l  66 -74 l  37 1 l  1 1 l  105 -254 l  144 -254 l  246 1 l 
211 1 l  p
139 -185 m  137 -190 135 -195 133 -199 ct 132 -204 130 -209 129 -213 ct 127 -217 126 -220 125 -223 ct 
124 -226 124 -227 124 -228 ct 124 -227 123 -226 122 -223 ct 121 -220 120 -217 119 -213 ct 
117 -209 116 -204 114 -199 ct 112 -194 111 -189 109 -185 ct 76 -101 l  171 -101 l 
139 -185 l  p ef
473 -72 m  473 -59 471 -48 466 -39 ct 461 -30 454 -22 445 -16 ct 437 -11 427 -7 415 -4 ct 
404 -1 392 0 380 0 ct 276 0 l  276 -255 l  369 -255 l  383 -255 396 -253 407 -251 ct 
418 -249 427 -245 435 -240 ct 443 -235 448 -228 452 -221 ct 456 -213 458 -204 458 -193 ct 
458 -186 457 -179 455 -173 ct 454 -166 450 -161 446 -155 ct 442 -150 437 -146 431 -142 ct 
425 -138 418 -136 410 -134 ct 420 -133 429 -130 437 -127 ct 445 -123 452 -119 457 -114 ct 
462 -108 466 -102 469 -95 ct 472 -88 473 -80 473 -72 ct p
424 -189 m  424 -202 419 -212 410 -218 ct 400 -224 387 -227 369 -227 ct 311 -227 l 
311 -146 l  369 -146 l  379 -146 388 -147 395 -149 ct 401 -151 407 -154 411 -158 ct 
416 -161 419 -166 421 -171 ct 423 -176 424 -182 424 -189 ct p
438 -74 m  438 -82 437 -89 434 -95 ct 431 -100 427 -105 421 -109 ct 416 -112 409 -115 401 -117 ct 
394 -118 385 -119 375 -119 ct 311 -119 l  311 -28 l  378 -28 l  387 -28 395 -28 402 -30 ct 
410 -31 416 -34 421 -37 ct 427 -41 431 -46 434 -52 ct 437 -58 438 -65 438 -74 ct 
p ef
593 4 m  667 -268 l  696 -268 l  622 4 l  593 4 l  p ef
722 0 m  722 -28 l  787 -28 l  787 -223 l  730 -182 l  730 -213 l  790 -255 l 
820 -255 l  820 -28 l  882 -28 l  882 0 l  722 0 l  p ef
1087 -83 m  1087 -70 1085 -58 1081 -48 ct 1078 -37 1072 -28 1065 -20 ct 1059 -13 1050 -7 1040 -2 ct 
1029 2 1018 4 1004 4 ct 990 4 977 1 965 -4 ct 954 -10 945 -18 938 -29 ct 930 -40 925 -53 921 -68 ct 
918 -84 916 -101 916 -121 ct 916 -144 918 -164 922 -181 ct 926 -198 932 -212 940 -223 ct 
948 -235 957 -244 969 -249 ct 980 -255 993 -258 1007 -258 ct 1016 -258 1024 -257 1031 -255 ct 
1039 -253 1046 -251 1052 -247 ct 1058 -242 1064 -237 1068 -231 ct 1073 -224 1077 -216 1079 -206 ct 
1048 -200 l  1045 -211 1040 -219 1032 -224 ct 1025 -229 1016 -232 1006 -232 ct 
998 -232 990 -230 982 -225 ct 975 -221 969 -215 964 -206 ct 959 -198 955 -188 952 -175 ct 
949 -162 948 -147 948 -131 ct 954 -141 962 -150 973 -156 ct 984 -161 996 -164 1010 -164 ct 
1021 -164 1032 -162 1041 -159 ct 1051 -155 1059 -149 1065 -142 ct 1072 -135 1077 -127 1081 -117 ct 
1085 -107 1087 -95 1087 -83 ct p
1053 -81 m  1053 -90 1052 -98 1050 -105 ct 1048 -112 1045 -118 1040 -123 ct 
1036 -128 1031 -132 1024 -135 ct 1018 -138 1011 -139 1002 -139 ct 996 -139 990 -138 984 -136 ct 
978 -135 973 -132 968 -128 ct 963 -124 959 -119 956 -112 ct 953 -106 951 -98 951 -89 ct 
951 -80 953 -71 955 -63 ct 957 -55 961 -48 965 -42 ct 970 -36 975 -31 982 -27 ct 
988 -24 995 -22 1003 -22 ct 1011 -22 1018 -24 1024 -26 ct 1030 -29 1036 -33 1040 -38 ct 
1044 -43 1048 -49 1050 -57 ct 1052 -64 1053 -72 1053 -81 ct p ef
pom
16694 16146 m  19764 16146 l  ps
20194 16146 m  19744 15996 l  19744 16296 l  20194 16146 l  p ef
16694 16645 m  19764 16645 l  ps
20194 16645 m  19744 16496 l  19744 16795 l  20194 16645 l  p ef
pum
18594 15955 t
75 4 m  55 4 40 -1 31 -12 ct 21 -22 16 -36 16 -54 ct 16 -67 18 -78 23 -86 ct 28 -94 34 -101 42 -106 ct 
50 -110 59 -113 69 -115 ct 79 -117 90 -118 100 -118 ct 144 -118 l  144 -129 l 
144 -137 143 -144 141 -150 ct 140 -156 137 -160 134 -164 ct 130 -167 126 -170 121 -172 ct 
115 -173 109 -174 102 -174 ct 96 -174 90 -174 85 -173 ct 80 -172 76 -170 72 -168 ct 
68 -165 65 -162 63 -158 ct 61 -154 59 -149 58 -143 ct 24 -146 l  26 -154 28 -161 31 -167 ct 
35 -174 39 -179 46 -184 ct 52 -189 60 -192 69 -195 ct 78 -197 90 -199 103 -199 ct 
127 -199 146 -193 158 -182 ct 171 -171 177 -154 177 -133 ct 177 -49 l  177 -39 178 -32 181 -27 ct 
183 -22 188 -20 195 -20 ct 197 -20 199 -20 201 -20 ct 202 -20 204 -21 206 -21 ct 
206 -1 l  202 0 198 1 194 1 ct 190 2 185 2 181 2 ct 175 2 169 1 165 0 ct 160 -2 157 -4 154 -8 ct 
151 -11 149 -15 148 -20 ct 146 -25 145 -30 145 -37 ct 144 -37 l  141 -31 137 -25 133 -20 ct 
128 -15 124 -11 118 -7 ct 112 -4 106 -1 99 1 ct 92 3 84 4 75 4 ct p
82 -20 m  93 -20 102 -22 109 -26 ct 117 -30 124 -35 129 -40 ct 134 -46 138 -53 140 -60 ct 
143 -66 144 -73 144 -79 ct 144 -95 l  108 -95 l  100 -95 93 -95 86 -94 ct 79 -93 72 -91 67 -88 ct 
61 -85 57 -80 54 -75 ct 51 -70 49 -62 49 -54 ct 49 -43 52 -35 58 -29 ct 63 -23 72 -20 82 -20 ct 
p ef
253 -98 m  253 -87 254 -77 255 -67 ct 257 -58 259 -50 263 -43 ct 267 -36 272 -31 279 -27 ct 
285 -24 293 -22 302 -22 ct 314 -22 323 -25 331 -31 ct 339 -37 344 -46 345 -59 ct 
378 -59 l  377 -51 375 -43 371 -35 ct 368 -28 363 -21 356 -15 ct 350 -9 343 -5 334 -1 ct 
325 2 315 4 303 4 ct 288 4 275 1 264 -4 ct 253 -9 244 -16 238 -25 ct 231 -34 226 -45 223 -57 ct 
220 -70 219 -83 219 -97 ct 219 -111 220 -122 222 -132 ct 224 -142 227 -151 231 -158 ct 
235 -166 240 -172 245 -177 ct 250 -183 256 -187 262 -190 ct 268 -193 275 -195 282 -196 ct 
289 -198 296 -198 303 -198 ct 314 -198 323 -197 332 -194 ct 340 -191 348 -187 354 -182 ct 
360 -176 365 -170 369 -163 ct 373 -156 376 -148 377 -140 ct 344 -138 l  342 -148 338 -157 331 -163 ct 
324 -170 314 -173 302 -173 ct 292 -173 285 -171 278 -168 ct 272 -165 267 -161 263 -155 ct 
259 -148 257 -141 255 -131 ct 254 -122 253 -111 253 -98 ct p ef
536 0 m  470 -89 l  446 -70 l  446 0 l  414 0 l  414 -268 l  446 -268 l 
446 -101 l  532 -195 l  570 -195 l  491 -111 l  575 0 l  536 0 l  p ef
pom
pum
18594 16555 t
143 -230 m  129 -230 116 -227 105 -223 ct 94 -218 84 -211 77 -202 ct 69 -193 63 -182 60 -170 ct 
56 -157 54 -143 54 -128 ct 54 -113 56 -99 60 -86 ct 64 -73 70 -62 78 -53 ct 86 -44 95 -37 107 -32 ct 
118 -27 130 -24 145 -24 ct 154 -24 163 -26 172 -28 ct 180 -31 187 -34 194 -39 ct 
200 -44 206 -49 211 -56 ct 216 -62 221 -69 225 -77 ct 253 -63 l  249 -54 243 -45 236 -37 ct 
229 -28 221 -21 212 -15 ct 203 -9 193 -5 181 -1 ct 170 2 157 4 143 4 ct 122 4 104 1 89 -6 ct 
73 -12 60 -22 50 -33 ct 40 -45 32 -59 27 -75 ct 21 -91 19 -109 19 -128 ct 19 -148 22 -166 27 -182 ct 
33 -198 41 -212 51 -223 ct 62 -234 75 -243 90 -249 ct 105 -255 123 -258 143 -258 ct 
170 -258 192 -253 211 -242 ct 229 -232 242 -216 251 -195 ct 218 -184 l  216 -190 212 -196 208 -201 ct 
204 -207 199 -212 193 -216 ct 187 -220 180 -224 171 -226 ct 163 -229 154 -230 143 -230 ct 
p ef
368 4 m  442 -268 l  471 -268 l  397 4 l  368 4 l  p ef
498 0 m  498 -28 l  563 -28 l  563 -223 l  506 -182 l  506 -213 l  566 -255 l 
596 -255 l  596 -28 l  658 -28 l  658 0 l  498 0 l  p ef
863 -83 m  863 -70 861 -58 857 -48 ct 854 -37 848 -28 841 -20 ct 835 -13 826 -7 816 -2 ct 
805 2 794 4 780 4 ct 766 4 753 1 741 -4 ct 730 -10 721 -18 714 -29 ct 706 -40 701 -53 697 -68 ct 
694 -84 692 -101 692 -121 ct 692 -144 694 -164 698 -181 ct 702 -198 708 -212 716 -223 ct 
724 -235 733 -244 745 -249 ct 756 -255 769 -258 783 -258 ct 792 -258 800 -257 807 -255 ct 
815 -253 822 -251 828 -247 ct 834 -242 840 -237 844 -231 ct 849 -224 853 -216 855 -206 ct 
824 -200 l  821 -211 816 -219 808 -224 ct 801 -229 792 -232 782 -232 ct 774 -232 766 -230 758 -225 ct 
751 -221 745 -215 740 -206 ct 735 -198 731 -188 728 -175 ct 725 -162 724 -147 724 -131 ct 
730 -141 738 -150 749 -156 ct 760 -161 772 -164 786 -164 ct 797 -164 808 -162 817 -159 ct 
827 -155 835 -149 841 -142 ct 848 -135 853 -127 857 -117 ct 861 -107 863 -95 863 -83 ct 
p
829 -81 m  829 -90 828 -98 826 -105 ct 824 -112 821 -118 816 -123 ct 812 -128 807 -132 800 -135 ct 
794 -138 787 -139 778 -139 ct 772 -139 766 -138 760 -136 ct 754 -135 749 -132 744 -128 ct 
739 -124 735 -119 732 -112 ct 729 -106 727 -98 727 -89 ct 727 -80 729 -71 731 -63 ct 
733 -55 737 -48 741 -42 ct 746 -36 751 -31 758 -27 ct 764 -24 771 -22 779 -22 ct 
787 -22 794 -24 800 -26 ct 806 -29 812 -33 816 -38 ct 820 -43 824 -49 826 -57 ct 
828 -64 829 -72 829 -81 ct p ef
pom
0 lw 0.207 0.398 0.644 c 14319 17795 m  11944 17795 l  11944 13796 l  16694 13796 l 
16694 17795 l  14319 17795 l  pc
0.699 0.699 0.699 c 14319 14046 m  11944 14046 l  11944 13546 l  16694 13546 l 
16694 14046 l  14319 14046 l  p ef
0.207 0.398 0.644 c 14319 14046 m  11944 14046 l  11944 13546 l  16694 13546 l 
16694 14046 l  14319 14046 l  pc
pum
13919 13968 t
0.003 0.003 0.003 c 132 103 m  117 103 104 101 92 98 ct 81 95 71 91 63 85 ct 55 79 48 73 43 65 ct 
38 57 34 48 32 38 ct 75 32 l  78 44 85 54 94 60 ct 104 67 117 70 133 70 ct 143 70 152 69 160 66 ct 
168 63 175 59 181 53 ct 186 47 191 39 194 29 ct 197 19 198 8 198 -6 ct 198 -48 l 
198 -48 l  195 -42 191 -35 186 -29 ct 181 -23 175 -18 168 -13 ct 162 -9 154 -5 145 -2 ct 
136 1 125 2 114 2 ct 97 2 83 -1 71 -6 ct 59 -12 50 -20 42 -31 ct 35 -42 29 -56 26 -73 ct 
22 -89 21 -108 21 -130 ct 21 -151 22 -170 26 -186 ct 29 -203 35 -217 43 -229 ct 
51 -241 61 -250 73 -256 ct 86 -262 101 -265 119 -265 ct 137 -265 153 -261 167 -252 ct 
180 -244 191 -232 198 -216 ct 199 -216 l  199 -220 199 -225 199 -230 ct 199 -235 200 -240 200 -244 ct 
200 -248 200 -252 201 -256 ct 201 -259 201 -260 202 -260 ct 243 -260 l  243 -259 243 -257 242 -253 ct 
242 -250 242 -245 242 -241 ct 242 -236 242 -230 242 -225 ct 241 -219 241 -213 241 -206 ct 
241 -7 l  241 30 232 57 215 75 ct 197 94 169 103 132 103 ct p
198 -130 m  198 -149 196 -164 192 -177 ct 188 -190 183 -201 177 -209 ct 170 -217 163 -223 155 -227 ct 
146 -231 138 -233 129 -233 ct 118 -233 109 -231 101 -227 ct 93 -223 86 -217 81 -209 ct 
76 -200 72 -190 69 -177 ct 67 -164 66 -148 66 -130 ct 66 -112 67 -96 69 -83 ct 
72 -70 76 -60 81 -52 ct 86 -44 92 -38 100 -35 ct 108 -32 118 -30 129 -30 ct 137 -30 146 -32 154 -36 ct 
162 -39 170 -45 176 -53 ct 183 -61 188 -72 192 -84 ct 196 -97 198 -112 198 -130 ct 
p ef
341 -132 m  341 -117 342 -103 345 -90 ct 347 -78 350 -67 356 -58 ct 361 -49 368 -42 376 -37 ct 
384 -32 395 -29 407 -29 ct 423 -29 436 -33 446 -41 ct 456 -50 463 -62 465 -79 ct 
509 -79 l  508 -68 504 -58 500 -47 ct 495 -37 488 -28 480 -21 ct 472 -13 462 -7 450 -2 ct 
438 3 424 5 408 5 ct 388 5 371 2 356 -5 ct 342 -12 330 -22 321 -34 ct 313 -46 306 -60 302 -77 ct 
298 -94 296 -111 296 -131 ct 296 -148 297 -164 300 -177 ct 303 -191 307 -202 313 -213 ct 
318 -223 324 -231 331 -238 ct 338 -245 346 -250 354 -254 ct 362 -258 371 -261 380 -263 ct 
389 -265 399 -266 408 -266 ct 423 -266 436 -264 447 -260 ct 458 -256 468 -250 477 -243 ct 
485 -236 492 -228 497 -219 ct 502 -209 505 -199 508 -188 ct 463 -185 l  461 -199 455 -211 446 -219 ct 
437 -228 424 -232 407 -232 ct 394 -232 384 -230 376 -226 ct 367 -222 361 -216 356 -207 ct 
350 -199 347 -188 345 -176 ct 342 -163 341 -149 341 -132 ct p ef
723 -42 m  715 -25 704 -13 691 -6 ct 678 1 661 5 642 5 ct 609 5 585 -6 569 -28 ct 
554 -51 546 -84 546 -129 ct 546 -220 578 -266 642 -266 ct 662 -266 678 -262 691 -255 ct 
704 -248 715 -236 723 -221 ct 724 -221 l  724 -222 723 -225 723 -228 ct 723 -232 723 -235 723 -239 ct 
723 -243 723 -246 723 -250 ct 723 -253 723 -256 723 -257 ct 723 -358 l  766 -358 l 
766 -53 l  766 -46 766 -40 767 -34 ct 767 -29 767 -23 767 -18 ct 767 -14 767 -9 767 -6 ct 
768 -3 768 -1 768 -1 ct 726 -1 l  726 -2 726 -5 726 -8 ct 725 -10 725 -14 725 -18 ct 
725 -21 724 -25 724 -29 ct 724 -34 724 -38 724 -42 ct 723 -42 l  p
591 -131 m  591 -113 592 -97 595 -84 ct 597 -71 601 -61 606 -53 ct 611 -44 617 -38 625 -34 ct 
632 -30 642 -29 653 -29 ct 664 -29 674 -30 683 -34 ct 692 -38 699 -44 705 -52 ct 
711 -60 715 -71 718 -85 ct 722 -98 723 -114 723 -134 ct 723 -152 722 -168 718 -181 ct 
715 -193 711 -204 705 -212 ct 699 -220 692 -225 683 -229 ct 675 -232 665 -234 653 -234 ct 
643 -234 634 -232 626 -228 ct 618 -225 612 -219 607 -210 ct 601 -202 598 -192 595 -178 ct 
593 -165 591 -149 591 -131 ct p ef
pom
0.800 0.800 0.800 c 14319 14546 m  11944 14546 l  11944 14046 l  16694 14046 l 
16694 14546 l  14319 14546 l  p ef
0.207 0.398 0.644 c 14319 14545 m  11944 14545 l  11944 14046 l  16694 14046 l 
16694 14545 l  14319 14545 l  pc
pum
13799 14425 t
0.003 0.003 0.003 c 65 -226 m  65 -132 l  207 -132 l  207 -103 l  65 -103 l 
65 0 l  30 0 l  30 -254 l  211 -254 l  211 -226 l  65 -226 l  p ef
454 -70 m  454 -59 452 -49 448 -40 ct 443 -31 437 -23 428 -17 ct 420 -10 409 -5 396 -2 ct 
382 2 367 4 349 4 ct 317 4 292 -2 275 -13 ct 257 -24 246 -40 241 -61 ct 274 -67 l 
276 -61 279 -55 282 -49 ct 285 -44 290 -39 296 -35 ct 302 -31 310 -28 318 -26 ct 
327 -24 338 -23 350 -23 ct 360 -23 370 -24 378 -26 ct 387 -27 394 -30 400 -34 ct 
406 -37 411 -42 415 -48 ct 418 -53 420 -60 420 -68 ct 420 -76 418 -83 414 -88 ct 
410 -93 405 -98 398 -101 ct 391 -105 383 -107 373 -110 ct 364 -112 353 -114 342 -117 ct 
335 -119 328 -120 320 -122 ct 313 -124 306 -126 300 -129 ct 293 -131 287 -135 281 -138 ct 
275 -142 270 -146 266 -151 ct 262 -155 259 -161 256 -168 ct 254 -174 253 -181 253 -190 ct 
253 -202 255 -212 260 -221 ct 265 -229 272 -237 280 -242 ct 289 -248 299 -252 311 -254 ct 
323 -257 336 -258 349 -258 ct 365 -258 379 -257 390 -254 ct 401 -252 411 -248 418 -243 ct 
426 -238 432 -232 437 -225 ct 441 -218 445 -209 448 -199 ct 414 -194 l  412 -200 410 -205 407 -210 ct 
403 -215 399 -219 394 -222 ct 389 -225 383 -228 375 -229 ct 368 -231 359 -232 349 -232 ct 
337 -232 327 -231 319 -229 ct 311 -227 305 -224 300 -220 ct 295 -217 292 -212 289 -208 ct 
287 -203 286 -197 286 -192 ct 286 -184 288 -178 292 -173 ct 296 -168 301 -164 307 -161 ct 
314 -158 322 -155 330 -153 ct 339 -150 348 -148 357 -146 ct 365 -144 373 -143 381 -141 ct 
388 -139 396 -137 403 -134 ct 410 -131 417 -128 423 -125 ct 429 -121 435 -117 439 -112 ct 
444 -107 447 -101 450 -94 ct 453 -87 454 -79 454 -70 ct p ef
717 0 m  717 -170 l  717 -176 717 -182 717 -189 ct 717 -195 717 -201 718 -206 ct 
718 -212 718 -218 718 -224 ct 717 -218 715 -212 713 -206 ct 712 -201 710 -195 708 -189 ct 
706 -183 704 -178 703 -173 ct 637 0 l  613 0 l  546 -173 l  545 -175 544 -177 544 -180 ct 
543 -182 542 -185 541 -187 ct 540 -190 539 -193 538 -196 ct 537 -199 537 -201 536 -204 ct 
534 -210 532 -217 530 -224 ct 530 -217 530 -211 530 -204 ct 531 -198 531 -192 531 -186 ct 
531 -180 531 -174 531 -170 ct 531 0 l  500 0 l  500 -255 l  546 -255 l  613 -78 l 
614 -76 615 -73 617 -69 ct 618 -65 619 -61 620 -57 ct 621 -53 622 -49 623 -46 ct 
624 -42 624 -40 625 -38 ct 625 -40 626 -42 627 -46 ct 628 -50 629 -53 630 -57 ct 
631 -61 633 -65 634 -69 ct 635 -73 636 -76 637 -78 ct 704 -255 l  748 -255 l 
748 0 l  717 0 l  p ef
1025 -130 m  1025 -109 1021 -90 1015 -74 ct 1009 -58 1000 -44 989 -33 ct 978 -22 965 -14 949 -8 ct 
934 -3 918 0 901 0 ct 805 0 l  805 -255 l  890 -255 l  909 -255 927 -252 944 -247 ct 
960 -242 975 -235 987 -225 ct 998 -215 1008 -202 1014 -186 ct 1021 -170 1025 -152 1025 -130 ct 
p
990 -130 m  990 -147 987 -162 982 -174 ct 977 -186 971 -196 962 -204 ct 953 -212 942 -218 930 -221 ct 
917 -225 904 -227 889 -227 ct 840 -227 l  840 -28 l  897 -28 l  910 -28 922 -30 934 -34 ct 
945 -38 955 -45 963 -53 ct 972 -62 978 -73 983 -85 ct 987 -98 990 -113 990 -130 ct 
p ef
pom
0.449 0.625 0.812 c 13189 15293 m  13138 15108 13377 14932 13615 14932 ct 
13690 14931 13768 14949 13831 14976 ct 13892 14892 14006 14841 14133 14841 ct 
14218 14843 14308 14868 14371 14914 ct 14417 14839 14514 14796 14618 14796 ct 
14706 14796 14786 14827 14837 14876 ct 14896 14826 14984 14796 15076 14796 ct 
15225 14796 15351 14874 15377 14984 ct 15521 15014 15626 15114 15626 15228 ct 
15626 15262 15618 15296 15596 15328 ct 15658 15383 15695 15452 15695 15522 ct 
15695 15682 15530 15816 15319 15839 ct 15319 15991 15156 16110 14952 16110 ct 
14882 16110 14816 16096 14757 16068 ct 14704 16202 14534 16297 14344 16297 ct 
14203 16297 14069 16240 13989 16151 ct 13914 16185 13953 16205 13738 16205 ct 
13561 16205 13398 16135 13313 16021 ct 13109 16019 13005 15928 13005 15814 ct 
13005 15761 13031 15713 13080 15674 ct 12992 15641 12944 15574 12944 15499 ct 
12944 15392 13050 15305 13189 15293 ct 13189 15293 l  p
12944 14796 m  12944 14796 l  p
15695 16297 m  15695 16297 l  p ef
0.207 0.398 0.644 c 13189 15292 m  13138 15107 13377 14931 13615 14931 ct 
13690 14930 13768 14948 13831 14975 ct 13892 14891 14006 14840 14133 14840 ct 
14218 14842 14308 14867 14371 14913 ct 14417 14838 14514 14795 14618 14795 ct 
14706 14795 14786 14826 14837 14875 ct 14896 14825 14984 14795 15076 14795 ct 
15225 14795 15351 14873 15377 14983 ct 15521 15013 15626 15113 15626 15227 ct 
15626 15261 15618 15295 15596 15327 ct 15658 15382 15695 15451 15695 15521 ct 
15695 15681 15530 15815 15319 15838 ct 15319 15990 15156 16109 14952 16109 ct 
14882 16109 14816 16095 14757 16067 ct 14704 16201 14534 16296 14344 16296 ct 
14203 16296 14069 16239 13989 16150 ct 13914 16184 13953 16204 13738 16204 ct 
13561 16204 13398 16134 13313 16020 ct 13109 16018 13005 15927 13005 15813 ct 
13005 15760 13031 15712 13080 15673 ct 12992 15640 12944 15573 12944 15498 ct 
12944 15391 13050 15304 13189 15292 ct 13189 15292 l  pc
12944 14795 m  12944 14795 l  pc
15695 16296 m  15695 16296 l  pc
13189 15292 m  13192 15309 13203 15329 13210 15345 ct ps
12944 14795 m  12944 14795 l  pc
15695 16296 m  15695 16296 l  pc
13831 14975 m  13861 14988 13896 15006 13920 15025 ct ps
12944 14795 m  12944 14795 l  pc
15695 16296 m  15695 16296 l  pc
14371 14913 m  14361 14927 14355 14945 14348 14961 ct ps
12944 14795 m  12944 14795 l  pc
15695 16296 m  15695 16296 l  pc
14837 14875 m  14818 14892 14808 14914 14795 14934 ct ps
12944 14795 m  12944 14795 l  pc
15695 16296 m  15695 16296 l  pc
15377 14983 m  15380 14995 15393 15023 15388 15029 ct ps
12944 14795 m  12944 14795 l  pc
15695 16296 m  15695 16296 l  pc
15596 15327 m  15575 15362 15545 15394 15505 15419 ct ps
12944 14795 m  12944 14795 l  pc
15695 16296 m  15695 16296 l  pc
15320 15838 m  15330 15781 15272 15642 15109 15590 ct ps
12944 14795 m  12944 14795 l  pc
15695 16296 m  15695 16296 l  pc
14757 16067 m  14767 16044 14771 16023 14774 16001 ct ps
12944 14795 m  12944 14795 l  pc
15695 16296 m  15695 16296 l  pc
13990 16150 m  13970 16132 13957 16111 13945 16090 ct ps
12944 14795 m  12944 14795 l  pc
15695 16296 m  15695 16296 l  pc
13313 16020 m  13337 16018 13361 16013 13384 16007 ct ps
12944 14795 m  12944 14795 l  pc
15695 16296 m  15695 16296 l  pc
13080 15673 m  13122 15691 13170 15707 13240 15701 ct ps
12944 14795 m  12944 14795 l  pc
15695 16296 m  15695 16296 l  pc
pum
13954 15661 t
0.003 0.003 0.003 c 164 -264 m  147 -264 132 -261 120 -255 ct 107 -250 96 -242 88 -232 ct 
79 -222 73 -209 68 -195 ct 64 -181 62 -165 62 -147 ct 62 -130 64 -114 69 -99 ct 
73 -85 80 -72 89 -62 ct 98 -51 109 -43 122 -37 ct 135 -31 149 -28 165 -28 ct 177 -28 187 -30 196 -33 ct 
205 -36 214 -40 221 -45 ct 229 -51 236 -57 241 -65 ct 247 -72 253 -80 257 -89 ct 
289 -73 l  284 -62 278 -52 270 -43 ct 262 -33 253 -25 243 -18 ct 232 -11 221 -6 207 -2 ct 
194 2 180 4 163 4 ct 140 4 119 0 102 -7 ct 84 -15 69 -25 57 -39 ct 45 -52 36 -68 30 -87 ct 
24 -105 21 -125 21 -147 ct 21 -170 25 -191 31 -209 ct 37 -227 46 -243 58 -256 ct 
70 -269 85 -279 103 -286 ct 120 -293 141 -296 163 -296 ct 194 -296 220 -290 241 -278 ct 
262 -266 277 -248 287 -224 ct 249 -211 l  247 -218 243 -225 238 -231 ct 233 -237 228 -243 221 -248 ct 
214 -253 205 -256 196 -259 ct 186 -262 176 -264 164 -264 ct p ef
340 0 m  340 -292 l  379 -292 l  379 -32 l  526 -32 l  526 0 l  340 0 l 
p ef
pom
0.449 0.625 0.812 c 14319 16795 m  13444 16795 l  13444 16546 l  15194 16546 l 
15194 16795 l  14319 16795 l  p ef
0.207 0.398 0.644 c 14319 16795 m  13444 16795 l  13444 16545 l  15194 16545 l 
15194 16795 l  14319 16795 l  pc
pum
13959 16770 t
0.003 0.003 0.003 c 20 0 m  20 -114 l  20 -118 20 -121 19 -124 ct 19 -127 19 -130 19 -134 ct 
19 -137 19 -139 19 -142 ct 19 -145 19 -147 19 -149 ct 42 -149 l  42 -147 42 -145 42 -142 ct 
43 -139 43 -137 43 -134 ct 43 -131 43 -128 43 -125 ct 43 -123 43 -121 43 -119 ct 
44 -119 l  46 -124 47 -129 49 -134 ct 51 -138 54 -141 56 -144 ct 59 -147 62 -149 66 -150 ct 
69 -151 74 -152 79 -152 ct 81 -152 83 -152 85 -152 ct 87 -151 88 -151 89 -151 ct 
89 -128 l  88 -128 86 -129 83 -129 ct 81 -129 79 -129 76 -129 ct 70 -129 65 -128 61 -125 ct 
57 -123 54 -119 52 -115 ct 49 -110 47 -105 46 -98 ct 45 -92 44 -85 44 -78 ct 44 0 l 
20 0 l  p ef
131 -69 m  131 -61 132 -54 133 -47 ct 135 -41 138 -35 141 -31 ct 144 -26 148 -22 154 -20 ct 
159 -17 165 -16 173 -16 ct 183 -16 192 -18 198 -22 ct 205 -26 209 -32 212 -38 ct 
233 -32 l  232 -28 230 -24 227 -20 ct 224 -16 220 -12 216 -9 ct 211 -5 205 -2 198 0 ct 
191 2 183 3 173 3 ct 151 3 134 -4 122 -17 ct 111 -30 105 -50 105 -75 ct 105 -89 107 -101 110 -111 ct 
114 -121 118 -129 125 -135 ct 131 -141 138 -145 146 -148 ct 154 -151 162 -152 172 -152 ct 
184 -152 195 -150 203 -146 ct 211 -142 218 -136 223 -129 ct 228 -122 232 -113 234 -104 ct 
236 -94 237 -84 237 -72 ct 237 -69 l  131 -69 l  p
212 -88 m  210 -104 206 -115 200 -123 ct 193 -130 184 -134 171 -134 ct 167 -134 163 -133 158 -132 ct 
154 -130 149 -128 146 -124 ct 142 -121 138 -116 136 -111 ct 133 -105 132 -97 131 -88 ct 
212 -88 l  p ef
325 59 m  317 59 309 58 303 56 ct 296 55 290 52 286 49 ct 281 46 277 42 274 37 ct 
271 33 269 28 268 22 ct 293 19 l  295 25 298 31 304 34 ct 310 38 317 40 326 40 ct 
332 40 337 39 341 38 ct 346 36 350 34 353 30 ct 356 27 359 22 361 17 ct 362 11 363 5 363 -3 ct 
363 -27 l  363 -27 l  361 -24 359 -20 356 -17 ct 353 -13 350 -10 346 -7 ct 342 -5 338 -3 333 -1 ct 
327 1 322 1 315 1 ct 306 1 297 0 291 -3 ct 284 -7 278 -11 274 -18 ct 270 -24 267 -32 265 -41 ct 
263 -51 262 -62 262 -74 ct 262 -86 263 -97 265 -106 ct 267 -116 270 -124 274 -130 ct 
279 -137 285 -142 292 -146 ct 299 -149 308 -151 318 -151 ct 328 -151 337 -149 345 -144 ct 
353 -139 359 -132 363 -123 ct 363 -123 l  363 -125 364 -128 364 -131 ct 364 -134 364 -136 364 -139 ct 
364 -142 364 -144 365 -146 ct 365 -147 365 -148 365 -148 ct 389 -148 l  389 -148 388 -146 388 -144 ct 
388 -142 388 -140 388 -137 ct 388 -134 388 -131 388 -128 ct 388 -125 388 -121 388 -118 ct 
388 -4 l  388 17 383 33 372 43 ct 362 54 347 59 325 59 ct p
363 -74 m  363 -85 362 -93 360 -101 ct 358 -108 355 -114 351 -119 ct 347 -124 343 -127 338 -129 ct 
334 -131 329 -133 324 -133 ct 317 -133 312 -131 307 -129 ct 303 -127 299 -124 296 -119 ct 
293 -114 291 -108 290 -101 ct 288 -93 287 -84 287 -74 ct 287 -63 288 -54 290 -47 ct 
291 -40 293 -34 296 -30 ct 299 -25 303 -22 307 -20 ct 312 -18 317 -17 323 -17 ct 
328 -17 333 -18 338 -20 ct 343 -22 347 -26 351 -30 ct 354 -35 357 -41 360 -48 ct 
362 -55 363 -64 363 -74 ct p ef
402 56 m  402 38 l  566 38 l  566 56 l  402 56 l  p ef
620 3 m  605 3 594 -1 586 -9 ct 579 -17 575 -28 575 -42 ct 575 -52 577 -60 581 -66 ct 
584 -72 589 -77 595 -81 ct 601 -84 608 -87 616 -88 ct 623 -90 631 -90 639 -90 ct 
673 -90 l  673 -99 l  673 -105 672 -110 671 -115 ct 670 -119 668 -122 665 -125 ct 
662 -128 659 -130 655 -131 ct 651 -132 646 -133 641 -133 ct 636 -133 632 -133 628 -132 ct 
624 -131 621 -130 618 -128 ct 615 -126 613 -124 611 -121 ct 609 -118 608 -114 607 -109 ct 
582 -112 l  583 -117 584 -123 587 -128 ct 589 -133 593 -137 598 -141 ct 603 -144 608 -147 616 -149 ct 
623 -151 631 -152 641 -152 ct 660 -152 674 -148 684 -139 ct 693 -130 698 -118 698 -102 ct 
698 -37 l  698 -30 699 -24 701 -21 ct 703 -17 706 -15 712 -15 ct 713 -15 714 -15 716 -15 ct 
717 -15 719 -16 720 -16 ct 720 -1 l  717 0 714 1 711 1 ct 707 1 704 2 701 2 ct 
696 2 692 1 689 0 ct 685 -1 683 -3 680 -6 ct 678 -8 677 -12 676 -15 ct 675 -19 674 -23 674 -28 ct 
673 -28 l  670 -24 667 -19 664 -15 ct 661 -11 657 -8 653 -5 ct 649 -3 644 -1 639 1 ct 
633 2 627 3 620 3 ct p
626 -16 m  634 -16 640 -17 646 -20 ct 652 -23 657 -26 661 -31 ct 665 -35 668 -40 670 -46 ct 
672 -51 673 -56 673 -61 ct 673 -73 l  646 -73 l  640 -73 634 -73 628 -72 ct 
623 -71 618 -69 614 -67 ct 610 -65 607 -62 604 -57 ct 602 -53 600 -48 600 -41 ct 
600 -33 603 -27 607 -22 ct 611 -18 618 -16 626 -16 ct p ef
pom
0.449 0.625 0.812 c 14319 17145 m  13444 17145 l  13444 16895 l  15194 16895 l 
15194 17145 l  14319 17145 l  p ef
0.207 0.398 0.644 c 14319 17145 m  13444 17145 l  13444 16895 l  15194 16895 l 
15194 17145 l  14319 17145 l  pc
pum
13959 17120 t
0.003 0.003 0.003 c 20 0 m  20 -114 l  20 -118 20 -121 19 -124 ct 19 -127 19 -130 19 -134 ct 
19 -137 19 -139 19 -142 ct 19 -145 19 -147 19 -149 ct 42 -149 l  42 -147 42 -145 42 -142 ct 
43 -139 43 -137 43 -134 ct 43 -131 43 -128 43 -125 ct 43 -123 43 -121 43 -119 ct 
44 -119 l  46 -124 47 -129 49 -134 ct 51 -138 54 -141 56 -144 ct 59 -147 62 -149 66 -150 ct 
69 -151 74 -152 79 -152 ct 81 -152 83 -152 85 -152 ct 87 -151 88 -151 89 -151 ct 
89 -128 l  88 -128 86 -129 83 -129 ct 81 -129 79 -129 76 -129 ct 70 -129 65 -128 61 -125 ct 
57 -123 54 -119 52 -115 ct 49 -110 47 -105 46 -98 ct 45 -92 44 -85 44 -78 ct 44 0 l 
20 0 l  p ef
131 -69 m  131 -61 132 -54 133 -47 ct 135 -41 138 -35 141 -31 ct 144 -26 148 -22 154 -20 ct 
159 -17 165 -16 173 -16 ct 183 -16 192 -18 198 -22 ct 205 -26 209 -32 212 -38 ct 
233 -32 l  232 -28 230 -24 227 -20 ct 224 -16 220 -12 216 -9 ct 211 -5 205 -2 198 0 ct 
191 2 183 3 173 3 ct 151 3 134 -4 122 -17 ct 111 -30 105 -50 105 -75 ct 105 -89 107 -101 110 -111 ct 
114 -121 118 -129 125 -135 ct 131 -141 138 -145 146 -148 ct 154 -151 162 -152 172 -152 ct 
184 -152 195 -150 203 -146 ct 211 -142 218 -136 223 -129 ct 228 -122 232 -113 234 -104 ct 
236 -94 237 -84 237 -72 ct 237 -69 l  131 -69 l  p
212 -88 m  210 -104 206 -115 200 -123 ct 193 -130 184 -134 171 -134 ct 167 -134 163 -133 158 -132 ct 
154 -130 149 -128 146 -124 ct 142 -121 138 -116 136 -111 ct 133 -105 132 -97 131 -88 ct 
212 -88 l  p ef
325 59 m  317 59 309 58 303 56 ct 296 55 290 52 286 49 ct 281 46 277 42 274 37 ct 
271 33 269 28 268 22 ct 293 19 l  295 25 298 31 304 34 ct 310 38 317 40 326 40 ct 
332 40 337 39 341 38 ct 346 36 350 34 353 30 ct 356 27 359 22 361 17 ct 362 11 363 5 363 -3 ct 
363 -27 l  363 -27 l  361 -24 359 -20 356 -17 ct 353 -13 350 -10 346 -7 ct 342 -5 338 -3 333 -1 ct 
327 1 322 1 315 1 ct 306 1 297 0 291 -3 ct 284 -7 278 -11 274 -18 ct 270 -24 267 -32 265 -41 ct 
263 -51 262 -62 262 -74 ct 262 -86 263 -97 265 -106 ct 267 -116 270 -124 274 -130 ct 
279 -137 285 -142 292 -146 ct 299 -149 308 -151 318 -151 ct 328 -151 337 -149 345 -144 ct 
353 -139 359 -132 363 -123 ct 363 -123 l  363 -125 364 -128 364 -131 ct 364 -134 364 -136 364 -139 ct 
364 -142 364 -144 365 -146 ct 365 -147 365 -148 365 -148 ct 389 -148 l  389 -148 388 -146 388 -144 ct 
388 -142 388 -140 388 -137 ct 388 -134 388 -131 388 -128 ct 388 -125 388 -121 388 -118 ct 
388 -4 l  388 17 383 33 372 43 ct 362 54 347 59 325 59 ct p
363 -74 m  363 -85 362 -93 360 -101 ct 358 -108 355 -114 351 -119 ct 347 -124 343 -127 338 -129 ct 
334 -131 329 -133 324 -133 ct 317 -133 312 -131 307 -129 ct 303 -127 299 -124 296 -119 ct 
293 -114 291 -108 290 -101 ct 288 -93 287 -84 287 -74 ct 287 -63 288 -54 290 -47 ct 
291 -40 293 -34 296 -30 ct 299 -25 303 -22 307 -20 ct 312 -18 317 -17 323 -17 ct 
328 -17 333 -18 338 -20 ct 343 -22 347 -26 351 -30 ct 354 -35 357 -41 360 -48 ct 
362 -55 363 -64 363 -74 ct p ef
402 56 m  402 38 l  566 38 l  566 56 l  402 56 l  p ef
708 -76 m  708 -24 690 2 653 2 ct 642 2 633 0 625 -4 ct 618 -8 611 -14 607 -24 ct 
607 -24 l  607 -21 606 -19 606 -16 ct 606 -13 606 -11 606 -9 ct 606 -7 606 -5 605 -3 ct 
605 -1 605 -1 605 -1 ct 581 -1 l  581 -2 581 -3 581 -5 ct 582 -7 582 -9 582 -12 ct 
582 -15 582 -18 582 -21 ct 582 -24 582 -28 582 -31 ct 582 -205 l  607 -205 l 
607 -147 l  607 -144 607 -141 607 -139 ct 607 -136 607 -134 607 -132 ct 606 -130 606 -127 606 -125 ct 
607 -125 l  611 -135 617 -142 625 -146 ct 633 -150 642 -152 653 -152 ct 672 -152 686 -146 695 -133 ct 
704 -121 708 -101 708 -76 ct p
682 -75 m  682 -85 681 -94 680 -101 ct 679 -109 677 -115 674 -119 ct 671 -124 667 -128 663 -130 ct 
659 -132 653 -133 647 -133 ct 640 -133 635 -132 630 -130 ct 625 -128 620 -124 617 -120 ct 
614 -115 611 -109 609 -101 ct 608 -94 607 -84 607 -73 ct 607 -63 608 -54 609 -46 ct 
611 -39 614 -33 617 -29 ct 620 -24 625 -21 630 -19 ct 634 -17 640 -16 647 -16 ct 
653 -16 658 -17 662 -19 ct 667 -21 670 -25 673 -29 ct 676 -34 678 -40 680 -48 ct 
681 -55 682 -64 682 -75 ct p ef
pom
0.449 0.625 0.812 c 14319 17495 m  13444 17495 l  13444 17245 l  15194 17245 l 
15194 17495 l  14319 17495 l  p ef
0.207 0.398 0.644 c 14319 17495 m  13444 17495 l  13444 17245 l  15194 17245 l 
15194 17495 l  14319 17495 l  pc
pum
13729 17470 t
0.003 0.003 0.003 c 20 0 m  20 -114 l  20 -118 20 -121 19 -124 ct 19 -127 19 -130 19 -134 ct 
19 -137 19 -139 19 -142 ct 19 -145 19 -147 19 -149 ct 42 -149 l  42 -147 42 -145 42 -142 ct 
43 -139 43 -137 43 -134 ct 43 -131 43 -128 43 -125 ct 43 -123 43 -121 43 -119 ct 
44 -119 l  46 -124 47 -129 49 -134 ct 51 -138 54 -141 56 -144 ct 59 -147 62 -149 66 -150 ct 
69 -151 74 -152 79 -152 ct 81 -152 83 -152 85 -152 ct 87 -151 88 -151 89 -151 ct 
89 -128 l  88 -128 86 -129 83 -129 ct 81 -129 79 -129 76 -129 ct 70 -129 65 -128 61 -125 ct 
57 -123 54 -119 52 -115 ct 49 -110 47 -105 46 -98 ct 45 -92 44 -85 44 -78 ct 44 0 l 
20 0 l  p ef
131 -69 m  131 -61 132 -54 133 -47 ct 135 -41 138 -35 141 -31 ct 144 -26 148 -22 154 -20 ct 
159 -17 165 -16 173 -16 ct 183 -16 192 -18 198 -22 ct 205 -26 209 -32 212 -38 ct 
233 -32 l  232 -28 230 -24 227 -20 ct 224 -16 220 -12 216 -9 ct 211 -5 205 -2 198 0 ct 
191 2 183 3 173 3 ct 151 3 134 -4 122 -17 ct 111 -30 105 -50 105 -75 ct 105 -89 107 -101 110 -111 ct 
114 -121 118 -129 125 -135 ct 131 -141 138 -145 146 -148 ct 154 -151 162 -152 172 -152 ct 
184 -152 195 -150 203 -146 ct 211 -142 218 -136 223 -129 ct 228 -122 232 -113 234 -104 ct 
236 -94 237 -84 237 -72 ct 237 -69 l  131 -69 l  p
212 -88 m  210 -104 206 -115 200 -123 ct 193 -130 184 -134 171 -134 ct 167 -134 163 -133 158 -132 ct 
154 -130 149 -128 146 -124 ct 142 -121 138 -116 136 -111 ct 133 -105 132 -97 131 -88 ct 
212 -88 l  p ef
325 59 m  317 59 309 58 303 56 ct 296 55 290 52 286 49 ct 281 46 277 42 274 37 ct 
271 33 269 28 268 22 ct 293 19 l  295 25 298 31 304 34 ct 310 38 317 40 326 40 ct 
332 40 337 39 341 38 ct 346 36 350 34 353 30 ct 356 27 359 22 361 17 ct 362 11 363 5 363 -3 ct 
363 -27 l  363 -27 l  361 -24 359 -20 356 -17 ct 353 -13 350 -10 346 -7 ct 342 -5 338 -3 333 -1 ct 
327 1 322 1 315 1 ct 306 1 297 0 291 -3 ct 284 -7 278 -11 274 -18 ct 270 -24 267 -32 265 -41 ct 
263 -51 262 -62 262 -74 ct 262 -86 263 -97 265 -106 ct 267 -116 270 -124 274 -130 ct 
279 -137 285 -142 292 -146 ct 299 -149 308 -151 318 -151 ct 328 -151 337 -149 345 -144 ct 
353 -139 359 -132 363 -123 ct 363 -123 l  363 -125 364 -128 364 -131 ct 364 -134 364 -136 364 -139 ct 
364 -142 364 -144 365 -146 ct 365 -147 365 -148 365 -148 ct 389 -148 l  389 -148 388 -146 388 -144 ct 
388 -142 388 -140 388 -137 ct 388 -134 388 -131 388 -128 ct 388 -125 388 -121 388 -118 ct 
388 -4 l  388 17 383 33 372 43 ct 362 54 347 59 325 59 ct p
363 -74 m  363 -85 362 -93 360 -101 ct 358 -108 355 -114 351 -119 ct 347 -124 343 -127 338 -129 ct 
334 -131 329 -133 324 -133 ct 317 -133 312 -131 307 -129 ct 303 -127 299 -124 296 -119 ct 
293 -114 291 -108 290 -101 ct 288 -93 287 -84 287 -74 ct 287 -63 288 -54 290 -47 ct 
291 -40 293 -34 296 -30 ct 299 -25 303 -22 307 -20 ct 312 -18 317 -17 323 -17 ct 
328 -17 333 -18 338 -20 ct 343 -22 347 -26 351 -30 ct 354 -35 357 -41 360 -48 ct 
362 -55 363 -64 363 -74 ct p ef
402 56 m  402 38 l  566 38 l  566 56 l  402 56 l  p ef
694 -41 m  694 -34 692 -28 690 -22 ct 687 -17 683 -12 678 -8 ct 673 -5 667 -2 659 0 ct 
652 2 643 3 633 3 ct 625 3 617 2 610 1 ct 603 0 597 -2 592 -5 ct 587 -8 582 -12 579 -17 ct 
575 -22 573 -28 571 -35 ct 593 -39 l  595 -31 599 -25 606 -21 ct 612 -18 622 -16 633 -16 ct 
639 -16 644 -16 648 -17 ct 652 -18 656 -19 660 -21 ct 663 -23 665 -25 667 -28 ct 
669 -31 670 -35 670 -39 ct 670 -44 669 -47 667 -50 ct 664 -53 662 -55 658 -57 ct 
654 -59 649 -61 644 -62 ct 639 -64 633 -65 626 -67 ct 620 -69 614 -70 609 -72 ct 
603 -74 597 -77 593 -80 ct 588 -83 584 -87 581 -92 ct 578 -96 577 -102 577 -109 ct 
577 -123 582 -133 591 -140 ct 601 -147 615 -151 634 -151 ct 650 -151 663 -148 673 -142 ct 
683 -137 689 -127 691 -115 ct 669 -112 l  668 -116 667 -119 664 -121 ct 662 -124 659 -126 656 -128 ct 
653 -129 650 -131 646 -131 ct 642 -132 638 -132 634 -132 ct 622 -132 614 -131 609 -127 ct 
604 -124 601 -119 601 -112 ct 601 -108 602 -104 604 -102 ct 606 -99 609 -97 612 -95 ct 
616 -93 620 -92 625 -90 ct 630 -89 635 -88 641 -86 ct 645 -85 649 -84 653 -83 ct 
657 -82 661 -81 665 -79 ct 669 -77 673 -75 676 -73 ct 680 -71 683 -69 685 -66 ct 
688 -62 690 -59 692 -55 ct 693 -51 694 -46 694 -41 ct p ef
783 -1 m  780 0 776 0 772 1 ct 768 2 763 2 758 2 ct 738 2 728 -9 728 -32 ct 728 -131 l 
711 -131 l  711 -149 l  729 -149 l  737 -183 l  753 -183 l  753 -149 l 
781 -149 l  781 -131 l  753 -131 l  753 -37 l  753 -30 754 -25 757 -22 ct 
759 -19 763 -18 769 -18 ct 771 -18 774 -18 776 -18 ct 778 -19 781 -19 783 -20 ct 
783 -1 l  p ef
844 3 m  829 3 818 -1 810 -9 ct 803 -17 799 -28 799 -42 ct 799 -52 801 -60 805 -66 ct 
808 -72 813 -77 819 -81 ct 825 -84 832 -87 840 -88 ct 847 -90 855 -90 863 -90 ct 
897 -90 l  897 -99 l  897 -105 896 -110 895 -115 ct 894 -119 892 -122 889 -125 ct 
886 -128 883 -130 879 -131 ct 875 -132 870 -133 865 -133 ct 860 -133 856 -133 852 -132 ct 
848 -131 845 -130 842 -128 ct 839 -126 837 -124 835 -121 ct 833 -118 832 -114 831 -109 ct 
806 -112 l  807 -117 808 -123 811 -128 ct 813 -133 817 -137 822 -141 ct 827 -144 832 -147 840 -149 ct 
847 -151 855 -152 865 -152 ct 884 -152 898 -148 908 -139 ct 917 -130 922 -118 922 -102 ct 
922 -37 l  922 -30 923 -24 925 -21 ct 927 -17 930 -15 936 -15 ct 937 -15 938 -15 940 -15 ct 
941 -15 943 -16 944 -16 ct 944 -1 l  941 0 938 1 935 1 ct 931 1 928 2 925 2 ct 
920 2 916 1 913 0 ct 909 -1 907 -3 904 -6 ct 902 -8 901 -12 900 -15 ct 899 -19 898 -23 898 -28 ct 
897 -28 l  894 -24 891 -19 888 -15 ct 885 -11 881 -8 877 -5 ct 873 -3 868 -1 863 1 ct 
857 2 851 3 844 3 ct p
850 -16 m  858 -16 864 -17 870 -20 ct 876 -23 881 -26 885 -31 ct 889 -35 892 -40 894 -46 ct 
896 -51 897 -56 897 -61 ct 897 -73 l  870 -73 l  864 -73 858 -73 852 -72 ct 
847 -71 842 -69 838 -67 ct 834 -65 831 -62 828 -57 ct 826 -53 824 -48 824 -41 ct 
824 -33 827 -27 831 -22 ct 835 -18 842 -16 850 -16 ct p ef
1020 -1 m  1017 0 1013 0 1009 1 ct 1005 2 1000 2 995 2 ct 975 2 965 -9 965 -32 ct 
965 -131 l  948 -131 l  948 -149 l  966 -149 l  974 -183 l  990 -183 l 
990 -149 l  1018 -149 l  1018 -131 l  990 -131 l  990 -37 l  990 -30 991 -25 994 -22 ct 
996 -19 1000 -18 1006 -18 ct 1008 -18 1011 -18 1013 -18 ct 1015 -19 1018 -19 1020 -20 ct 
1020 -1 l  p ef
1062 -69 m  1062 -61 1063 -54 1064 -47 ct 1066 -41 1069 -35 1072 -31 ct 1075 -26 1079 -22 1085 -20 ct 
1090 -17 1096 -16 1104 -16 ct 1114 -16 1123 -18 1129 -22 ct 1136 -26 1140 -32 1143 -38 ct 
1164 -32 l  1163 -28 1161 -24 1158 -20 ct 1155 -16 1151 -12 1147 -9 ct 1142 -5 1136 -2 1129 0 ct 
1122 2 1114 3 1104 3 ct 1082 3 1065 -4 1053 -17 ct 1042 -30 1036 -50 1036 -75 ct 
1036 -89 1038 -101 1041 -111 ct 1045 -121 1049 -129 1056 -135 ct 1062 -141 1069 -145 1077 -148 ct 
1085 -151 1093 -152 1103 -152 ct 1115 -152 1126 -150 1134 -146 ct 1142 -142 1149 -136 1154 -129 ct 
1159 -122 1163 -113 1165 -104 ct 1167 -94 1168 -84 1168 -72 ct 1168 -69 l  1062 -69 l 
p
1143 -88 m  1141 -104 1137 -115 1131 -123 ct 1124 -130 1115 -134 1102 -134 ct 
1098 -134 1094 -133 1089 -132 ct 1085 -130 1080 -128 1077 -124 ct 1073 -121 1069 -116 1067 -111 ct 
1064 -105 1063 -97 1062 -88 ct 1143 -88 l  p ef
pom
13194 17045 m  12444 17045 l  ps
12444 17045 m  12444 15545 l  ps
1 lw 12444 15546 m  12764 15546 l  ps
13194 15546 m  12744 15396 l  12744 15696 l  13194 15546 l  p ef
0 lw 15694 15545 m  16194 15545 l  ps
16194 15545 m  16194 17045 l  ps
1 lw 16194 17045 m  15874 17045 l  ps
15444 17045 m  15894 17195 l  15894 16895 l  15444 17045 l  p ef
0 lw 13194 16545 m  13194 17545 l  ps
15444 16545 m  15444 17545 l  ps
0 9460 t 
pom
count op_count sub {pop} repeat countdictstack dict_count sub {end} repeat b4_inc_state restore
%%PageTrailer
%%Trailer
%%EOF
